1	6	cel1		U28	U28_1	U39	U39_1	U8	U8_1	
2	6	cpoly103		U16	U16_1	U16_1_1	U16_2	U9	U9_1	
3	8	cpoly104		U10	U10_1	U10_1_1	U10_2	U7	U7_1	U7_1_1	U7_2	
4	4	cpoly472		U3	U3_1	U3_1_1	U3_2	
5	4	dip14	064	U1	U1_1	U1_1_1	U1_3	
6	2	dip14	4013	U1_2	U1_2_1	
7	2	dip16	13700	U2	U2_1	
8	10	do3		U14	U14_1	U14_1_1	U14_2	U17	U17_1	U17_1_1	U17_1_1_1	U17_1_2	U17_2	
9	12	qnpn		U12	U12_1	U12_1_1	U12_2	U19	U19_1	U19_1_1	U19_2	U23	U23_1	
					U23_1_1	U23_2	
10	20	qpnp		U20	U20_1	U20_1_1	U20_2	U20_2_1	U20_3	U21_1	U21_1_1	U21_1_1_1	U21_1_2	
					U21_1_2_1	U21_1_3	U4	U4_1	U4_1_1	U4_1_1_1	U4_1_1_1_1	U4_1_1_2	U4_1_2	U4_2	
11	2	r3		U18	U18_6	
12	2	r3	0	U18_5	U18_5_1	
13	4	r3	100k	U18_4_2_2_1_2	U18_4_2_2_1_2_2	U18_4_2_2_1_7	U18_4_2_2_1_7_1	
14	16	r3	10k	U18_3	U18_3_1	U18_4_2_2_1_6	U18_4_2_2_1_6_1	U18_4_2_2_1_6_1_1	U18_4_2_2_1_6_2	U5_2	U5_2_2_3_1	U5_2_2_3_1_2	U5_2_2_4_2	
					U5_2_2_4_2_1_1_1	U5_2_2_4_2_1_1_1_1	U5_2_2_4_2_3	U5_2_3	U6	U6_1	
15	2	r3	10m	U5_2_2_1	U5_2_2_1_1	
16	2	r3	1m	U5_3_2	U5_3_2_1	
17	8	r3	2.2m	U13	U13_1	U13_1_1	U13_2	U18_4_2_2_1_2_1	U18_4_2_2_1_2_1_1	U24_1_1	U24_1_1_1	
18	12	r3	220k	U18_2	U18_2_1	U18_4	U18_4_2_2_1_1	U18_4_2_2_1_1_2	U18_4_4	U24	U24_2	U5_2_2	U5_2_2_3	
					U5_2_2_3_1_1_1_1	U5_2_2_3_1_1_1_1_1	
19	36	r3	22k	U18_4_3	U18_4_3_1_2	U18_4_3_1_2_1	U18_4_3_1_2_1_1	U18_4_3_1_2_1_1_1	U18_4_3_1_2_1_2	U18_4_3_1_2_1_2_1	U18_4_3_1_2_1_3	U18_4_3_1_2_2	U18_4_3_2	
					U33	U33_1	U5	U5_1	U5_1_1	U5_1_1_1	U5_1_2	U5_2_1	U5_2_1_1	U5_2_2_4	
					U5_2_2_4_1	U5_2_2_4_1_1	U5_2_2_4_2_1	U5_2_2_4_2_1_1	U5_2_2_4_2_1_1_2	U5_2_2_4_2_1_2	U5_2_2_4_2_2	U5_2_2_4_2_2_1	U5_2_2_4_3	U5_3	
					U5_3_1	U5_3_1_1	U5_3_3	U5_5	U5_5_1	U5_6	
20	16	r3	4.7k	U18_1	U18_1_1	U18_4_2_2_1	U18_4_2_2_1_1_1	U18_4_2_2_1_1_1_1	U18_4_2_2_1_3	U18_4_2_2_1_3_1	U18_4_2_2_1_8	U18_4_3_1	U18_4_3_1_1	
					U18_4_3_1_3	U18_4_3_1_3_3	U24_1	U24_1_2	U5_2_2_3_1_1	U5_2_2_3_1_1_1	
21	2	r3	470k	U5_2_2_3_1_1_2	U5_2_2_3_1_1_2_1	
22	24	r3	47k	U15_1	U15_1_1	U18_4_1	U18_4_1_1	U18_4_2	U18_4_2_1	U18_4_2_1_1	U18_4_2_2	U18_4_2_2_1_4	U18_4_2_2_1_4_1	
					U18_4_2_2_1_4_1_1	U18_4_2_2_1_4_2	U18_4_2_2_1_5	U18_4_2_2_1_5_1	U18_4_2_2_1_5_1_1	U18_4_2_2_1_5_2	U18_4_2_2_2	U18_4_2_3	U18_4_3_1_3_1	U18_4_3_1_3_1_1	
					U18_4_3_1_3_2	U18_4_3_1_3_2_1	U5_2_2_2	U5_2_2_2_1	
23	2	r3	x	U15	U15_2	
24	2	r3	y	U5_4	U5_4_1	
25	4	wnob		U37	U37_1	U37_1_1	U37_2	
26	2	wobelisk		U27	U27_1	
27	2	wpod		U40	U40_1	
28	2	wsqin		U29	U29_1	
29	2	wsqu2in		U22	U22_1	
30	2	wsquin		U11	U11_1	
31	2	wtrin		U26	U26_1	
32	2	wttrchaos		U25	U25_1	
33	2	wtttrrugg		U36	U36_1	
