%FSTAX24Y24*%
%MOIN*%
%IN deerhorn_spyral.bottomsoldermask.ger *%
%ADD10C,0.0700*%
%ADD11C,0.0800*%
%ADD12C,0.0890*%
%ADD13C,0.1000*%
%ADD14C,0.1200*%
D10*X134007Y022354D03*X131192Y020945D03*X128162Y022005D03*
X126786Y024973D03*X127981Y028086D03*X131104Y029421D03*
X134295Y028086D03*X135581Y024808D03*X134099Y021545D03*
X130667Y020316D03*X127339Y021949D03*X126173Y025535D03*
X127964Y028924D03*X131702Y030016D03*X135144Y028064D03*
X136157Y024174D03*X134038Y020685D03*X129999Y019761D03*X12647Y02205D03*
X125642Y026238D03*X128106Y0298D03*X132439Y030523D03*X136026Y027881D03*
X136638Y023405D03*X133814Y019799D03*X129197Y019307D03*
X125581Y022317D03*X125217Y02707D03*X128414Y030689D03*X133301Y030918D03*
X136914Y02753D03*X137001Y022514D03*X133419Y018914D03*X128279Y018977D03*
X1247Y022754D03*X12492Y028015D03*X128894Y031563D03*X134271Y031179D03*
X137781Y027007D03*X137226Y02152D03*X132854Y018058D03*X127262Y01879D03*
X123856Y023362D03*X124773Y029053D03*X129545Y032395D03*
X135329Y031287D03*X138597Y026314D03*X137292Y020444D03*
X132119Y017258D03*X126169Y018766D03*X123075Y024139D03*
X124791Y030161D03*X130363Y033155D03*X136451Y031224D03*
X139335Y025456D03*X137185Y01931D03*X131221Y016544D03*X125024Y018918D03*
X122386Y025076D03*X12499Y031315D03*X131338Y033816D03*X137611Y030979D03*
X139968Y024443D03*X136893Y018144D03*X130172Y015942D03*
X123855Y019259D03*X121816Y026161D03*X125378Y032486D03*
X132458Y034353D03*X138782Y030542D03*X140469Y02329D03*X136407Y016975D03*
X128986Y015478D03*X12269Y019794D03*X12139Y027378D03*X125963Y033645D03*
X133706Y034739D03*X139934Y029909D03*X140814Y022013D03*
X135724Y015833D03*X127681Y015175D03*X121559Y020526D03*
X121131Y028709D03*X126745Y034762D03*X135061Y034954D03*
X141036Y029077D03*X140982Y020635D03*X134843Y014748D03*
X126281Y015054D03*X120494Y021455D03*X121058Y030129D03*
X127721Y035807D03*X136499Y034977D03*X142057Y028053D03*X140955Y01918D03*
X133771Y013751D03*X124811Y015133D03*X119524Y022574D03*X12119Y031612D03*
X128886Y036748D03*X137994Y034792D03*X142968Y026843D03*
X140716Y017676D03*X132517Y012873D03*X1233Y015426D03*X11868Y023872D03*
X121538Y033129D03*X130227Y037556D03*X139515Y034388D03*
X143739Y025461D03*X140256Y016153D03*X131094Y012142D03*
X121777Y015943D03*X11799Y025334D03*X122113Y034649D03*X131727Y038203D03*
X14103Y033755D03*X144341Y023923D03*X139566Y014643D03*X129522Y011586D03*
X120276Y016691D03*X117481Y026941D03*X122919Y03614D03*X133367Y038663D03*
X142508Y032892D03*X14475Y022253D03*X138644Y013181D03*X127821Y011229D03*
X118831Y017671D03*X117179Y028669D03*X123956Y037566D03*
X135122Y038911D03*X143914Y031798D03*X144942Y020473D03*
X137493Y011799D03*X126019Y011095D03*X117474Y018878D03*
X117102Y030492D03*X125219Y038895D03*X136964Y038927D03*
X145213Y030479D03*X144898Y018614D03*X13612Y010531D03*X124145Y0112D03*
X116241Y020305D03*X11727Y03238D03*X126698Y040093D03*X138862Y038696D03*
X146372Y028947D03*X144602Y016707D03*X134537Y009412D03*X12223Y011561D03*
X115163Y021938D03*X117696Y034298D03*X128381Y041126D03*
X140783Y038204D03*X147359Y027217D03*X144043Y014785D03*X13276Y008473D03*
X120311Y012186D03*X114274Y02376D03*X118389Y036213D03*X130246Y041964D03*
X142691Y037443D03*X148144Y02531D03*X143215Y012886D03*X130812Y007743D03*
X118424Y013083D03*X113601Y025747D03*X119353Y038087D03*
X132271Y042578D03*X144549Y036412D03*X148697Y023249D03*
X142116Y011047D03*X128717Y007251D03*X116606Y01425D03*X113173Y027874D03*
X120588Y039882D03*X134428Y042942D03*X146318Y03511D03*X148995Y021063D03*
X140748Y009306D03*X126506Y007021D03*X114894Y015683D03*X113011Y03011D03*
X122086Y04156D03*X136686Y043034D03*X147962Y033547D03*X149016Y018787D03*
X139121Y0077D03*X124211Y007072D03*X113328Y017373D03*X113135Y032419D03*
X123838Y043084D03*X139008Y042835D03*X149441Y031734D03*
X148743Y016454D03*X137248Y006267D03*X12187Y007421D03*X111945Y019304D03*
X11356Y034766D03*X125827Y044417D03*X141358Y042333D03*X150721Y02969D03*
X148164Y014103D03*X135149Y005043D03*X119522Y008078D03*
X110778Y021456D03*X114296Y03711D03*X12803Y045524D03*X143695Y041519D03*
X151766Y027437D03*X14727Y011776D03*X132848Y004061D03*X117207Y009051D03*
X109861Y023804D03*X115348Y03941D03*X130422Y046373D03*X145978Y040389D03*
X152546Y025003D03*X146061Y009513D03*X130374Y003352D03*
X114967Y010338D03*X109225Y026317D03*X116713Y041624D03*
X132971Y046936D03*X148163Y038945D03*X153033Y022419D03*X14454Y007359D03*
X127759Y002942D03*X112846Y011936D03*X108894Y028961D03*
X118387Y043709D03*X135642Y047186D03*X15021Y037196D03*X153202Y019723D03*
X142716Y005354D03*X125041Y002856D03*X110885Y013834D03*
X108891Y031698D03*X120357Y045623D03*X138397Y047104D03*
X152074Y035154D03*X153034Y016955D03*X140605Y003541D03*X12226Y00311D03*
X109127Y016014D03*X109233Y034488D03*X122605Y047325D03*
X141192Y046674D03*X153717Y032841D03*D11*X092726Y038375D03*
X091813Y038782D03*X090899Y039189D03*X088383Y035695D03*
X089929Y038267D03*X096888Y038611D03*X099785Y039387D03*
X097664Y040571D03*X094693Y040154D03*D13*X090717Y041975D03*
X090042Y044898D03*D11*X06343Y017705D03*X063672Y016735D03*
X063914Y015765D03*X060797Y013801D03*X061596Y014403D03*
X062394Y015005D03*X065444Y013451D03*X06534Y010453D03*X062774Y010636D03*
X060317Y008916D03*X069638Y015546D03*X068862Y018444D03*
X070222Y021212D03*X067992Y019204D03*X068163Y016379D03*
X068425Y013391D03*X066992Y00974D03*X06694Y012739D03*X065363Y01989D03*
X067041Y022377D03*X059702Y018837D03*X060068Y01586D03*X069729Y026709D03*
X070612Y02624D03*X071495Y02577D03*X060297Y023563D03*X059305Y023685D03*
X058312Y023807D03*X068205Y024472D03*X069088Y024003D03*
X069971Y023533D03*X067236Y029347D03*Y028347D03*Y027347D03*
X071725Y031108D03*X071082Y030342D03*X070439Y029576D03*X060633Y02111D03*
X05964Y020988D03*X058648Y020866D03*X061023Y035783D03*X060781Y034812D03*
X060539Y033842D03*X061718Y031561D03*X061048Y030818D03*
X060379Y030075D03*X058471Y026053D03*X061394Y025378D03*
X065175Y024774D03*X062551Y026229D03*X063041Y029871D03*X065048Y0321D03*
X059174Y034826D03*X056393Y033702D03*X063453Y03892D03*X062427Y036101D03*
X070849Y034629D03*X073078Y032622D03*X064958Y035708D03*X062544Y03289D03*
X063812Y035609D03*X069339Y033204D03*X068264Y030403D03*X06574Y026424D03*
X064714Y029243D03*X09678Y036948D03*X099714Y036324D03*X092597Y0109D03*
X093589Y011022D03*X094582Y011144D03*X095574Y011266D03*
X096567Y011388D03*X097559Y011509D03*X098552Y011631D03*
X098186Y014609D03*X097194Y014487D03*X096201Y014365D03*
X095209Y014243D03*X094216Y014121D03*X093223Y014D03*X092231Y013878D03*
X092569Y015315D03*X089768Y01424D03*X101284Y020038D03*X098415Y020915D03*
X085031Y011986D03*X083811Y009246D03*X089373Y011539D03*
X089478Y008541D03*X090712Y01229D03*X091285Y009345D03*X098944Y027713D03*
X099935Y027852D03*X100925Y027991D03*X099785Y031268D03*
X097269Y032901D03*X096524Y0278D03*X093601Y028475D03*X097941Y009996D03*
X097266Y007073D03*X094433Y015315D03*X097368Y015939D03*
X066392Y030988D03*X067467Y033789D03*X078305Y013712D03*
X077312Y013834D03*X07632Y013956D03*X075327Y014078D03*X074334Y0142D03*
X073342Y014322D03*X072349Y014444D03*X071357Y014565D03*
X070991Y011588D03*X071984Y011466D03*X072976Y011344D03*
X073969Y011222D03*X074961Y0111D03*X075954Y010978D03*X076947Y010857D03*
X077939Y010735D03*X09382Y017688D03*X096809Y01795D03*X079696Y011573D03*
X079539Y014569D03*X072656Y0153D03*X075639Y014986D03*X073032Y016472D03*
X076016Y016159D03*X074963Y008898D03*X071967Y009055D03*
X074922Y010009D03*X071938Y010323D03*X083097Y017522D03*
X080766Y015634D03*X081659Y012885D03*X080438Y010144D03*
X094688Y020197D03*X092356Y022085D03*X092453Y007869D03*
X095077Y009324D03*X100223Y014438D03*X098768Y017062D03*
X099083Y034249D03*X099791Y033542D03*X100498Y032834D03*
X094159Y033048D03*X092075Y03089D03*X094157Y031058D03*X09715Y031268D03*
X096101Y019488D03*X09657Y022451D03*X08663Y019492D03*X086905Y01853D03*
X087181Y017569D03*X084355Y017272D03*X085329Y017047D03*
X086304Y016822D03*X087227Y015442D03*X08707Y012446D03*X08672Y011578D03*
X085793Y008725D03*X086007Y007647D03*X086041Y006648D03*
X086076Y005648D03*X083857Y005651D03*X083979Y006643D03*
X084101Y007636D03*X088049Y011102D03*X087579Y008139D03*X08866Y015135D03*
X088346Y012151D03*X091238Y00584D03*X092784Y003269D03*X06757Y035043D03*
X081863Y006268D03*X082124Y003279D03*X079251Y00698D03*X082222Y007398D03*
X083035Y011615D03*X085042Y013845D03*X082623Y015337D03*
X085577Y014816D03*X08141Y018946D03*X079367Y022955D03*X099846Y025614D03*
X102682Y02659D03*X063676Y013343D03*X062922Y012687D03*X062167Y012031D03*
X066775Y01583D03*X066483Y016786D03*X066191Y017742D03*X076922Y025071D03*
X06914Y007914D03*X096498Y029422D03*X094999Y029448D03*X08965Y02227D03*
X088526Y019489D03*X097848Y035147D03*X09525Y033647D03*X094412Y035809D03*
X093731Y034473D03*X091216Y027077D03*X090241Y026852D03*
X089267Y026627D03*X086361Y029119D03*X085759Y029918D03*
X085158Y030716D03*X09074Y031481D03*X087769Y031064D03*X090456Y03541D03*
X093Y037D03*X091096Y034259D03*X088609Y032581D03*X089831Y028456D03*
X086843Y028194D03*X094058Y024887D03*X097058Y024834D03*
X094058Y026449D03*X097058D03*X087257Y025019D03*X09022Y024549D03*
X08241Y027361D03*X085364Y02684D03*X097942Y030386D03*X098125Y028897D03*
X087403Y029446D03*X090338Y03007D03*X101462Y018203D03*X098609Y01913D03*
X059925Y037513D03*X061Y040313D03*X072964Y0347D03*X074039Y0375D03*D12*
X063107Y041169D03*D11*X077833Y005759D03*X078112Y00774D03*
X077972Y00675D03*X075703Y007414D03*X072719Y007727D03*X076922Y010188D03*
X076608Y007204D03*X06933Y009561D03*X069539Y012553D03*D10*
X031945Y021914D03*X02913Y020505D03*X026101Y021564D03*X024725Y024533D03*
X025919Y027646D03*X029042Y028981D03*X032233Y027645D03*
X033519Y024368D03*X032037Y021105D03*X028605Y019875D03*
X025277Y021509D03*X024111Y025095D03*X025902Y028483D03*X02964Y029576D03*
X033082Y027624D03*X034095Y023734D03*X031976Y020245D03*
X027937Y019321D03*X024408Y02161D03*X02358Y025798D03*X026044Y02936D03*
X030377Y030083D03*X033965Y027441D03*X034576Y022965D03*
X031752Y019359D03*X027136Y018867D03*X023519Y021877D03*X023155Y02663D03*
X026353Y030249D03*X031239Y030478D03*X034853Y027089D03*X03494Y022074D03*
X031358Y018474D03*X026217Y018537D03*X022639Y022314D03*
X022858Y027575D03*X026833Y031123D03*X032209Y030739D03*
X035719Y026567D03*X035164Y02108D03*X030792Y017617D03*X0252Y01835D03*
X021794Y022922D03*X022711Y028613D03*X027483Y031954D03*
X033267Y030847D03*X036535Y025873D03*X03523Y020004D03*X030057Y016818D03*
X024107Y018326D03*X021013Y023698D03*X02273Y029721D03*X028301Y032715D03*
X034389Y030784D03*X037273Y025016D03*X035123Y018869D03*
X029159Y016104D03*X022963Y018478D03*X020325Y024635D03*
X022928Y030874D03*X029276Y033376D03*X03555Y030539D03*X037906Y024003D03*
X034831Y017704D03*X02811Y015502D03*X021793Y018818D03*X019755Y02572D03*
X023316Y032045D03*X030396Y033912D03*X03672Y030102D03*X038407Y022849D03*
X034345Y016535D03*X026924Y015037D03*X020628Y019353D03*
X019328Y026938D03*X023901Y033205D03*X031644Y034299D03*
X037872Y029468D03*X038752Y021573D03*X033662Y015393D03*X02562Y014734D03*
X019498Y020086D03*X019069Y028268D03*X024683Y034322D03*
X032999Y034513D03*X038974Y028637D03*X038921Y020194D03*
X032782Y014308D03*X02422Y014613D03*X018432Y021015D03*X018996Y029688D03*
X02566Y035367D03*X034437Y034536D03*X039996Y027612D03*X038893Y018739D03*
X03171Y013311D03*X02275Y014692D03*X017462Y022133D03*X019128Y031172D03*
X026824Y036308D03*X035932Y034352D03*X040906Y026403D03*
X038654Y017235D03*X030455Y012433D03*X021238Y014986D03*
X016618Y023431D03*X019476Y032689D03*X028165Y037116D03*
X037453Y033947D03*X041677Y02502D03*X038194Y015713D03*X029033Y011702D03*
X019715Y015503D03*X015928Y024893D03*X020051Y034209D03*
X029665Y037763D03*X038969Y033315D03*X042279Y023483D03*
X037504Y014203D03*X02746Y011146D03*X018214Y016251D03*X01542Y0265D03*
X020857Y035699D03*X031305Y038222D03*X040446Y032451D03*
X042688Y021812D03*X036582Y01274D03*X025759Y010789D03*X016769Y01723D03*
X015117Y028229D03*X021894Y037126D03*X03306Y03847D03*X041852Y031357D03*
X04288Y020033D03*X035431Y011358D03*X023957Y010654D03*X015412Y018437D03*
X01504Y030052D03*X023157Y038455D03*X034902Y038487D03*X043151Y030039D03*
X042836Y018174D03*X034058Y010091D03*X022083Y01076D03*X014179Y019864D03*
X015209Y031939D03*X024637Y039652D03*X0368Y038256D03*X04431Y028507D03*
X04254Y016266D03*X032475Y008971D03*X020169Y01112D03*X013101Y021498D03*
X015634Y033858D03*X026319Y040686D03*X038721Y037763D03*
X045297Y026777D03*X041982Y014345D03*X030699Y008032D03*X01825Y011746D03*
X012212Y023319D03*X016327Y035773D03*X028184Y041524D03*
X040629Y037003D03*X046082Y024869D03*X041153Y012446D03*X02875Y007303D03*
X016362Y012642D03*X011539Y025307D03*X017291Y037646D03*X03021Y042137D03*
X042487Y035971D03*X046636Y022808D03*X040054Y010607D03*
X026655Y006811D03*X014544Y013809D03*X011111Y027434D03*
X018526Y039442D03*X032367Y042501D03*X044256Y03467D03*X046934Y020623D03*
X038686Y008865D03*X024444Y00658D03*X012832Y015243D03*X010949Y029669D03*
X020025Y04112D03*X034624Y042593D03*X0459Y033107D03*X046954Y018346D03*
X037059Y00726D03*X02215Y006632D03*X011267Y016933D03*X011073Y031979D03*
X021776Y042644D03*X036946Y042395D03*X047379Y031294D03*
X046681Y016013D03*X035187Y005827D03*X019809Y00698D03*X009883Y018864D03*
X011498Y034325D03*X023765Y043977D03*X039296Y041893D03*X048659Y02925D03*
X046102Y013663D03*X033088Y004603D03*X01746Y007638D03*X008716Y021016D03*
X012234Y036669D03*X025968Y045084D03*X041633Y041078D03*
X049704Y026996D03*X045208Y011336D03*X030786Y003621D03*X015145Y00861D03*
X007799Y023363D03*X013286Y03897D03*X02836Y045933D03*X043916Y039948D03*
X050484Y024562D03*X043999Y009073D03*X028312Y002911D03*
X012905Y009898D03*X007163Y025876D03*X014651Y041184D03*
X030909Y046495D03*X046101Y038504D03*X050971Y021979D03*
X042478Y006918D03*X025697Y002502D03*X010784Y011496D03*X006832Y02852D03*
X016325Y043269D03*X03358Y046746D03*X048148Y036755D03*X05114Y019283D03*
X040654Y004913D03*X022979Y002415D03*X008823Y013393D03*
X006829Y031258D03*X018295Y045183D03*X036335Y046664D03*
X050012Y034714D03*X050972Y016514D03*X038543Y0031D03*X020199Y00267D03*
X007065Y015573D03*X007171Y034047D03*X020543Y046885D03*X03913Y046234D03*
X051655Y0324D03*D11*X153878Y005472D03*X154799Y005081D03*
X155719Y00469D03*X156087Y011214D03*X156935Y010684D03*X157784Y010154D03*
X151332Y001662D03*X153526Y003708D03*X156315Y007099D03*X153327Y00736D03*
D13*X157431Y03635D02*G01X157238Y036299D01*X154534Y035574D02*
X15434Y035522D01*D11*X154195Y038326D03*X155554Y03896D03*
X149908Y002612D03*X151453Y005183D03*X15138Y00755D03*X151952Y010495D03*
X143831Y002724D03*X146631Y003799D03*X004772Y030698D03*X002011Y03187D03*
X002707Y019444D03*X002083Y01651D03*X005206Y011627D03*X006695Y011444D03*
X037705Y048558D03*X040705D03*D14*X013889Y046047D03*X01018Y044549D03*
X011285Y047153D03*D13*X004133Y015354D02*X004277Y015215D01*
X006291Y01327D02*X006435Y013131D01*X003662Y020761D02*X003556Y02093D01*
X002072Y023305D02*X001966Y023475D01*D11*X007743Y008962D03*
X007336Y008048D03*X006929Y007135D03*X002391Y003839D03*
X003348Y004131D03*X004304Y004423D03*X013105Y001994D03*X0113Y00439D03*
X005413Y008262D03*X002789Y006808D03*D13*X005325Y042935D02*
X005464Y042792D01*X007409Y040777D02*X007548Y040634D01*D11*
X002778Y033262D03*X002051Y034574D03*X008654Y043056D03*
X007927Y044368D03*X009829Y001068D03*X008329Y003666D03*
X004072Y002829D03*X006909Y001852D03*X017664Y001496D03*X0154Y003464D03*
D12*X002066Y044088D03*D11*X153275Y043589D03*X141775Y048398D03*
X138852Y049073D03*X093659Y044621D03*X09657Y043895D03*X002137Y040954D03*
X004249Y036981D03*X102653Y001918D03*X100355Y003846D03*X068377Y00406D03*
X066489Y001728D03*X003067Y009915D03*X004558Y009758D03*
X155701Y008595D03*X154519Y009518D03*X003846Y012441D03*
X001934Y011856D03*X00289Y012148D03*X003276Y024572D03*X003224Y027572D03*
X057279Y040089D03*X056695Y038176D03*X056987Y039133D03*D13*
X004202Y000926D03*X001202D03*X15441Y001662D03*X15741D03*D11*
X064626Y022223D03*X061825Y023298D03*D12*X071701Y038937D03*D11*
X093204Y042161D03*X096203Y042214D03*
M02*