Designator	Part	Midx	Midy	Refx	Refy	Padx	Pady	TB	Rotation
U14_1	qnpn	9.181	3.878	9.181	3.878	9.181	3.878	Top	156.0
U15_2_1	r3	8.916	3.698	8.993	3.827	8.838	3.570	Top	-121.0
U17_1	cpoly104	9.834	3.900	9.979	3.939	9.689	3.861	Top	-165.0
U13_1_2	r3	9.618	4.036	9.469	4.015	9.766	4.057	Top	8.0
U4	wobelisk	9.038	4.344	9.072	4.198	9.072	4.198	Top	103.0
U31	qpnp	6.367	1.674	6.367	1.674	6.367	1.674	Top	-76.0
U32	qnpn	6.160	1.440	6.160	1.440	6.160	1.440	Top	37.0
U7_3_1_1	r3	6.539	1.195	6.534	1.045	6.544	1.345	Top	88.0
U7_3_1_1_1	r3	6.155	0.978	6.032	0.892	6.277	1.064	Top	35.0
U7_3_1_1_2	r3	6.925	1.700	6.886	1.844	6.964	1.555	Top	-75.0
U7_3_1_1_4	r3	6.911	2.021	6.799	1.920	7.022	2.121	Top	42.0
U7_3_1_1_2_1	r3	6.829	1.488	6.842	1.339	6.816	1.638	Top	95.0
U7_3_1_2	r3	6.697	1.124	6.694	1.274	6.699	0.974	Top	-89.0
U7_3_1_1_3_1	r3	6.620	2.113	6.704	2.238	6.536	1.989	Top	-124.0
U7_3_1_2_1	r3	5.988	1.735	6.007	1.586	5.970	1.884	Top	97.0
U34	qnpn	7.061	2.624	7.061	2.624	7.061	2.624	Top	-28.0
U35	qpnp	5.930	2.369	5.930	2.369	5.930	2.369	Top	173.0
U34_1	qnpn	6.909	2.400	6.909	2.400	6.909	2.400	Top	-28.0
U34_2	qnpn	6.724	2.835	6.724	2.835	6.724	2.835	Top	-90.0
U34_3	qnpn	7.108	3.034	7.108	3.034	7.108	3.034	Top	-130.0
U35_1	qpnp	5.964	2.099	5.964	2.099	5.964	2.099	Top	-173.0
U35_2	qpnp	6.078	3.481	6.078	3.481	6.078	3.481	Top	-104.0
U35_3	qpnp	6.105	3.082	6.105	3.082	6.105	3.082	Top	-132.0
U7_3_1_2_1_1	r3	5.993	2.572	6.139	2.538	5.847	2.605	Top	167.0
U7_3_1_2_1_2	r3	6.386	2.550	6.255	2.623	6.517	2.477	Top	-29.0
U7_3_1_2_1_1_1	r3	6.404	3.099	6.505	3.210	6.304	2.987	Top	-132.0
U7_3_1_2_1_1_1_1	r3	5.778	3.426	5.639	3.370	5.917	3.483	Top	22.0
U7_3_1_2_1_1_1_1_1	r3	6.294	3.751	6.243	3.610	6.345	3.892	Top	70.0
U7_3_1_2_1_1_1_1_2	r3	7.196	3.363	7.308	3.262	7.085	3.463	Top	138.0
U39	cpoly104	6.318	3.425	6.381	3.561	6.254	3.289	Top	-115.0
U7_3_1_2_1_1_1_1_2_5	r3	6.880	3.180	6.826	3.040	6.934	3.320	Top	69.0
U7_3_1_2_1_1_1_1_2_6	r3	6.523	2.783	6.471	2.924	6.574	2.642	Top	-70.0
U15_3_1_2_2	r3	9.825	3.664	9.971	3.632	9.678	3.695	Top	168.0
U2	dip14	9.539	1.275	9.260	1.090	9.260	1.090	Top	7.0
U7_2	r3	9.117	1.478	8.977	1.424	9.257	1.531	Top	21.0
U7_1_1	r3	9.985	2.048	9.841	2.092	10.128	2.004	Top	-17.0
U7_2_1	r3	8.442	1.062	8.381	0.925	8.503	1.199	Top	66.0
U7_3	r3	8.943	1.004	8.948	0.854	8.937	1.154	Top	92.0
U7_3_1	r3	9.100	1.082	9.128	0.935	9.071	1.229	Top	101.0
U14_1_1	qpnp	9.993	2.785	9.993	2.785	9.993	2.785	Top	8.0
U3_2	r3	9.853	3.208	9.727	3.290	9.979	3.127	Top	-33.0
U3_1_2	r3	9.506	2.814	9.360	2.848	9.652	2.780	Top	-13.0
U7_1_1	r3	9.760	0.853	9.727	0.707	9.794	1.000	Top	77.0
U7_2	r3	9.590	1.563	9.737	1.594	9.443	1.532	Top	-168.0
U39_1	cpoly104	6.693	3.239	6.747	3.379	6.639	3.099	Top	-111.0
U16	dip16	7.465	1.265	7.830	1.371	7.830	1.371	Top	173.0
U7_3	r3	9.531	1.782	9.681	1.795	9.382	1.769	Top	-175.0
U7_2_1	r3	7.962	1.307	7.954	1.457	7.970	1.157	Top	-87.0
U7_2_1_3	r3	7.415	1.514	7.564	1.499	7.266	1.530	Top	174.0
U7_2_1_4	r3	7.452	1.632	7.602	1.616	7.303	1.647	Top	174.0
U7_2_1_2_2	r3	7.347	0.898	7.197	0.906	7.496	0.890	Top	-3.0
U7_2_1_2_3	r3	7.343	1.017	7.194	1.032	7.492	1.001	Top	-6.0
U7_2_1_2_1_1	r3	8.193	1.658	8.077	1.563	8.310	1.752	Top	39.0
U7_2_1_2_1_2	r3	8.105	1.151	8.044	1.014	8.166	1.288	Top	66.0
U17_1	chair3	9.352	2.114	9.236	2.209	9.469	2.020	Top	-39.0
U17_2	chair3	9.377	0.860	9.508	0.932	9.245	0.787	Top	-151.0
U17_3	chair3	9.950	1.575	9.877	1.706	10.022	1.444	Top	-61.0
U14_1_1	qpnp	9.979	3.354	9.979	3.354	9.979	3.354	Top	-45.0
U3_2	r3	9.312	3.197	9.207	3.089	9.416	3.305	Top	46.0
U3_2_1	r3	9.565	3.116	9.715	3.127	9.416	3.106	Top	-176.0
U3_1_2	r3	9.634	2.097	9.657	2.245	9.610	1.949	Top	-99.0
U14_1_1_1	qpnp	8.691	1.853	8.691	1.853	8.691	1.853	Top	-74.0
U14_1_1_2	qpnp	8.533	1.705	8.533	1.705	8.533	1.705	Top	-13.0
U7_2_1_2_1_1_1	r3	8.715	1.394	8.707	1.245	8.723	1.544	Top	87.0
U7_2_1_2_1_1_2	r3	8.626	1.015	8.579	0.872	8.672	1.158	Top	72.0
U14_1_1_1_1	qpnp	8.604	0.665	8.604	0.665	8.604	0.665	Top	-88.0
U14_1	qnpn	8.398	0.664	8.398	0.664	8.398	0.664	Top	83.0
U7_2_1_2_1_1_3	r3	8.781	0.962	8.758	0.814	8.805	1.110	Top	81.0
U7_2_1_2_1_1_4	r3	8.850	1.364	8.835	1.215	8.866	1.513	Top	84.0
U7_3_2	r3	9.201	0.455	9.278	0.327	9.124	0.584	Top	121.0
U7_3_2_1	r3	8.199	0.477	8.212	0.328	8.186	0.627	Top	95.0
U7_3_2_2	r3	8.074	0.719	8.222	0.740	7.925	0.698	Top	-172.0
U7_2_1_2_2_1	r3	8.404	1.273	8.504	1.384	8.303	1.162	Top	-132.0
U7_2_1_2_2_2	r3	8.410	1.508	8.558	1.482	8.262	1.534	Top	170.0
U14_2_1	cadsulfide	8.039	2.095	8.039	2.095	8.039	2.095	Top	-63.0
U5_2	do3	10.126	2.610	10.268	2.659	10.268	2.659	Top	-161.0
U31_1	qpnp	6.292	1.269	6.292	1.269	6.292	1.269	Top	-139.0
U32_1	qnpn	6.648	1.679	6.648	1.679	6.648	1.679	Top	107.0
U14_3	cpoly102	9.575	2.943	9.500	2.945	9.650	2.942	Top	-1.0
U7_2_1_2_1_1_5	r3	8.909	2.088	8.853	1.949	8.965	2.227	Top	68.0
U3_2_2	r3	9.655	3.440	9.525	3.365	9.785	3.515	Top	30.0
U17	cpoly103	9.407	3.514	9.373	3.447	9.441	3.581	Top	63.0
U14_1_2	qnpn	9.024	2.685	9.024	2.685	9.024	2.685	Top	-167.0
U14_1_3	qnpn	8.576	2.992	8.576	2.992	8.576	2.992	Top	127.0
U15_2_1	r3	8.925	3.127	8.777	3.106	9.074	3.148	Top	8.0
U17_1_3	cpoly104	9.173	3.621	9.300	3.700	9.046	3.541	Top	-148.0
U15_2_1_1	r3	8.985	3.342	8.861	3.258	9.110	3.426	Top	34.0
U15_2_1_1_1	r3	8.834	2.832	8.684	2.819	8.983	2.846	Top	5.0
U15_2_1_1_2	r3	9.556	2.486	9.706	2.483	9.406	2.489	Top	179.0
U15_2_1_1_3	r3	9.556	2.645	9.706	2.645	9.406	2.645	Top	180.0
U15_2_1_1_1_1	r3	8.874	2.478	9.022	2.455	8.726	2.502	Top	171.0
U15_2_1_1_1_1_1	r3	8.389	2.710	8.536	2.684	8.241	2.736	Top	170.0
U17_4	cpoly103	9.803	2.964	9.813	2.890	9.794	3.039	Top	97.0
U15_2_1_1_4	r3	8.887	2.976	9.034	3.007	8.740	2.945	Top	-168.0
U17_1_3_1	cpoly104	10.004	1.867	9.861	1.913	10.146	1.820	Top	-18.0
U39_2	cpoly104	6.046	3.891	6.100	4.031	5.993	3.751	Top	-111.0
U39_3	cpoly104	7.350	3.610	7.404	3.750	7.296	3.470	Top	-111.0
U7_1	wnob	7.797	0.675	7.811	0.774	7.783	0.576	Top	-98.0
U7_2_1_2_3_1	r3	7.421	0.757	7.272	0.773	7.570	0.741	Top	-6.0
U7_2_1_2_3_2	r3	7.677	0.870	7.661	0.720	7.692	1.019	Top	84.0
U7_3_1_1_2_1_1	r3	6.943	1.106	6.954	1.255	6.933	0.956	Top	-94.0
U3	qpnp	15.480	0.508	15.480	0.508	15.480	0.508	Top	-23.0
U3_1	qpnp	15.694	1.068	15.694	1.068	15.694	1.068	Top	-32.0
U15_3	r3	15.243	0.268	15.353	0.371	15.133	0.166	Top	-137.0
U15_1	r3	15.482	0.723	15.333	0.736	15.632	0.710	Top	-5.0
U18	rrrspiral	15.589	3.594	15.444	3.555	15.733	3.632	Top	15.0
U6_1	cpoly101	15.487	3.864	15.555	3.896	15.419	3.833	Top	-155.0
U15_3_1	r3	15.068	0.390	15.145	0.518	14.991	0.261	Top	-121.0
U15_3_1_1	r3	15.167	0.902	15.195	1.049	15.138	0.755	Top	-101.0
U11	cpoly104	14.523	0.326	14.663	0.380	14.383	0.272	Top	-159.0
U4_2	r3	0.339	3.128	0.201	3.187	0.477	3.070	Top	-23.0
U4_3	r3	0.239	1.798	0.208	1.651	0.271	1.944	Top	78.0
U9	cpoly102	0.595	1.154	0.670	1.144	0.521	1.163	Top	173.0
U13_2	r3	3.921	4.856	4.071	4.856	3.771	4.856	Top	-180.0
U8_1	rrrvaractor	0.528	1.424	0.636	1.320	0.420	1.528	Top	136.0
U8	rrrvaractor	0.281	2.212	0.202	2.339	0.361	2.085	Top	-58.0
U3	qpnp	0.734	0.805	0.734	0.805	0.734	0.805	Top	-114.0
U3_1	qpnp	0.335	0.413	0.335	0.413	0.335	0.413	Top	17.0
U15_3	r3	1.220	0.319	1.130	0.439	1.311	0.199	Top	-53.0
U15_1	r3	0.410	0.753	0.279	0.681	0.541	0.826	Top	29.0
U18	rrrspiral	0.644	4.178	0.748	4.071	0.539	4.286	Top	134.0
U6	cpoly101	0.241	3.392	0.205	3.457	0.278	3.326	Top	-61.0
U6_1	cpoly101	0.829	4.371	0.793	4.437	0.865	4.306	Top	-61.0
U15_3_1	r3	0.908	0.237	0.833	0.367	0.983	0.107	Top	-60.0
U15_3_1_1	r3	0.549	0.234	0.691	0.185	0.407	0.283	Top	161.0
U11	cpoly104	1.653	0.248	1.540	0.346	1.766	0.150	Top	-41.0
U13_2	r3	14.031	4.874	13.885	4.907	14.177	4.840	Top	-13.0
U5	do3	9.511	4.426	9.657	4.390	9.657	4.390	Top	166.0
U14_2	cadsulfide	0.319	3.897	0.319	3.897	0.319	3.897	Top	118.0
U13_2_1	r3	10.150	0.288	10.036	0.385	10.265	0.192	Top	-40.0
U13_2_2	r3	6.743	0.289	6.649	0.173	6.838	0.406	Top	51.0
U6	cpoly101	0.381	0.984	0.456	0.976	0.307	0.991	Top	174.0
U6_1_1	cpoly101	15.511	0.906	15.452	0.952	15.570	0.859	Top	-38.0
U7	wnob	0.289	1.215	0.193	1.186	0.385	1.244	Top	17.0
U4_3	r3	0.325	2.607	0.322	2.757	0.328	2.457	Top	-89.0
U7	wnob	5.699	3.913	5.669	3.818	5.728	4.009	Top	73.0
U1	wobelisk	0.270	0.093	0.420	0.093	0.420	0.093	Top	180.0
U10	wobelisk	15.591	0.166	15.441	0.166	15.441	0.166	Top	0.0
U39_1	cpoly104	6.323	2.276	6.183	2.330	6.463	2.222	Top	-21.0
U17_1	cpoly104	9.470	4.219	9.620	4.221	9.320	4.216	Top	-179.0
