1	3	cel1		U28_1	U39_1	U8_1	
2	3	cpoly103		U16	U16_1_1	U9_1	
3	4	cpoly104		U10_1_1	U10_2	U7_1_1	U7_2	
4	2	cpoly472		U3	U3_1	
5	2	dip14	064	U1_1_1	U1_3	
6	1	dip14	4013	U1_2_1	
7	1	dip16	13700	U2_1	
8	5	do3		U14_1_1	U14_2	U17_1_1	U17_1_2	U17_2	
9	6	qnpn		U12_1_1	U12_2	U19_1_1	U19_2	U23_1	U23_2	
10	10	qpnp		U20	U20_1_1	U20_2_1	U21_1_1_1	U21_1_2_1	U21_1_3	U4_1_1_1_1	U4_1_1_2	U4_1_2	U4_2	
11	1	r3		U18_6	
12	1	r3	0	U18_5_1	
13	2	r3	100k	U18_4_2_2_1_2_2	U18_4_2_2_1_7_1	
14	8	r3	10k	U18_3_1	U18_4_2_2_1_6_1_1	U18_4_2_2_1_6_2	U5_2_2_3_1_2	U5_2_2_4_2_1_1_1_1	U5_2_2_4_2_3	U5_2_3	U6_1	
15	1	r3	10m	U5_2_2_1_1	
16	1	r3	1m	U5_3_2_1	
17	4	r3	2.2m	U13	U13_1	U18_4_2_2_1_2_1	U24_1_1_1	
18	6	r3	220k	U18_2_1	U18_4_2_2_1_1_2	U18_4_4	U24	U5_2_2	U5_2_2_3_1_1_1_1_1	
19	18	r3	22k	U18_4_3	U18_4_3_1_2	U18_4_3_1_2_1_1_1	U18_4_3_1_2_1_2_1	U18_4_3_1_2_1_3	U33_1	U5	U5_1	U5_1_1_1	U5_2_1	
					U5_2_2_4_1_1	U5_2_2_4_2_1	U5_2_2_4_2_1_1_2	U5_2_2_4_2_2	U5_2_2_4_3	U5_3_1_1	U5_3_3	U5_5_1	
20	8	r3	4.7k	U18_1_1	U18_4_2_2_1_1_1_1	U18_4_2_2_1_3	U18_4_2_2_1_8	U18_4_3_1_1	U18_4_3_1_3	U24_1_2	U5_2_2_3_1_1	
21	1	r3	470k	U5_2_2_3_1_1_2_1	
22	12	r3	47k	U15_1	U18_4_1	U18_4_2_1_1	U18_4_2_2	U18_4_2_2_1_4	U18_4_2_2_1_4_1_1	U18_4_2_2_1_5	U18_4_2_2_1_5_1	U18_4_2_3	U18_4_3_1_3_1_1	
					U18_4_3_1_3_2_1	U5_2_2_2_1	
23	1	r3	x	U15_2	
24	1	r3	y	U5_4_1	
25	2	wnob		U37_1	U37_2	
26	1	wobelisk		U27_1	
27	1	wpod		U40	
28	1	wsqin		U29_1	
29	1	wsqu2in		U22_1	
30	1	wsquin		U11_1	
31	1	wtrin		U26	
32	1	wttrchaos		U25	
33	1	wtttrrugg		U36_1	
