%FSTAX24Y24*%
%MOIN*%
%IN chainlock.bottomlayer.ger *%
%ADD10C,0.0200*%
%ADD11C,0.0600*%
%ADD12C,0.0800*%
%ADD13R,0.0800X0.0800*%
D11*X007966Y006863D03*X006373Y006699D03*X009046Y009015D03*
X010046Y007283D03*X015101Y020565D03*X013766Y023027D03*
X012965Y022112D03*X016626Y021403D03*X014543Y025925D03*
X019567Y016953D03*X017402Y018505D03*X019445Y015932D03*
X016463Y017892D03*X020477Y010362D03*X023664Y008306D03*
X021888Y013152D03*X021692Y019057D03*X023853Y010039D03*
X024371Y009013D03*X022441Y015775D03*X022567Y016953D03*
X022792Y008979D03*X022409Y010197D03*X009266Y028906D03*D12*
X007521Y028272D03*D11*X023766Y001891D03*X022004Y003919D03*
X026664Y002668D03*X028196Y002291D03*X035951Y004474D03*
X027034Y004148D03*X028248Y003289D03*X03014Y003331D03*X033117Y003696D03*
X032895Y004729D03*X035295Y005229D03*X029893Y008241D03*
X028614Y009013D03*X030857Y007714D03*X024242Y014566D03*
X025589Y011775D03*X026493Y011135D03*X017096Y029104D03*X010679Y02696D03*
X009713Y027219D03*D12*X006846Y025349D03*D11*X008937Y024321D03*
X007665Y022828D03*X007144Y021065D03*X008141Y019278D03*
X005599Y020009D03*X001242Y017391D03*X000712Y012424D03*
X001068Y007235D03*X007393Y003918D03*X009546Y008149D03*
X017787Y002644D03*X018602Y003626D03*X019936Y001797D03*X022074Y00192D03*
X038256Y012378D03*D12*X038965Y016076D03*D11*X027907Y008306D03*
X027302Y024136D03*X031915Y020607D03*X030273Y025735D03*
X026618Y026152D03*X029589Y024608D03*X030704Y019336D03*
X022699Y022665D03*X021378Y02204D03*X020589Y023775D03*X025699Y017557D03*
X027704Y017336D03*X026083Y020057D03*X023857Y016638D03*
X013577Y026184D03*X027907Y012549D03*X026891Y013158D03*
X026768Y015913D03*X027704Y016336D03*X026809Y017146D03*
X033292Y013244D03*X031963Y015096D03*X030704Y016336D03*
X031208Y011086D03*X031784Y010567D03*X030028Y010428D03*
X021135Y025411D03*X019445Y025777D03*X018178Y026144D03*
X033141Y010485D03*X035446Y0125D03*X035336Y015708D03*X028393Y005643D03*
X026952Y005382D03*X031671Y013937D03*X030704Y014336D03*
X033171Y024959D03*X034489Y024853D03*X023118Y023859D03*
X021522Y024133D03*X036222Y015398D03*X035103Y022503D03*
X034298Y023872D03*X037922Y023529D03*D13*X037639Y021658D03*D11*
X036915Y0188D03*D12*X036706Y021299D03*D11*X034639Y005984D03*
X035622Y007149D03*X036701Y006828D03*X0283Y004288D03*X033347Y006538D03*
X025786Y006185D03*X026493Y006892D03*X030296Y006229D03*
X015509Y025666D03*X016077Y026562D03*X0128Y023286D03*X011644Y010515D03*
X012358Y011158D03*X01503Y013022D03*X010546Y006417D03*X012902Y005008D03*
X013027Y003587D03*X014788Y002696D03*X011046Y005551D03*
X009959Y005103D03*X034991Y018517D03*X03454Y014814D03*X03402Y018759D03*
X034488Y020563D03*X03455Y013134D03*X03305Y019001D03*X033162Y022554D03*
X034107Y02289D03*X019787Y026716D03*X023618Y026152D03*X019635Y022195D03*
X019655Y023417D03*X019103Y024837D03*D12*X005106Y003677D03*D11*
X004943Y007271D03*X019666Y019533D03*X020915Y01442D03*X018424Y015115D03*
X020622Y019825D03*X018669Y021937D03*X017096Y026104D03*X03223Y026277D03*
X032487Y023831D03*X032164Y022624D03*X036559Y02509D03*X0317Y027125D03*
X036135Y027427D03*D12*X024113Y028783D03*D11*X019056Y029013D03*D12*
X022624Y006481D03*D11*X021054Y006964D03*X019802Y007439D03*
X030704Y015336D03*Y017336D03*X031754Y018089D03*X032792Y017298D03*
X030704Y020336D03*Y021336D03*X027704D03*Y020336D03*Y015336D03*
Y014336D03*X026015Y023082D03*X026991Y022669D03*X027704Y018336D03*
X0272Y011842D03*D12*X018158Y01129D03*D11*X018248Y007956D03*
X018602Y006626D03*X019993Y005904D03*X017161Y005844D03*D12*
X018628Y012173D03*D11*X020446Y011457D03*D12*X038082Y016545D03*D11*
X03953Y024672D03*X032124Y019122D03*X030704Y018336D03*X029321Y00972D03*
X0272Y007599D03*D12*X038522Y002982D03*D11*X03893Y00482D03*
X012922Y002593D03*X009698Y002114D03*X002793Y012352D03*
X002941Y010417D03*X002696Y006495D03*X0035Y013059D03*X004248Y012214D03*
X008251Y01264D03*X01Y018725D03*X011599Y017765D03*X012476Y018111D03*
X011234Y014788D03*X010335Y014134D03*X010644Y012247D03*X012392Y01428D03*
X010041Y020289D03*X010966Y018984D03*X011835Y023545D03*X011564Y0207D03*
X010067Y022888D03*X010869Y023803D03*X012611Y026442D03*
X013179Y027339D03*X009232Y013521D03*X011144Y011381D03*X011955Y0125D03*
X007427Y015917D03*X005289Y014589D03*X003554Y005673D03*X00384Y015891D03*
X006727Y017864D03*X005181Y017039D03*X014734Y001449D03*
X012818Y001598D03*X017733Y001397D03*X019901Y002796D03*
X019866Y003795D03*X022039Y002919D03*X003905Y008212D03*
X007528Y009219D03*X008546Y009881D03*X003883Y009237D03*
X005309Y010249D03*X008046Y010747D03*X00197Y003584D03*D12*
X002165Y002002D03*D11*X00653Y015097D03*X004208Y013767D03*
X009034Y018466D03*X008631Y02257D03*X009903Y024062D03*X011645Y026701D03*
X012163Y028129D03*X027704Y019336D03*X025786Y010428D03*X03117Y027973D03*
X031167Y022694D03*X038733Y028927D03*D12*X037199Y017015D03*D11*
X037256Y012378D03*X034847Y009136D03*X036448Y010033D03*
X013685Y018579D03*X01393Y019877D03*X017703Y021678D03*X018709Y019241D03*
X018581Y018111D03*X014732Y022768D03*X014774Y016183D03*D12*
X019097Y013056D03*D11*X012144Y009649D03*X016872Y012175D03*
X00853Y01653D03*X007434Y018571D03*X013992Y008642D03*X013144Y007917D03*
X007095Y012193D03*X005722Y011615D03*X013644Y007051D03*X015891Y00527D03*
X024136Y003372D03*X024054Y004605D03*X025078Y00972D03*X023467Y013897D03*
X024106Y024993D03*X022788Y018283D03*X022856Y019669D03*
X014445Y010412D03*X012644Y008783D03*X01504Y007965D03*X017382Y008456D03*
X015564Y017361D03*D12*X016463Y016054D03*D11*X017361Y01491D03*
X013691Y01503D03*X014553Y014D03*D10*X007966Y006863D02*
G01X007639Y007966D01*X006373Y006699D01*X007639Y007966D02*
X009046Y009015D01*X009712Y009383D01*X010741Y00786D01*X010046Y007283D01*
X015101Y020565D02*X013775Y02208D01*X013853Y022845D01*X013766Y023027D01*
X013775Y02208D02*X012965Y022112D01*X016626Y021403D02*X017Y0224D01*
X014543Y025925D01*X019567Y016953D02*X018Y0174D01*X017402Y018505D01*
X019445Y015932D02*X018Y0165D01*X016463Y017892D01*X020477Y010362D02*
X021446Y010008D01*X022067Y008055D01*X023664Y008306D01*
X021446Y010008D02*X021888Y013152D01*X021446Y015973D01*
X021692Y019057D01*X023853Y010039D02*X024371Y009013D01*
X023074Y011652D01*X022441Y015775D01*X022567Y016953D01*
X022792Y008979D02*X022409Y010197D01*X009266Y028906D02*
X007521Y028272D01*X023766Y001891D02*X023149Y003783D01*
X022004Y003919D01*X026664Y002668D02*X028196Y002291D01*
X033676Y002714D01*X035951Y004474D01*X027034Y004148D02*
X028248Y003289D01*X03014Y003331D01*X033117Y003696D02*X034128Y004482D01*
X032895Y004729D01*X034128Y004482D02*X035295Y005229D01*
X029893Y008241D02*X028614Y009013D01*X029736Y008364D01*
X030857Y007714D01*X024242Y014566D02*X025589Y011775D01*
X026493Y011135D01*X017096Y029104D02*X0113Y0294D01*X010679Y02696D01*
X009713Y027219D01*X008631Y025794D01*X006846Y025349D01*
X008631Y025794D02*X008937Y024321D01*X007665Y022828D01*
X007144Y021065D01*X007665Y022828D02*X007243Y021534D01*
X006821Y020239D01*X008141Y019278D01*X006821Y020239D02*
X005599Y020009D01*X002369Y019894D01*X000654Y019077D01*
X001242Y017391D01*X000654Y019077D02*X000712Y012424D01*
X000483Y007085D01*X001068Y007235D01*X000483Y007085D02*X00066Y005893D01*
X000694Y000694D01*X007031Y002282D01*X007393Y003918D01*
X007031Y002282D02*X008436Y002099D01*X009232Y006046D01*
X008905Y007762D01*X009546Y008149D01*X008436Y002099D02*X00913Y001164D01*
X016102Y000604D01*X016159Y003289D01*X017431Y003381D01*
X017787Y002644D01*X017431Y003381D02*X018602Y003626D01*
X016102Y000604D02*X020518Y000576D01*X019936Y001797D01*
X020518Y000576D02*X02255Y000573D01*X022074Y00192D01*X02255Y000573D02*
X025288Y000863D01*X036593Y000765D01*X038163Y007367D01*
X038256Y012378D01*X038965Y016076D01*X025288Y000863D02*
X024745Y006567D01*X027318Y008938D01*X027907Y008306D01*X027299Y00901D01*
X029564Y011472D01*X029523Y019243D01*X029861Y019296D01*
X029058Y023695D01*X028248Y025123D01*X027302Y024136D01*
X028248Y025123D01*X029058Y023695D01*X029861Y019296D01*X03057Y01945D01*
X031279Y019605D01*X031915Y020607D01*X028248Y025123D02*
X027878Y025987D01*X030273Y025735D01*X027878Y025987D02*
X026618Y026152D01*X029058Y023695D02*X029589Y024608D01*
X029861Y019296D02*X030704Y019336D01*X022699Y022665D02*
X021464Y022985D01*X021378Y02204D01*X021464Y022985D02*X020589Y023775D01*
X025699Y017557D02*X026274Y018298D01*X027704Y017336D01*
X026274Y018298D02*X026083Y020057D01*X023857Y016638D02*
X024179Y017435D01*X02459Y018943D01*X02496Y026839D01*X015809Y027778D01*
X013577Y026184D01*X024179Y017435D02*X024301Y015789D01*
X027467Y013405D01*X027907Y012549D01*X027467Y013405D02*
X026891Y013158D01*X026768Y015913D02*X027179Y016324D01*
X027704Y016336D01*X027179Y016324D02*X026809Y017146D01*
X033292Y013244D02*X031963Y015096D01*X031923Y016304D01*
X030704Y016336D01*X031208Y011086D02*X03088Y01065D01*X031784Y010567D01*
X03088Y01065D02*X030028Y010428D01*X021135Y025411D02*X019445Y025777D01*
X018178Y026144D01*X033141Y010485D02*X033635Y009128D01*X035446Y0125D01*
X035336Y015708D01*X033635Y009128D02*X031538Y006085D01*
X029687Y005058D01*X028393Y005643D01*X026952Y005382D01*
X031671Y013937D02*X030704Y014336D01*X033171Y024959D02*
X034489Y024853D01*X023118Y023859D02*X021522Y024133D01*
X036222Y015398D02*X036Y0187D01*X035103Y022503D01*X035063Y023509D01*
X034298Y023872D01*X037922Y023529D02*X037639Y021658D01*X036915Y0188D02*
X036706Y021299D01*X034639Y005984D02*X035622Y007149D01*
X036701Y006828D01*X0283Y004288D02*X0301Y0044D01*X033347Y006538D01*
X025786Y006185D02*X026493Y006892D01*X030296Y006229D01*
X015509Y025666D02*X016077Y026562D01*X011644Y010515D02*
X012358Y011158D01*X01503Y013022D01*X010546Y006417D02*X011275Y006781D01*
X012902Y005008D01*X013027Y003587D01*X014788Y002696D01*
X011046Y005551D02*X009959Y005103D01*X034991Y018517D02*X03454Y014814D01*
X03402Y018759D02*X034488Y020563D01*X033762Y017846D01*X033036Y015129D01*
X03455Y013134D01*X03305Y019001D02*X033162Y022554D01*X034107Y02289D01*
X019787Y026716D02*X023618Y026152D01*X019635Y022195D02*
X019655Y023417D01*X019103Y024837D01*X005106Y003677D02*
X004943Y007271D01*X019666Y019533D02*X0207Y0175D01*X020915Y01442D01*
X018424Y015115D01*X020622Y019825D02*X018669Y021937D01*
X017096Y026104D01*X03223Y026277D02*X032487Y023831D01*X032164Y022624D01*
X036559Y02509D02*X034601Y026891D01*X0317Y027125D01*X034601Y026891D02*
X036135Y027427D01*X024113Y028783D02*X019056Y029013D01*
X022624Y006481D02*X021054Y006964D01*X019802Y007439D01*
X030704Y017336D02*X031754Y018089D01*X032792Y017298D01*
X027704Y014336D02*X025Y016324D01*X025111Y018723D01*X026015Y023082D01*
X026991Y022669D02*X027Y0191D01*X027704Y018336D01*X028454Y01838D01*
X02851Y012199D01*X027825Y011377D01*X0272Y011842D01*X018158Y01129D02*
X0189Y0097D01*X018248Y007956D01*X017861Y007037D01*X018602Y006626D01*
X019993Y005904D01*X017861Y007037D02*X017161Y005844D01*
X018628Y012173D02*X020446Y011457D01*X038082Y016545D02*X0395Y02D01*
X03953Y024672D01*X032124Y019122D02*X030704Y018336D01*X030057Y018215D01*
X03014Y012788D01*X030237Y011431D01*X029153Y010321D01*X029321Y00972D01*
X03236Y008594D01*X031209Y006867D01*X0272Y007599D01*X038522Y002982D02*
X03893Y00482D01*X012922Y002593D02*X009698Y002114D01*X002793Y012352D02*
X002941Y010417D01*X002696Y006495D01*X0035Y013059D02*X004248Y012214D01*
X006863Y013195D01*X008251Y01264D01*X01Y018725D02*X0103Y0178D01*
X011599Y017765D01*X012476Y018111D01*X011234Y014788D02*
X011235Y014075D01*X010988Y013704D01*X010335Y014134D01*
X010988Y013704D02*X010644Y012247D01*X011235Y014075D02*X012392Y01428D01*
X010041Y020289D02*X010966Y018984D01*X013046Y019671D01*
X011801Y022245D01*X011835Y023545D01*X011564Y0207D02*X010067Y022888D01*
X010869Y023803D01*X012611Y026442D01*X013179Y027339D01*
X009232Y013521D02*X0098Y0116D01*X011144Y011381D01*X011955Y0125D01*
X007427Y015917D02*X00586Y015718D01*X004605Y015173D01*X005289Y014589D01*
X004605Y015173D02*X002165Y015809D01*X001797Y004984D01*
X003554Y005673D01*X002165Y015809D02*X00384Y015891D01*X00586Y015718D02*
X005926Y016832D01*X006727Y017864D01*X005926Y016832D02*
X005181Y017039D01*X014734Y001449D02*X012818Y001598D01*
X017733Y001397D02*X019901Y002796D01*X020662Y003207D01*
X019866Y003795D01*X020662Y003207D02*X022039Y002919D01*
X003905Y008212D02*X005072Y009017D01*X007528Y009219D01*
X008546Y009881D01*X003883Y009237D02*X005309Y010249D01*
X008046Y010747D01*X00197Y003584D02*X002165Y002002D01*X00653Y015097D02*
X006863Y014216D01*X004861Y013276D01*X004208Y013767D01*
X006863Y014216D02*X009886Y016177D01*X009034Y018466D01*
X009177Y022669D01*X008631Y02257D01*X009177Y022669D02*X009903Y024062D01*
X010989Y025949D01*X011645Y026701D01*X012163Y028129D01*X0139Y0281D01*
X0155Y0285D01*X025683Y027535D01*X025822Y02426D01*X028577Y022409D01*
X028947Y019284D01*X027704Y019336D01*X028947Y019284D02*X028988Y01176D01*
X026891Y009293D01*X025786Y010428D01*X025683Y027535D02*
X030715Y028461D01*X03117Y027973D01*X030515Y02737D01*X03121Y025777D01*
X031167Y022694D01*X030715Y028461D02*X038733Y028927D01*
X038406Y025741D01*X038845Y020121D01*X037199Y017015D01*
X037072Y016054D01*X037256Y012378D01*X036806Y011438D01*
X034847Y009136D01*X036806Y011438D02*X036448Y010033D01*
X009886Y016177D02*X013606Y017069D01*X013685Y018579D01*
X014829Y019118D01*X01393Y019877D01*X014829Y019118D02*X016422Y019649D01*
X017443Y019812D01*X017703Y021678D01*X017443Y019812D02*
X018383Y018669D01*X018709Y019241D01*X018383Y018669D02*
X018581Y018111D01*X016422Y019649D02*X014732Y022768D01*
X013606Y017069D02*X014774Y016183D01*X017038Y013293D01*
X019097Y013056D01*X017038Y013293D02*X015638Y012058D01*
X014898Y011893D01*X012144Y009649D01*X015638Y012058D02*
X016872Y012175D01*X00853Y01653D02*X007434Y018571D01*X013992Y008642D02*
X013144Y007917D01*X012223Y007408D01*X0085Y012D01*X007095Y012193D01*
X005722Y011615D01*X012223Y007408D02*X012675Y006626D01*
X013644Y007051D01*X012675Y006626D02*X015033Y004044D01*
X016667Y005268D01*X015891Y00527D01*X016667Y005268D02*X018215Y004934D01*
X023026Y00477D01*X024136Y003372D01*X023026Y00477D02*X02352Y005386D01*
X024054Y004605D01*X02352Y005386D02*X023972Y007113D01*X02574Y008717D01*
X025078Y00972D01*X023467Y013897D01*X023055Y017442D01*X0238Y0185D01*
X024106Y024993D01*X023055Y017442D02*X022788Y018283D01*
X022856Y019669D01*X014445Y010412D02*X013828Y009753D01*
X012644Y008783D01*X013828Y009753D02*X014898Y00926D01*X01504Y007965D01*
X017382Y008456D01*X015564Y017361D02*X016463Y016054D01*X017361Y01491D01*
X013691Y01503D02*X014553Y014D01*
M02*