%FSTAX24Y24*%
%MOIN*%
%IN chainlock.toplayer.ger *%
%ADD10C,0.0600*%
%ADD11C,0.0800*%
%ADD12R,0.0800X0.0800*%
D10*X007393Y003918D03*X007966Y006863D03*X00384Y015891D03*
X001242Y017391D03*D11*X002165Y002002D03*D10*X022004Y003919D03*
X022039Y002919D03*X022074Y00192D03*X019866Y003795D03*X019901Y002796D03*
X019936Y001797D03*X015101Y020565D03*X016463Y017892D03*
X016626Y021403D03*X017402Y018505D03*X022567Y016953D03*X019567D03*
X019445Y015932D03*X022441Y015775D03*X019802Y007439D03*
X020477Y010362D03*X022409Y010197D03*X021888Y013152D03*
X023853Y010039D03*X022792Y008979D03*X021054Y006964D03*
X019993Y005904D03*X009266Y028906D03*X012163Y028129D03*
X013179Y027339D03*X016077Y026562D03*X010067Y022888D03*
X012965Y022112D03*X023766Y001891D03*X026664Y002668D03*
X024136Y003372D03*X027034Y004148D03*X03014Y003331D03*X033117Y003696D03*
X029893Y008241D03*X028393Y005643D03*X026891Y013158D03*
X024242Y014566D03*X025589Y011775D03*X023467Y013897D03*
X018581Y018111D03*X018424Y015115D03*X020915Y01442D03*X020446Y011457D03*
X017096Y029104D03*Y026104D03*X021378Y02204D03*X021692Y019057D03*
X022699Y022665D03*X022856Y019669D03*X022788Y018283D03*
X025699Y017557D03*X032792Y017298D03*X035336Y015708D03*
X023857Y016638D03*X026768Y015913D03*X033292Y013244D03*
X031208Y011086D03*X031754Y018089D03*X031963Y015096D03*
X026083Y020057D03*X026809Y017146D03*X018178Y026144D03*
X019056Y029013D03*X021135Y025411D03*X024106Y024993D03*
X031784Y010567D03*X030857Y007714D03*X034847Y009136D03*
X033347Y006538D03*X03455Y013134D03*X033141Y010485D03*X031671Y013937D03*
X03454Y014814D03*X026618Y026152D03*X023618D03*X033171Y024959D03*
X030273Y025735D03*X026015Y023082D03*X023118Y023859D03*
X036222Y015398D03*X035446Y0125D03*X035103Y022503D03*X037922Y023529D03*
X034488Y020563D03*X036915Y0188D03*X032895Y004729D03*X030296Y006229D03*
X018602Y003626D03*Y006626D03*X024054Y004605D03*X026952Y005382D03*
X034639Y005984D03*X035295Y005229D03*X035951Y004474D03*X0283Y004288D03*
X028248Y003289D03*X028196Y002291D03*X027907Y012549D03*X0272Y011842D03*
X026493Y011135D03*X025786Y010428D03*X025078Y00972D03*X024371Y009013D03*
X023664Y008306D03*X025786Y006185D03*X026493Y006892D03*X0272Y007599D03*
X027907Y008306D03*X028614Y009013D03*X029321Y00972D03*X030028Y010428D03*
X015509Y025666D03*X014543Y025925D03*X013577Y026184D03*
X012611Y026442D03*X011645Y026701D03*X010679Y02696D03*X009713Y027219D03*
X008937Y024321D03*X009903Y024062D03*X010869Y023803D03*
X011835Y023545D03*X0128Y023286D03*X013766Y023027D03*X014732Y022768D03*
X013644Y007051D03*X013144Y007917D03*X012644Y008783D03*
X012144Y009649D03*X011644Y010515D03*X011144Y011381D03*
X010644Y012247D03*X008046Y010747D03*X008546Y009881D03*
X009046Y009015D03*X009546Y008149D03*X010046Y007283D03*
X010546Y006417D03*X011046Y005551D03*X034991Y018517D03*X03402Y018759D03*
X03305Y019001D03*X034489Y024853D03*X034298Y023872D03*X034107Y02289D03*
X033162Y022554D03*X032164Y022624D03*X031167Y022694D03*
X021522Y024133D03*X020589Y023775D03*X019655Y023417D03*
X019787Y026716D03*X019445Y025777D03*X019103Y024837D03*
X019635Y022195D03*X018669Y021937D03*X017703Y021678D03*D11*
X005106Y003677D03*D10*X018709Y019241D03*X019666Y019533D03*
X020622Y019825D03*X03117Y027973D03*X0317Y027125D03*X03223Y026277D03*
X036559Y02509D03*X03953Y024672D03*X032487Y023831D03*X029589Y024608D03*
X038733Y028927D03*X036135Y027427D03*D11*X024113Y028783D03*
X022624Y006481D03*X006846Y025349D03*X007521Y028272D03*D10*
X008631Y02257D03*X007665Y022828D03*D12*X037639Y021658D03*D11*
X036706Y021299D03*D10*X030704Y014336D03*Y015336D03*Y016336D03*
Y017336D03*Y018336D03*Y019336D03*Y020336D03*Y021336D03*X027704D03*
Y020336D03*Y019336D03*Y018336D03*Y017336D03*Y016336D03*Y015336D03*
Y014336D03*X027302Y024136D03*X026991Y022669D03*X035622Y007149D03*
X036448Y010033D03*D11*X016463Y016054D03*X018158Y01129D03*
X019097Y013056D03*X018628Y012173D03*X038965Y016076D03*
X037199Y017015D03*X038082Y016545D03*D10*X037256Y012378D03*X038256D03*
X031915Y020607D03*X032124Y019122D03*D11*X038522Y002982D03*D10*
X012818Y001598D03*X012922Y002593D03*X013027Y003587D03*
X002793Y012352D03*X0035Y013059D03*X004208Y013767D03*X008141Y019278D03*
X007434Y018571D03*X006727Y017864D03*X010966Y018984D03*X01Y018725D03*
X009034Y018466D03*X011234Y014788D03*X011599Y017765D03*
X010041Y020289D03*X007144Y021065D03*X011564Y0207D03*X013685Y018579D03*
X009232Y013521D03*X007427Y015917D03*X007095Y012193D03*
X005289Y014589D03*X005181Y017039D03*X005599Y020009D03*
X006373Y006699D03*X003554Y005673D03*X014734Y001449D03*
X017733Y001397D03*X014788Y002696D03*X017787Y002644D03*
X003905Y008212D03*X001068Y007235D03*X009959Y005103D03*
X009698Y002114D03*X012902Y005008D03*X015891Y00527D03*X004248Y012214D03*
X003883Y009237D03*X00197Y003584D03*X002696Y006495D03*X000712Y012424D03*
X002941Y010417D03*X00653Y015097D03*X008251Y01264D03*X005309Y010249D03*
X004943Y007271D03*X005722Y011615D03*X007528Y009219D03*
X010335Y014134D03*X00853Y01653D03*X017161Y005844D03*X01504Y007965D03*
X013992Y008642D03*X012358Y011158D03*X014445Y010412D03*
X016872Y012175D03*X011955Y0125D03*X014553Y014D03*X014774Y016183D03*
X012476Y018111D03*X01393Y019877D03*X015564Y017361D03*X036701Y006828D03*
X03893Y00482D03*X01503Y013022D03*X017361Y01491D03*X017382Y008456D03*
X018248Y007956D03*X013691Y01503D03*X012392Y01428D03*
M02*