317mido             U18_2_-1    D 280PA00X  24136Y   3372X 600Y 600             
317mido             U18_4_-2    D 280PA00X  23467Y  13897X 600Y 600             
317mido             U18_4_-2    D 280PA00X  22856Y  19669X 600Y 600             
317mido             U18_4_-1    D 280PA00X  22788Y  18283X 600Y 600             
317mido             U18_4_-2    D 280PA00X  24106Y  24993X 600Y 600             
317mido             U18_6 -1    D 280PA00X  24054Y   4605X 600Y 600             
317mido             U1_1_1-5    D 280PA00X  25078Y   9720X 600Y 600             
317mido             U1_3  -1    D 280PA00X  13644Y   7051X 600Y 600             
317mido             U1_3  -2    D 280PA00X  13144Y   7917X 600Y 600             
317mido             U5_2_2-1    D 280PA00X   7095Y  12193X 600Y 600             
317mido             U5_2_2-2    D 280PA00X  15891Y   5270X 600Y 600             
317mido             U5_2_2-1    D 280PA00X   5722Y  11615X 600Y 600             
317mido             U5_3_2-1    D 280PA00X  13992Y   8642X 600Y 600             
317**Signal 42**    U4_2  -G    D 280PA00X  10000Y  18725X 600Y 600             
317**Signal 42**    U5    -2    D 280PA00X  11599Y  17765X 600Y 600             
317**Signal 42**    U5_5_1-2    D 280PA00X  12476Y  18111X 600Y 600             
317**Signal 64**    U1_3  -7    D 280PA00X  10644Y  12247X 600Y 600             
317**Signal 64**    U5    -1    D 280PA00X  11234Y  14788X 600Y 600             
317**Signal 64**    U5_2_3-1    D 280PA00X  10335Y  14134X 600Y 600             
317**Signal 64**    U9_1  -2    D 280PA00X  12392Y  14280X 600Y 600             
317**Signal 66**    U10_2 -1    D 280PA00X   3840Y  15891X 600Y 600             
317**Signal 66**    U4_1_2-D    D 280PA00X   6727Y  17864X 600Y 600             
317**Signal 66**    U5_2_1-2    D 280PA00X   7427Y  15917X 600Y 600             
317**Signal 66**    U5_2_2-2    D 280PA00X   5289Y  14589X 600Y 600             
317**Signal 66**    U5_2_2-1    D 280PA00X   5181Y  17039X 600Y 600             
317**Signal 66**    U5_2_2-2    D 280PA00X   3554Y   5673X 600Y 600             
317**Signal 67**    U1_3  -6    D 280PA00X  11144Y  11381X 600Y 600             
317**Signal 67**    U5_2_1-1    D 280PA00X   9232Y  13521X 600Y 600             
317**Signal 67**    U5_4_1-1    D 280PA00X  11955Y  12500X 600Y 600             
317**Signal 74**    U1_3  -8    D 280PA00X   8046Y  10747X 600Y 600             
317**Signal 74**    U5_2_2-2    D 280PA00X   3883Y   9237X 600Y 600             
317**Signal 74**    U5_2_2-1    D 280PA00X   5309Y  10249X 600Y 600             
317**Signal 82**    U12_1_-G    D 280PA00X  22039Y   2919X 600Y 600             
317**Signal 82**    U12_2 -G    D 280PA00X  19901Y   2796X 600Y 600             
317**Signal 82**    U12_2 -S    D 280PA00X  19866Y   3795X 600Y 600             
317**Signal 82**    U5_2_2-2    D 280PA00X  17733Y   1397X 600Y 600             
317**Signal 83**    U4_1_1-S    D 280PA00X  12818Y   1598X 600Y 600             
317**Signal 83**    U5_2_2-1    D 280PA00X  14734Y   1449X 600Y 600             
317**Signal 84**    U1_1_1-2    D 280PA00X  27200Y  11842X 600Y 600             
317**Signal 84**    U2_1  -12   D 280PA00X  27704Y  18336X 600Y 600             
317**Signal 84**    U3    -2    D 280PA00X  26991Y  22669X 600Y 600             
317**Signal 86**    U1_1_1-10   D 280PA00X  27200Y   7599X 600Y 600             
317**Signal 86**    U1_1_1-13   D 280PA00X  29321Y   9720X 600Y 600             
317**Signal 86**    U2_1  -5    D 280PA00X  30704Y  18336X 600Y 600             
317**Signal 86**    U3_1  -2    D 280PA00X  32124Y  19122X 600Y 600             
317**Signal 90**    U13_1 -1    D 280PA00X  16626Y  21403X 600Y 600             
317**Signal 90**    U1_2_1-2    D 280PA00X  14543Y  25925X 600Y 600             
317**Signal 91**    U18_4_-1    D 280PA00X  26891Y  13158X 600Y 600             
317**Signal 91**    U18_4_-1    D 280PA00X  23857Y  16638X 600Y 600             
317**Signal 91**    U1_1_1-1    D 280PA00X  27907Y  12549X 600Y 600             
317**Signal 91**    U1_2_1-3    D 280PA00X  13577Y  26184X 600Y 600             
317**Signal 92**    U13   -2    D 280PA00X  16463Y  17892X 600Y 600             
317**Signal 92**    U14_2 -A    D 280PA00X  19445Y  15932X 600Y 600             
317**Signal 93**    U13_1 -2    D 280PA00X  17402Y  18505X 600Y 600             
317**Signal 93**    U14_1_-K    D 280PA00X  19567Y  16953X 600Y 600             
317**Signal 94**    U14_1_-A    D 280PA00X  22567Y  16953X 600Y 600             
317**Signal 94**    U14_2 -K    D 280PA00X  22441Y  15775X 600Y 600             
317**Signal 94**    U16   -1    D 280PA00X  23853Y  10039X 600Y 600             
317**Signal 94**    U1_1_1-6    D 280PA00X  24371Y   9013X 600Y 600             
317**Signal 96**    U15_1 -2    D 280PA00X  20477Y  10362X 600Y 600             
317**Signal 96**    U15_2 -2    D 280PA00X  21888Y  13152X 600Y 600             
317**Signal 96**    U18_4_-2    D 280PA00X  21692Y  19057X 600Y 600             
317**Signal 96**    U1_1_1-7    D 280PA00X  23664Y   8306X 600Y 600             
317**Signal 97**    U15_2 -1    D 280PA00X  22409Y  10197X 600Y 600             
317**Signal 97**    U16   -2    D 280PA00X  22792Y   8979X 600Y 600             
317**Signal 104**   U13   -1    D 280PA00X  15101Y  20565X 600Y 600             
317**Signal 104**   U17_2 -K    D 280PA00X  12965Y  22112X 600Y 600             
317**Signal 104**   U1_2_1-13   D 280PA00X  13766Y  23027X 600Y 600             
317**Signal 108**   U18_4_-2    D 280PA00X  28393Y   5643X 600Y 600             
317**Signal 108**   U18_4_-2    D 280PA00X  35336Y  15708X 600Y 600             
317**Signal 108**   U18_4_-2    D 280PA00X  33141Y  10485X 600Y 600             
317**Signal 108**   U18_4_-2    D 280PA00X  35446Y  12500X 600Y 600             
317**Signal 108**   U18_6 -2    D 280PA00X  26952Y   5382X 600Y 600             
317**Signal 109**   U18_4_-1    D 280PA00X  29893Y   8241X 600Y 600             
317**Signal 109**   U18_4_-2    D 280PA00X  30857Y   7714X 600Y 600             
317**Signal 109**   U1_1_1-12   D 280PA00X  28614Y   9013X 600Y 600             
317**Signal 116**   U18_4_-2    D 280PA00X  24242Y  14566X 600Y 600             
317**Signal 116**   U18_4_-1    D 280PA00X  25589Y  11775X 600Y 600             
317**Signal 116**   U1_1_1-3    D 280PA00X  26493Y  11135X 600Y 600             
317**Signal 118**   U18_4_-2    D 280PA00X  33347Y   6538X 600Y 600             
317**Signal 118**   U19_2 -S    D 280PA00X  28300Y   4288X 600Y 600             
317**Signal 122**   U18_4_-2    D 280PA00X  31208Y  11086X 600Y 600             
317**Signal 122**   U18_4_-1    D 280PA00X  31784Y  10567X 600Y 600             
317**Signal 122**   U1_1_1-14   D 280PA00X  30028Y  10428X 600Y 600             
317**Signal 128**   U18_4_-1    D 280PA00X  34550Y  13134X 600Y 600             
317**Signal 128**   U18_4_-1    D 280PA00X  34488Y  20563X 600Y 600             
317**Signal 128**   U20   -G    D 280PA00X  34020Y  18759X 600Y 600             
317**Signal 129**   U20   -D    D 280PA00X  33050Y  19001X 600Y 600             
317**Signal 129**   U20_1_-D    D 280PA00X  34107Y  22890X 600Y 600             
317**Signal 129**   U20_2_-S    D 280PA00X  33162Y  22554X 600Y 600             
317**Signal 130**   U18_4_-1    D 280PA00X  31671Y  13937X 600Y 600             
317**Signal 130**   U2_1  -1    D 280PA00X  30704Y  14336X 600Y 600             
317**Signal 131**   U18_4_-2    D 280PA00X  34540Y  14814X 600Y 600             
317**Signal 131**   U20   -S    D 280PA00X  34991Y  18517X 600Y 600             
317**Signal 133**   U18_4_-1    D 280PA00X  21378Y  22040X 600Y 600             
317**Signal 133**   U18_4_-1    D 280PA00X  22699Y  22665X 600Y 600             
317**Signal 133**   U21_1_-G    D 280PA00X  20589Y  23775X 600Y 600             
317pos9             U17_1_-K    D 280PA00X  12163Y  28129X 600Y 600             
317pos9             U18_4_-1    D 280PA00X  18581Y  18111X 600Y 600             
317pos9             U18_4_-1    D 280PA00X  34847Y   9136X 600Y 600             
317pos9             U1_1_1-4    D 280PA00X  25786Y  10428X 600Y 600             
317pos9             U1_2_1-14   D 280PA00X  14732Y  22768X 600Y 600             
317pos9             U1_2_1-5    D 280PA00X  11645Y  26701X 600Y 600             
317pos9             U1_2_1-9    D 280PA00X   9903Y  24062X 600Y 600             
317pos9             U1_3  -4    D 280PA00X  12144Y   9649X 600Y 600             
317pos9             U20_2_-D    D 280PA00X  31167Y  22694X 600Y 600             
317pos9             U21_1_-D    D 280PA00X  17703Y  21678X 600Y 600             
317pos9             U23_1 -S    D 280PA00X  18709Y  19241X 600Y 600             
317pos9             U23_2 -S    D 280PA00X  31170Y  27973X 600Y 600             
317pos9             U24_1_-1    D 280PA00X  38733Y  28927X 600Y 600             
317pos9             U28_1 -1    D 280PA00X   8631Y  22570X 600Y 600             
317pos9             U2_1  -11   D 280PA00X  27704Y  19336X 600Y 600             
317pos9             U33_1 -2    D 280PA00X  36448Y  10033X 600Y 600             
317pos9             U37_1 -2    D 400PA00X  19097Y  13056X 800Y 800             
317pos9             U37_2 -2    D 400PA00X  37199Y  17015X 800Y 800             
317pos9             U39_1 -1    D 280PA00X  37256Y  12378X 600Y 600             
317pos9             U4_1_1-D    D 280PA00X   4208Y  13767X 600Y 600             
317pos9             U4_2  -D    D 280PA00X   9034Y  18466X 600Y 600             
317pos9             U5_1_1-2    D 280PA00X  13685Y  18579X 600Y 600             
317pos9             U5_2_2-1    D 280PA00X   6530Y  15097X 600Y 600             
317pos9             U5_3_3-2    D 280PA00X  16872Y  12175X 600Y 600             
317pos9             U5_5_1-1    D 280PA00X  14774Y  16183X 600Y 600             
317pos9             U6_1  -1    D 280PA00X  13930Y  19877X 600Y 600             
317**Signal 141**   U18_4_-1    D 280PA00X  36222Y  15398X 600Y 600             
317**Signal 141**   U18_4_-1    D 280PA00X  35103Y  22503X 600Y 600             
317**Signal 141**   U20_1_-G    D 280PA00X  34298Y  23872X 600Y 600             
317**Signal 142**   U24   -2    D 280PA00X  39530Y  24672X 600Y 600             
317**Signal 142**   U37_2 -wipe D 400PA00X  38082Y  16545X 800Y 800             
317**Signal 146**   U15_1 -1    D 280PA00X  19802Y   7439X 600Y 600             
317**Signal 146**   U16_1_-1    D 280PA00X  21054Y   6964X 600Y 600             
317**Signal 146**   U26   -1    D 400PA00X  22624Y   6481X 800Y 800             
317**Signal 147**   U17_1_-A    D 280PA00X   9266Y  28906X 600Y 600             
317**Signal 147**   U27_1 -2    D 400PA00X   7521Y  28272X 800Y 800             
317**Signal 3**     U18_4_-2    D 280PA00X  26768Y  15913X 600Y 600             
317**Signal 3**     U18_4_-2    D 280PA00X  26809Y  17146X 600Y 600             
317**Signal 3**     U2_1  -14   D 280PA00X  27704Y  16336X 600Y 600             
317**Signal 5**     U18_4_-1    D 280PA00X  33292Y  13244X 600Y 600             
317**Signal 5**     U18_4_-2    D 280PA00X  31963Y  15096X 600Y 600             
317**Signal 5**     U2_1  -3    D 280PA00X  30704Y  16336X 600Y 600             
317gnd              U10_1_-1    D 280PA00X   7393Y   3918X 600Y 600             
317gnd              U10_2 -2    D 280PA00X   1242Y  17391X 600Y 600             
317gnd              U12_1_-D    D 280PA00X  22074Y   1920X 600Y 600             
317gnd              U12_2 -D    D 280PA00X  19936Y   1797X 600Y 600             
317gnd              U18_4_-1    D 280PA00X  17096Y  29104X 600Y 600             
317gnd              U18_4_-1    D 280PA00X  26618Y  26152X 600Y 600             
317gnd              U18_4_-2    D 280PA00X  30273Y  25735X 600Y 600             
317gnd              U18_5_-1    D 280PA00X  18602Y   3626X 600Y 600             
317gnd              U1_1_1-11   D 280PA00X  27907Y   8306X 600Y 600             
317gnd              U1_2_1-6    D 280PA00X  10679Y  26960X 600Y 600             
317gnd              U1_2_1-7    D 280PA00X   9713Y  27219X 600Y 600             
317gnd              U1_2_1-8    D 280PA00X   8937Y  24321X 600Y 600             
317gnd              U1_3  -11   D 280PA00X   9546Y   8149X 600Y 600             
317gnd              U24_1_-2    D 280PA00X  29589Y  24608X 600Y 600             
317gnd              U27_1 -1    D 400PA00X   6846Y  25349X 800Y 800             
317gnd              U28_1 -2    D 280PA00X   7665Y  22828X 600Y 600             
317gnd              U2_1  -6    D 280PA00X  30704Y  19336X 600Y 600             
317gnd              U3    -1    D 280PA00X  27302Y  24136X 600Y 600             
317gnd              U37_2 -1    D 400PA00X  38965Y  16076X 800Y 800             
317gnd              U39_1 -2    D 280PA00X  38256Y  12378X 600Y 600             
317gnd              U3_1  -1    D 280PA00X  31915Y  20607X 600Y 600             
317gnd              U4_1_2-S    D 280PA00X   8141Y  19278X 600Y 600             
317gnd              U5_1  -2    D 280PA00X   7144Y  21065X 600Y 600             
317gnd              U5_2_2-2    D 280PA00X   5599Y  20009X 600Y 600             
317gnd              U5_2_2-2    D 280PA00X  17787Y   2644X 600Y 600             
317gnd              U5_2_2-2    D 280PA00X   1068Y   7235X 600Y 600             
317gnd              U5_2_2-1    D 280PA00X    712Y  12424X 600Y 600             
317**Signal 9**     U18_4_-2    D 280PA00X  19056Y  29013X 600Y 600             
317**Signal 9**     U25   -1    D 400PA00X  24113Y  28783X 800Y 800             
317**Signal 15**    U4_1_1-G    D 280PA00X   3500Y  13059X 600Y 600             
317**Signal 15**    U5_2_2-1    D 280PA00X   4248Y  12214X 600Y 600             
317**Signal 15**    U5_2_2-2    D 280PA00X   8251Y  12640X 600Y 600             
317**Signal 19**    U18_4_-2    D 280PA00X  20446Y  11457X 600Y 600             
317**Signal 19**    U37_1 -wipe D 400PA00X  18628Y  12173X 800Y 800             
317**Signal 20**    U16_1_-2    D 280PA00X  19993Y   5904X 600Y 600             
317**Signal 20**    U18_5_-2    D 280PA00X  18602Y   6626X 600Y 600             
317**Signal 20**    U37_1 -1    D 400PA00X  18158Y  11290X 800Y 800             
317**Signal 20**    U5_3_1-1    D 280PA00X  17161Y   5844X 600Y 600             
317**Signal 20**    U8_1  -2    D 280PA00X  18248Y   7956X 600Y 600             
317**Signal 23**    U18_4_-2    D 280PA00X  17096Y  26104X 600Y 600             
317**Signal 23**    U21_1_-G    D 280PA00X  18669Y  21937X 600Y 600             
317**Signal 23**    U23_1 -D    D 280PA00X  20622Y  19825X 600Y 600             
317**Signal 24**    U40   -growtD 400PA00X  38522Y   2982X 800Y 800             
317**Signal 24**    U7_1_1-2    D 280PA00X  38930Y   4820X 600Y 600             
317**Signal 1**     U18_4_-1    D 280PA00X  32792Y  17298X 600Y 600             
317**Signal 1**     U18_4_-1    D 280PA00X  31754Y  18089X 600Y 600             
317**Signal 1**     U2_1  -4    D 280PA00X  30704Y  17336X 600Y 600             
317**Signal 4**     U20_2_-G    D 280PA00X  32164Y  22624X 600Y 600             
317**Signal 4**     U23_2 -D    D 280PA00X  32230Y  26277X 600Y 600             
317**Signal 4**     U24_1_-1    D 280PA00X  32487Y  23831X 600Y 600             
317**Signal 6**     U18_4_-1    D 280PA00X  33171Y  24959X 600Y 600             
317**Signal 6**     U20_1_-S    D 280PA00X  34489Y  24853X 600Y 600             
317**Signal 7**     U18_4_-2    D 280PA00X  36915Y  18800X 600Y 600             
317**Signal 7**     U29_1 -2    D 400PA00X  36706Y  21299X 800Y 800             
317**Signal 8**     U18_4_-2    D 280PA00X  37922Y  23529X 600Y 600             
317**Signal 8**     U29_1 -1    D 400PA00X  37639Y  21658X 800Y 800             
317**Signal 11**    U19_1_-S    D 280PA00X  34639Y   5984X 600Y 600             
317**Signal 11**    U33_1 -1    D 280PA00X  35622Y   7149X 600Y 600             
317**Signal 11**    U7_1_1-1    D 280PA00X  36701Y   6828X 600Y 600             
317**Signal 12**    U18_3_-2    D 280PA00X  33117Y   3696X 600Y 600             
317**Signal 12**    U18_4_-1    D 280PA00X  32895Y   4729X 600Y 600             
317**Signal 12**    U19_1_-G    D 280PA00X  35295Y   5229X 600Y 600             
317**Signal 13**    U18_1_-2    D 280PA00X  26664Y   2668X 600Y 600             
317**Signal 13**    U19_1_-D    D 280PA00X  35951Y   4474X 600Y 600             
317**Signal 13**    U19_2 -D    D 280PA00X  28196Y   2291X 600Y 600             
317**Signal 14**    U18_2_-2    D 280PA00X  27034Y   4148X 600Y 600             
317**Signal 14**    U18_3_-1    D 280PA00X  30140Y   3331X 600Y 600             
317**Signal 14**    U19_2 -G    D 280PA00X  28248Y   3289X 600Y 600             
317**Signal 18**    U18_4_-2    D 280PA00X  30296Y   6229X 600Y 600             
317**Signal 18**    U1_1_1-8    D 280PA00X  25786Y   6185X 600Y 600             
317**Signal 18**    U1_1_1-9    D 280PA00X  26493Y   6892X 600Y 600             
317**Signal 21**    U23_2 -G    D 280PA00X  31700Y  27125X 600Y 600             
317**Signal 21**    U24   -1    D 280PA00X  36559Y  25090X 600Y 600             
317**Signal 21**    U24_1_-2    D 280PA00X  36135Y  27427X 600Y 600             
317**Signal 22**    U18_4_-2    D 280PA00X  25699Y  17557X 600Y 600             
317**Signal 22**    U18_4_-1    D 280PA00X  26083Y  20057X 600Y 600             
317**Signal 22**    U2_1  -13   D 280PA00X  27704Y  17336X 600Y 600             
317**Signal 27**    U18_4_-1    D 280PA00X  26015Y  23082X 600Y 600             
317**Signal 27**    U2_1  -16   D 280PA00X  27704Y  14336X 600Y 600             
317**Signal 29**    U18_4_-2    D 280PA00X  18424Y  15115X 600Y 600             
317**Signal 29**    U18_4_-1    D 280PA00X  20915Y  14420X 600Y 600             
317**Signal 29**    U23_1 -G    D 280PA00X  19666Y  19533X 600Y 600             
317**Signal 30**    U21_1_-D    D 280PA00X  19655Y  23417X 600Y 600             
317**Signal 30**    U21_1_-D    D 280PA00X  19103Y  24837X 600Y 600             
317**Signal 30**    U21_1_-S    D 280PA00X  19635Y  22195X 600Y 600             
317**Signal 32**    U18_4_-2    D 280PA00X  23118Y  23859X 600Y 600             
317**Signal 32**    U21_1_-S    D 280PA00X  21522Y  24133X 600Y 600             
317**Signal 33**    U18_4_-1    D 280PA00X  18178Y  26144X 600Y 600             
317**Signal 33**    U18_4_-1    D 280PA00X  21135Y  25411X 600Y 600             
317**Signal 33**    U21_1_-G    D 280PA00X  19445Y  25777X 600Y 600             
317**Signal 34**    U18_4_-2    D 280PA00X  23618Y  26152X 600Y 600             
317**Signal 34**    U21_1_-S    D 280PA00X  19787Y  26716X 600Y 600             
317**Signal 35**    U17_1_-K    D 280PA00X  16077Y  26562X 600Y 600             
317**Signal 35**    U1_2_1-1    D 280PA00X  15509Y  25666X 600Y 600             
317**Signal 36**    U17_1_-A    D 280PA00X  13179Y  27339X 600Y 600             
317**Signal 36**    U17_2 -A    D 280PA00X  10067Y  22888X 600Y 600             
317**Signal 36**    U1_2_1-10   D 280PA00X  10869Y  23803X 600Y 600             
317**Signal 36**    U1_2_1-4    D 280PA00X  12611Y  26442X 600Y 600             
317**Signal 36**    U5_1_1-1    D 280PA00X  11564Y  20700X 600Y 600             
317**Signal 37**    U1_2_1-11   D 280PA00X  11835Y  23545X 600Y 600             
317**Signal 37**    U4_2  -S    D 280PA00X  10966Y  18984X 600Y 600             
317**Signal 37**    U5_1  -1    D 280PA00X  10041Y  20289X 600Y 600             
317**Signal 39**    U36_1 -1    D 400PA00X  16463Y  16054X 800Y 800             
317**Signal 39**    U6_1  -2    D 280PA00X  15564Y  17361X 600Y 600             
317**Signal 39**    U7_2  -2    D 280PA00X  17361Y  14910X 600Y 600             
317**Signal 40**    U11_1 -1    D 400PA00X   2165Y   2002X 800Y 800             
317**Signal 40**    U5_2_2-1    D 280PA00X   1970Y   3584X 600Y 600             
317**Signal 41**    U22_1 -1    D 400PA00X   5106Y   3677X 800Y 800             
317**Signal 41**    U5_2_2-2    D 280PA00X   4943Y   7271X 600Y 600             
317**Signal 43**    U4_1_1-S    D 280PA00X   2793Y  12352X 600Y 600             
317**Signal 43**    U5_2_2-2    D 280PA00X   2696Y   6495X 600Y 600             
317**Signal 43**    U5_2_2-2    D 280PA00X   2941Y  10417X 600Y 600             
317**Signal 44**    U10_1_-2    D 280PA00X   7966Y   6863X 600Y 600             
317**Signal 44**    U1_3  -10   D 280PA00X   9046Y   9015X 600Y 600             
317**Signal 44**    U1_3  -12   D 280PA00X  10046Y   7283X 600Y 600             
317**Signal 44**    U5_2_2-1    D 280PA00X   6373Y   6699X 600Y 600             
317**Signal 46**    U4_1_1-G    D 280PA00X  12922Y   2593X 600Y 600             
317**Signal 46**    U5_2_2-2    D 280PA00X   9698Y   2114X 600Y 600             
317**Signal 47**    U1_3  -14   D 280PA00X  11046Y   5551X 600Y 600             
317**Signal 47**    U5_2_2-1    D 280PA00X   9959Y   5103X 600Y 600             
317**Signal 48**    U1_3  -13   D 280PA00X  10546Y   6417X 600Y 600             
317**Signal 48**    U4_1_1-D    D 280PA00X  13027Y   3587X 600Y 600             
317**Signal 48**    U5_2_2-1    D 280PA00X  14788Y   2696X 600Y 600             
317**Signal 48**    U5_2_2-1    D 280PA00X  12902Y   5008X 600Y 600             
317**Signal 49**    U12_1_-S    D 280PA00X  22004Y   3919X 600Y 600             
317**Signal 49**    U18_1_-1    D 280PA00X  23766Y   1891X 600Y 600             
317**Signal 10**    U4_1_2-G    D 280PA00X   7434Y  18571X 600Y 600             
317**Signal 10**    U5_2_3-2    D 280PA00X   8530Y  16530X 600Y 600             
317N/C              U1_2_1-12   D 280PA00X  12800Y  23286X 600Y 600             
317N/C              U1_3  -3    D 280PA00X  12644Y   8783X 600Y 600             
317N/C              U1_3  -5    D 280PA00X  11644Y  10515X 600Y 600             
317N/C              U1_3  -9    D 280PA00X   8546Y   9881X 600Y 600             
317N/C              U2_1  -2    D 280PA00X  30704Y  15336X 600Y 600             
317N/C              U2_1  -7    D 280PA00X  30704Y  20336X 600Y 600             
317N/C              U2_1  -8    D 280PA00X  30704Y  21336X 600Y 600             
317N/C              U2_1  -9    D 280PA00X  27704Y  21336X 600Y 600             
317N/C              U2_1  -10   D 280PA00X  27704Y  20336X 600Y 600             
317N/C              U2_1  -15   D 280PA00X  27704Y  15336X 600Y 600             
317N/C              U5_2_2-1    D 280PA00X   3905Y   8212X 600Y 600             
317N/C              U5_2_2-2    D 280PA00X   7528Y   9219X 600Y 600             
317N/C              U5_3_1-2    D 280PA00X  15040Y   7965X 600Y 600             
317N/C              U5_3_2-2    D 280PA00X  12358Y  11158X 600Y 600             
317N/C              U5_3_3-1    D 280PA00X  14445Y  10412X 600Y 600             
317N/C              U5_4_1-2    D 280PA00X  14553Y  14000X 600Y 600             
317N/C              U7_2  -1    D 280PA00X  15030Y  13022X 600Y 600             
317N/C              U8_1  -1    D 280PA00X  17382Y   8456X 600Y 600             
317N/C              U9_1  -1    D 280PA00X  13691Y  15030X 600Y 600             
999                                                                             
