1	12	cel1		U4	U4_1	U20	U4	U4_1	U20	U4	U4_1	U20	U4	
					U4_1	U20	
2	2	cel2		U19	U19_1	
3	6	cpoly100		U10	U10_1	U10	U10_2	U10_1_1	U10	
4	14	cpoly101		U6	U6_1	U6_1_1	U12_1	U6	U6_1	U12_1	U6_2	U6_1_2	U6_1_1	
					U12_1	U6	U6_1	U12_1	
5	4	cpoly102		U9	U9	U9	U9	
6	4	cpoly103		U5	U5	U5	U5	
7	34	cpoly104		U17_1	U17_2	U17_2_1	U11	U11_1	U1	U1_1	U1_1_1	U17_1	U17_1	
					U17_2	U11	U11_1	U1	U1_1	U1_1_1	U17_1	U17_1	U17_2_2	U17_2_1_1	
					U11	U11_1_1	U1	U1_1	U1_1_1	U17_1_1	U17_1	U17_2	U11	U11_1	
					U1	U1_1	U1_1_1	U17_1	
8	4	dip14	084	U2	U2	U2	U2	
9	2	dip8		U13	U13_2	
10	8	do3		U5	U6	U5	U6	U5_1	U6	U5	U6	
11	8	qnpn		U14_1	U11	U14_1	U11	U14_1	U11	U14_1	U11	
12	32	qpnp		U3	U3_1	U3_2	U3_1_1	U14	U14_1	U14_2	U14_3	U14_1_1	U3	
					U3_1	U14	U14_1	U14_2	U14_3	U14_1_1	U3_3	U3_1_2	U3_2_1	U3_1_1_1	
					U14	U14_1	U14_2	U14_3	U14_1_1	U3	U3_1	U14	U14_1	U14_2	
					U14_3	U14_1_1	
13	2	r3	0	U13_1_2_1	U13_1_2_1	
14	6	r3	100k	U15_1	U15_1_1	U15_1	U15_1_2	U15_1_1_1	U15_1	
15	10	r3	10k	U15_3_1	U15_3_1_1	U15_3_1_1_1	U15_3_1	U15_3_1_1	U15_3_1	U15_3_1_1_2	U15_3_1_1_1_1	U15_3_1	U15_3_1_1	
16	12	r3	1m	U4_2	U13_1_2	U7_3_1	U4_2	U13_1_2	U7_3_1	U4_2	U13_1_2	U7_3_1	U4_2	
					U13_1_2	U7_3_1	
17	4	r3	2.2m	U7_3	U7_3	U7_3	U7_3	
18	20	r3	220k	U13_1	U13_2	U3_1_1	U3_1_3_1	U15_3_1_3_1	U15_3_1_4	U13_1	U13_2	U3_1_1	U3_1_3_1	
					U13_1	U13_2	U3_1_1	U3_1_3_1	U15_3_1_3_1_2	U15_3_1_4_1	U13_1	U13_2	U3_1_1	U3_1_3_1	
19	34	r3	22k	U4_3	U15_3	U15_3_2	U4_3	U3	U3_1	U3_1_3_1_1	U3_2	U3_1_2	U4_3	
					U15_3	U4_3	U3	U3_1	U3_1_3_1_1	U3_2	U3_1_2	U4_3	U15_3_3	U15_3_2_1	
					U4_3	U3	U3_1	U3_1_3_1_1	U3_2	U3_1_2	U4_3	U15_3	U4_3	U3	
					U3_1	U3_1_3_1_1	U3_2	U3_1_2	
20	6	r3	4.7k	U15_3_1	U15_3_1_2	U15_3_1	U15_3_1_3	U15_3_1_2_1	U15_3_1	
21	8	r3	470	U15_2_1	U12_1	U15_2_1	U12_1	U15_2_1	U12_1	U15_2_1	U12_1	
22	26	r3	47k	U7_2	U7_1_1	U12	U7_4_1	U16	U16_1	U15_3_1_3_1_1	U7_2	U7_1_1	U12	
					U7_4_1	U16	U16_1	U7_2	U7_1_1	U12	U7_4_1	U16	U16_1	U15_3_1_3_1_1_1	
					U7_2	U7_1_1	U12	U7_4_1	U16	U16_1	
23	8	r3	x	U7_2_1	U7_2_1_1	U7_2_1	U7_2_1_1	U7_2_1	U7_2_1_1	U7_2_1	U7_2_1_1	
24	14	rrrspiral		U18	U18	U18_1	U18_2	U18	U18	U18_2	U18	U18_3	U18_1	
					U18_2_1	U18	U18	U18_2	
25	8	rrrvaractor		U8_1	U8	U8_1	U8	U8_1	U8	U8_1	U8	
26	4	wnob		U7	U7	U7	U7	
27	4	wobelisk		U4	U4	U4_1	U4	
28	2	wsqin		U21	U21_1	
29	8	wsquin		U12	U17	U12	U17	U12_2	U17	U12	U17	
30	8	wtrin		U15	U15_1	U15	U15_1	U15	U15_1	U15	U15_1	
31	4	wtrin3		U22	U22	U22_1	U22	
