%FSTAX24Y24*%
%MOIN*%
%IN deerhorn_moon.topsoldermask.ger *%
%AMRECT*21,1,$1,$2,0.0,0.0,$3*%
%ADD10C,0.0800*%
%ADD11C,0.0890*%
%ADD12C,0.1000*%
%ADD13C,0.1200*%
%ADD14RECT,0.0800X0.0800X63.0000*%
D10*X091358Y012572D03*X094242Y011746D03*X145645Y009399D03*
X145436Y012391D03*X141702Y026129D03*X143709Y028358D03*
X144181Y022192D03*X143843Y023653D03*X140289Y013201D03*X137831Y01148D03*
X096209Y015538D03*X09527Y015196D03*X09433Y014854D03*X097664Y013079D03*
X094664D03*X095717Y021636D03*X095042Y024559D03*X098031Y022657D03*
X100395Y024504D03*X148538Y032777D03*X148885Y030808D03*
X148711Y031792D03*D12*X096685Y016805D02*G01X096657Y017003D01*
X096268Y019776D02*X09624Y019974D01*D13*X15032Y007034D03*
X148822Y010742D03*X151425Y009637D03*D10*X093433Y019583D03*
X09436Y01673D03*D12*X14298Y019592D02*X142918Y019782D01*
X142052Y022445D02*X141991Y022635D01*X142942Y017103D02*
X143004Y016913D01*X143869Y01425D02*X143931Y01406D01*D10*
X144956Y020806D03*X145486Y019958D03*X146016Y01911D03*X151622Y020767D03*
X150845Y021396D03*X150068Y022025D03*X149406Y028647D03*
X148429Y025811D03*X146968Y021486D03*X149014Y019291D03*D12*
X149872Y017226D02*X149728Y017087D01*X147714Y015142D02*X14757Y015004D01*
D10*X146054Y015579D03*X146735Y016915D03*X149212Y013343D03*
X150661Y013731D03*X143968Y018467D03*X145065Y017444D03*
X152205Y030475D03*X153032Y027591D03*X153054Y025564D03*
X150538Y027198D03*X149725Y024602D03*X152323Y023102D03*D13*
X087803Y015648D03*X091781Y015229D03*X089583Y013449D03*D10*
X081471Y02007D03*X080489Y019879D03*X079507Y019688D03*X078496Y013961D03*
X078919Y014867D03*X079342Y015773D03*X079101Y024629D03*
X080225Y021848D03*X080186Y017395D03*X077288Y016618D03*D12*
X082784Y013942D02*X082912Y014095D01*X084712Y01624D02*X084841Y016393D01*
D10*X085803Y014263D03*X085829Y012763D03*X081481Y017091D03*
X081455Y015592D03*X07055Y016638D03*X073484Y016014D03*X074873Y016196D03*
X075497Y01913D03*X077577Y021333D03*X077107Y018369D03*X100569Y015004D03*
X099075Y015135D03*X141329Y019303D03*X140254Y022104D03*D12*
X135576Y016044D03*X135211Y019022D03*D10*X134353Y025978D03*
X133627Y028889D03*X145642Y031604D03*X146717Y028803D03*
X137395Y021883D03*X139363Y024147D03*D11*X137523Y019137D03*D10*
X122512Y019032D03*X121513Y018997D03*X120514Y018962D03*
X119514Y018927D03*X118515Y018892D03*X117515Y018858D03*
X116516Y018823D03*X116621Y015824D03*X11762Y015859D03*X118619Y015894D03*
X119619Y015929D03*X120618Y015964D03*X121618Y015999D03*
X122617Y016034D03*X117699Y026095D03*X118272Y02315D03*X129493Y01821D03*
X130665Y015449D03*X131435Y020553D03*X132341Y02013D03*X105617Y026426D03*
X108501Y027253D03*X121535Y012555D03*X123503Y014819D03*
X118106Y012453D03*X120593Y01413D03*X124243Y016191D03*X124139Y019189D03*
X125389Y016483D03*Y019483D03*X11762Y021266D03*X12042Y022341D03*
X112352Y015129D03*X113308Y015421D03*X114265Y015713D03*
X113182Y020433D03*X112973Y017441D03*X11665Y014018D03*X113716Y013394D03*
X111949Y024229D03*X112778Y02367D03*X113607Y023111D03*X114313Y026293D03*
X114983Y02555D03*X115652Y024807D03*X110345Y022117D03*X11045Y023112D03*
X110554Y024106D03*X108732Y025172D03*X109677Y025498D03*
X110623Y025824D03*X104308Y019805D03*X105235Y016952D03*X107088Y01863D03*
X108356Y015911D03*X110065Y019567D03*X107733Y021455D03*
X106516Y024763D03*X108523Y022534D03*X111545Y021211D03*
X111336Y018218D03*X116303Y021618D03*X114626Y019131D03*
X123699Y021739D03*X120898Y020664D03*X126951Y015417D03*
X126585Y018395D03*X127859Y019285D03*X128584Y016374D03*
X127908Y021864D03*X126908D03*X125908D03*X128411Y024523D03*
X129811Y02506D03*X125752Y02406D03*X122757Y023903D03*X125608Y025693D03*
X122608D03*X129438Y02033D03*X131243Y017934D03*X131864Y022512D03*
X132861Y022442D03*X102894Y025881D03*D11*X101617Y021601D03*D10*
X131994Y025968D03*X097178Y025238D03*X095633Y02781D03*X083281Y022715D03*
X084281D03*X085281D03*X086281D03*Y025715D03*X085281D03*X084281D03*
X083281D03*X072397Y020121D03*X07055Y022485D03*X087882Y023905D03*
X087934Y026905D03*X074608Y021393D03*X073484Y018611D03*X082001Y0225D03*
X08174Y025489D03*X090828Y025855D03*X090585Y02387D03*X091538Y020419D03*
X091313Y019445D03*D14*X088833Y021141D03*D10*X089287Y022032D03*
X085369Y021474D03*X085682Y01849D03*D12*X134882Y021337D02*
X134854Y021535D01*X134465Y024308D02*X134437Y024506D01*D10*
X152355Y017409D03*X014713Y0299D03*X014923Y026908D03*X018657Y01317D03*
X016649Y010941D03*X016178Y017107D03*X016515Y015646D03*
X020069Y026098D03*X022527Y027819D03*X064149Y023761D03*
X065089Y024103D03*X066028Y024445D03*X062694Y02622D03*X065694D03*
X064783Y017266D03*X065458Y014343D03*X062343Y016769D03*
X060222Y014648D03*X011821Y006522D03*X011473Y008491D03*
X011647Y007507D03*D12*X063673Y022494D02*X063701Y022296D01*
X064091Y019523D02*X064119Y019325D01*D13*X010038Y032265D03*
X011537Y028557D03*X008933Y029662D03*D10*X066925Y019716D03*
X065998Y022569D03*D12*X017379Y019707D02*X017441Y019517D01*
X018306Y016854D02*X018368Y016664D01*X017417Y022196D02*
X017355Y022386D01*X016489Y025049D02*X016428Y025239D01*D10*
X015403Y018493D03*X014873Y019341D03*X014343Y020189D03*
X008736Y018532D03*X009514Y017903D03*X010291Y017274D03*
X010952Y010652D03*X011929Y013488D03*X01339Y017813D03*X011344Y020007D03*
D12*X010486Y022073D02*X01063Y022211D01*X012644Y024156D02*
X012788Y024295D01*D10*X014304Y02372D03*X013623Y022384D03*
X011147Y025956D03*X009698Y025568D03*X01639Y020832D03*X015293Y021855D03*
X008153Y008824D03*X007326Y011708D03*X007304Y013735D03*X00982Y012101D03*
X010633Y014697D03*X008035Y016197D03*X059789Y024295D03*
X061283Y024164D03*X019029Y019996D03*X020104Y017195D03*D12*
X024689Y023279D03*X025055Y020302D03*D10*X025912Y013345D03*
X026638Y010434D03*X014716Y007695D03*X013641Y010496D03*
X022963Y017416D03*X020995Y015152D03*D11*X022836Y020162D03*D10*
X037846Y020267D03*X038845Y020302D03*X039845Y020337D03*
X040844Y020372D03*X041844Y020407D03*X042843Y020441D03*
X043842Y020476D03*X043738Y023474D03*X042738Y02344D03*X041739Y023405D03*
X040739Y02337D03*X03974Y023335D03*X038741Y0233D03*X037741Y023265D03*
X042659Y013204D03*X042087Y016149D03*X030865Y021089D03*X029693Y02385D03*
X028924Y018746D03*X028017Y019169D03*X054741Y012873D03*
X051858Y012046D03*X038824Y026744D03*X036856Y024479D03*
X042252Y026846D03*X039765Y025169D03*X036115Y023108D03*X03622Y02011D03*
X034969Y022815D03*Y019815D03*X042739Y018033D03*X039938Y016958D03*
X048006Y02417D03*X04705Y023878D03*X046094Y023585D03*X047176Y018866D03*
X047386Y021858D03*X043708Y025281D03*X046643Y025905D03*X04841Y01507D03*
X047581Y015629D03*X046752Y016188D03*X046045Y013006D03*
X045376Y013749D03*X044707Y014492D03*X050013Y017182D03*
X049908Y016187D03*X049804Y015193D03*X051626Y014127D03*
X050681Y013801D03*X049735Y013475D03*X05605Y019494D03*X055123Y022347D03*
X05327Y020669D03*X052002Y023388D03*X050294Y019732D03*X052625Y017844D03*
X053842Y014536D03*X051835Y016765D03*X048813Y018088D03*
X049022Y021081D03*X044055Y017681D03*X045733Y020168D03*X03666Y017559D03*
X03946Y018635D03*X033407Y023881D03*X033773Y020904D03*X0325Y020014D03*
X031774Y022925D03*X03245Y017435D03*X03345D03*X03445D03*
X031947Y014776D03*X030547Y014239D03*X034606Y015239D03*
X037602Y015396D03*X03475Y013606D03*X03775D03*X030921Y018969D03*
X029115Y021365D03*X028495Y016787D03*X027497Y016857D03*
X057633Y013418D03*D11*X058741Y017698D03*D10*X028364Y013331D03*
X062615Y013961D03*X064462Y011597D03*X069499Y019215D03*
X069014Y020089D03*D12*X025383Y017986D02*X025411Y017788D01*
X025801Y015015D02*X025829Y014817D01*D10*X008004Y02189D03*
X091358Y012572D03*X094242Y011746D03*X145645Y009399D03*
X145436Y012391D03*X141702Y026129D03*X143709Y028358D03*
X144181Y022192D03*X143843Y023653D03*X140289Y013201D03*X137831Y01148D03*
X096209Y015538D03*X09527Y015196D03*X09433Y014854D03*X097664Y013079D03*
X094664D03*X095717Y021636D03*X095042Y024559D03*X098031Y022657D03*
X100395Y024504D03*X148538Y032777D03*X148885Y030808D03*
X148711Y031792D03*D12*X096685Y016805D02*X096657Y017003D01*
X096268Y019776D02*X09624Y019974D01*D13*X15032Y007034D03*
X148822Y010742D03*X151425Y009637D03*D10*X093433Y019583D03*
X09436Y01673D03*D12*X14298Y019592D02*X142918Y019782D01*
X142052Y022445D02*X141991Y022635D01*X142942Y017103D02*
X143004Y016913D01*X143869Y01425D02*X143931Y01406D01*D10*
X144956Y020806D03*X145486Y019958D03*X146016Y01911D03*X151622Y020767D03*
X150845Y021396D03*X150068Y022025D03*X149406Y028647D03*
X148429Y025811D03*X146968Y021486D03*X149014Y019291D03*D12*
X149872Y017226D02*X149728Y017087D01*X147714Y015142D02*X14757Y015004D01*
D10*X146054Y015579D03*X146735Y016915D03*X149212Y013343D03*
X150661Y013731D03*X143968Y018467D03*X145065Y017444D03*
X152205Y030475D03*X153032Y027591D03*X153054Y025564D03*
X150538Y027198D03*X149725Y024602D03*X152323Y023102D03*D13*
X087803Y015648D03*X091781Y015229D03*X089583Y013449D03*D10*
X081471Y02007D03*X080489Y019879D03*X079507Y019688D03*X078496Y013961D03*
X078919Y014867D03*X079342Y015773D03*X079101Y024629D03*
X080225Y021848D03*X080186Y017395D03*X077288Y016618D03*D12*
X082784Y013942D02*X082912Y014095D01*X084712Y01624D02*X084841Y016393D01*
D10*X085803Y014263D03*X085829Y012763D03*X081481Y017091D03*
X081455Y015592D03*X07055Y016638D03*X073484Y016014D03*X074873Y016196D03*
X075497Y01913D03*X077577Y021333D03*X077107Y018369D03*X100569Y015004D03*
X099075Y015135D03*X141329Y019303D03*X140254Y022104D03*D12*
X135576Y016044D03*X135211Y019022D03*D10*X134353Y025978D03*
X133627Y028889D03*X145642Y031604D03*X146717Y028803D03*
X137395Y021883D03*X139363Y024147D03*D11*X137523Y019137D03*D10*
X122512Y019032D03*X121513Y018997D03*X120514Y018962D03*
X119514Y018927D03*X118515Y018892D03*X117515Y018858D03*
X116516Y018823D03*X116621Y015824D03*X11762Y015859D03*X118619Y015894D03*
X119619Y015929D03*X120618Y015964D03*X121618Y015999D03*
X122617Y016034D03*X117699Y026095D03*X118272Y02315D03*X129493Y01821D03*
X130665Y015449D03*X131435Y020553D03*X132341Y02013D03*X105617Y026426D03*
X108501Y027253D03*X121535Y012555D03*X123503Y014819D03*
X118106Y012453D03*X120593Y01413D03*X124243Y016191D03*X124139Y019189D03*
X125389Y016483D03*Y019483D03*X11762Y021266D03*X12042Y022341D03*
X112352Y015129D03*X113308Y015421D03*X114265Y015713D03*
X113182Y020433D03*X112973Y017441D03*X11665Y014018D03*X113716Y013394D03*
X111949Y024229D03*X112778Y02367D03*X113607Y023111D03*X114313Y026293D03*
X114983Y02555D03*X115652Y024807D03*X110345Y022117D03*X11045Y023112D03*
X110554Y024106D03*X108732Y025172D03*X109677Y025498D03*
X110623Y025824D03*X104308Y019805D03*X105235Y016952D03*X107088Y01863D03*
X108356Y015911D03*X110065Y019567D03*X107733Y021455D03*
X106516Y024763D03*X108523Y022534D03*X111545Y021211D03*
X111336Y018218D03*X116303Y021618D03*X114626Y019131D03*
X123699Y021739D03*X120898Y020664D03*X126951Y015417D03*
X126585Y018395D03*X127859Y019285D03*X128584Y016374D03*
X127908Y021864D03*X126908D03*X125908D03*X128411Y024523D03*
X129811Y02506D03*X125752Y02406D03*X122757Y023903D03*X125608Y025693D03*
X122608D03*X129438Y02033D03*X131243Y017934D03*X131864Y022512D03*
X132861Y022442D03*X102894Y025881D03*D11*X101617Y021601D03*D10*
X131994Y025968D03*X097178Y025238D03*X095633Y02781D03*X083281Y022715D03*
X084281D03*X085281D03*X086281D03*Y025715D03*X085281D03*X084281D03*
X083281D03*X072397Y020121D03*X07055Y022485D03*X087882Y023905D03*
X087934Y026905D03*X074608Y021393D03*X073484Y018611D03*X082001Y0225D03*
X08174Y025489D03*X090828Y025855D03*X090585Y02387D03*X091538Y020419D03*
X091313Y019445D03*D14*X088833Y021141D03*D10*X089287Y022032D03*
X085369Y021474D03*X085682Y01849D03*D12*X134882Y021337D02*
X134854Y021535D01*X134465Y024308D02*X134437Y024506D01*D10*
X152355Y017409D03*X014713Y0299D03*X014923Y026908D03*X018657Y01317D03*
X016649Y010941D03*X016178Y017107D03*X016515Y015646D03*
X020069Y026098D03*X022527Y027819D03*X064149Y023761D03*
X065089Y024103D03*X066028Y024445D03*X062694Y02622D03*X065694D03*
X064783Y017266D03*X065458Y014343D03*X062343Y016769D03*
X060222Y014648D03*X011821Y006522D03*X011473Y008491D03*
X011647Y007507D03*D12*X063673Y022494D02*X063701Y022296D01*
X064091Y019523D02*X064119Y019325D01*D13*X010038Y032265D03*
X011537Y028557D03*X008933Y029662D03*D10*X066925Y019716D03*
X065998Y022569D03*D12*X017379Y019707D02*X017441Y019517D01*
X018306Y016854D02*X018368Y016664D01*X017417Y022196D02*
X017355Y022386D01*X016489Y025049D02*X016428Y025239D01*D10*
X015403Y018493D03*X014873Y019341D03*X014343Y020189D03*
X008736Y018532D03*X009514Y017903D03*X010291Y017274D03*
X010952Y010652D03*X011929Y013488D03*X01339Y017813D03*X011344Y020007D03*
D12*X010486Y022073D02*X01063Y022211D01*X012644Y024156D02*
X012788Y024295D01*D10*X014304Y02372D03*X013623Y022384D03*
X011147Y025956D03*X009698Y025568D03*X01639Y020832D03*X015293Y021855D03*
X008153Y008824D03*X007326Y011708D03*X007304Y013735D03*X00982Y012101D03*
X010633Y014697D03*X008035Y016197D03*X059789Y024295D03*
X061283Y024164D03*X019029Y019996D03*X020104Y017195D03*D12*
X024689Y023279D03*X025055Y020302D03*D10*X025912Y013345D03*
X026638Y010434D03*X014716Y007695D03*X013641Y010496D03*
X022963Y017416D03*X020995Y015152D03*D11*X022836Y020162D03*D10*
X037846Y020267D03*X038845Y020302D03*X039845Y020337D03*
X040844Y020372D03*X041844Y020407D03*X042843Y020441D03*
X043842Y020476D03*X043738Y023474D03*X042738Y02344D03*X041739Y023405D03*
X040739Y02337D03*X03974Y023335D03*X038741Y0233D03*X037741Y023265D03*
X042659Y013204D03*X042087Y016149D03*X030865Y021089D03*X029693Y02385D03*
X028924Y018746D03*X028017Y019169D03*X054741Y012873D03*
X051858Y012046D03*X038824Y026744D03*X036856Y024479D03*
X042252Y026846D03*X039765Y025169D03*X036115Y023108D03*X03622Y02011D03*
X034969Y022815D03*Y019815D03*X042739Y018033D03*X039938Y016958D03*
X048006Y02417D03*X04705Y023878D03*X046094Y023585D03*X047176Y018866D03*
X047386Y021858D03*X043708Y025281D03*X046643Y025905D03*X04841Y01507D03*
X047581Y015629D03*X046752Y016188D03*X046045Y013006D03*
X045376Y013749D03*X044707Y014492D03*X050013Y017182D03*
X049908Y016187D03*X049804Y015193D03*X051626Y014127D03*
X050681Y013801D03*X049735Y013475D03*X05605Y019494D03*X055123Y022347D03*
X05327Y020669D03*X052002Y023388D03*X050294Y019732D03*X052625Y017844D03*
X053842Y014536D03*X051835Y016765D03*X048813Y018088D03*
X049022Y021081D03*X044055Y017681D03*X045733Y020168D03*X03666Y017559D03*
X03946Y018635D03*X033407Y023881D03*X033773Y020904D03*X0325Y020014D03*
X031774Y022925D03*X03245Y017435D03*X03345D03*X03445D03*
X031947Y014776D03*X030547Y014239D03*X034606Y015239D03*
X037602Y015396D03*X03475Y013606D03*X03775D03*X030921Y018969D03*
X029115Y021365D03*X028495Y016787D03*X027497Y016857D03*
X057633Y013418D03*D11*X058741Y017698D03*D10*X028364Y013331D03*
X062615Y013961D03*X064462Y011597D03*X069499Y019215D03*
X069014Y020089D03*D12*X025383Y017986D02*X025411Y017788D01*
X025801Y015015D02*X025829Y014817D01*D10*X008004Y02189D03*
M02*