Designator	Part	Midx	Midy	Refx	Refy	Padx	Pady	TB	Rotation
U13_1	r3	9.280	1.216	9.424	1.175	9.136	1.257	Top	164.0
U4_2	r3	14.554	1.089	14.544	1.239	14.564	0.940	Top	-86.0
U4_3	r3	14.271	2.724	14.371	2.836	14.170	2.613	Top	-132.0
U9	cpoly102	14.401	2.292	14.384	2.365	14.418	2.219	Top	-77.0
U13_2	r3	13.906	1.234	13.783	1.148	14.029	1.320	Top	35.0
U14_1	qnpn	9.527	1.520	9.527	1.520	9.527	1.520	Top	-160.0
U15_2_1	r3	9.616	1.308	9.466	1.308	9.766	1.308	Top	0.0
U15_3_1	r3	9.538	2.310	9.504	2.456	9.572	2.164	Top	-77.0
U17_1	cpoly104	9.921	2.358	10.040	2.450	9.803	2.266	Top	-142.0
U7	wnob	14.871	3.179	14.889	3.081	14.854	3.278	Top	100.0
U18	rrrspiral	9.646	1.839	9.625	1.987	9.667	1.690	Top	-82.0
U13_1_2	r3	9.390	1.816	9.436	1.673	9.343	1.958	Top	108.0
U8_1	rrrvaractor	14.249	2.111	14.202	2.254	14.295	1.969	Top	-72.0
U8	rrrvaractor	14.344	1.558	14.390	1.415	14.297	1.701	Top	108.0
U3	qpnp	14.549	1.996	14.549	1.996	14.549	1.996	Top	-58.0
U3_1	qpnp	15.084	2.140	15.084	2.140	15.084	2.140	Top	141.0
U15_3	r3	14.892	2.723	14.843	2.581	14.941	2.865	Top	71.0
U15_1	r3	14.799	2.039	14.901	1.929	14.697	2.149	Top	133.0
U18	rrrspiral	14.872	1.611	14.764	1.507	14.980	1.716	Top	44.0
U6	cpoly101	14.639	1.625	14.674	1.692	14.605	1.558	Top	-117.0
U6_1	cpoly101	14.994	1.354	15.066	1.373	14.921	1.334	Top	-165.0
U10	cpoly100	14.452	1.796	14.506	1.744	14.397	1.847	Top	137.0
U15_3_1	r3	15.262	2.903	15.303	2.759	15.221	3.047	Top	106.0
U15_3_1_1	r3	15.180	2.638	15.054	2.720	15.305	2.556	Top	-33.0
U17_2	cpoly104	15.102	2.385	15.232	2.310	14.973	2.460	Top	150.0
U3_2	qpnp	8.049	1.988	8.049	1.988	8.049	1.988	Top	-169.0
U3_1_1	qpnp	7.892	1.487	7.892	1.487	7.892	1.487	Top	65.0
U15_3_2	r3	7.966	2.324	8.022	2.185	7.910	2.463	Top	112.0
U15_1_1	r3	7.874	1.701	7.729	1.662	8.019	1.739	Top	15.0
U18_1	rrrspiral	8.381	1.517	8.478	1.632	8.285	1.402	Top	-130.0
U6_1_1	cpoly101	8.582	1.351	8.583	1.276	8.580	1.426	Top	91.0
U10_1	cpoly100	8.147	1.634	8.146	1.559	8.148	1.709	Top	89.0
U15_3_1_2	r3	7.202	1.633	7.348	1.601	7.055	1.664	Top	168.0
U15_3_1_1_1	r3	7.518	1.766	7.550	1.913	7.487	1.620	Top	-102.0
U17_2_1	cpoly104	7.734	1.985	7.711	1.837	7.758	2.133	Top	81.0
U12_1	cpoly101	9.982	1.507	9.907	1.514	10.057	1.500	Top	-5.0
U4_3	r3	14.079	2.070	14.025	2.210	14.133	1.930	Top	-69.0
U4	wobelisk	13.539	1.753	13.558	1.604	13.558	1.604	Top	97.0
U5	do3	13.399	2.743	13.363	2.889	13.363	2.889	Top	-76.0
U11	cpoly104	14.618	3.020	14.672	2.880	14.564	3.160	Top	111.0
U11_1	cpoly104	13.838	2.301	13.936	2.415	13.740	2.188	Top	-131.0
U2	dip14	11.957	1.743	12.251	1.903	12.251	1.903	Top	-178.0
U3	r3	11.799	2.462	11.827	2.315	11.770	2.609	Top	101.0
U3_1	r3	13.008	1.683	13.067	1.545	12.949	1.821	Top	113.0
U4	cel1	13.189	2.034	13.234	2.013	13.143	2.055	Top	155.0
U3_1_1	r3	10.706	2.684	10.850	2.725	10.562	2.643	Top	-164.0
U7_2	r3	12.252	1.369	12.350	1.482	12.153	1.256	Top	-131.0
U7_1_1	r3	11.935	1.329	12.059	1.413	11.811	1.245	Top	-146.0
U7_2_1	r3	12.419	1.769	12.414	1.919	12.424	1.619	Top	-88.0
U7_3	r3	12.539	1.798	12.539	1.948	12.539	1.648	Top	-90.0
U7_2_1_1	r3	11.902	2.180	12.042	2.234	11.762	2.127	Top	-159.0
U11	qnpn	11.331	1.542	11.331	1.542	11.331	1.542	Top	17.0
U12	r3	11.308	1.894	11.297	1.744	11.318	2.043	Top	86.0
U7_4_1	r3	11.518	1.371	11.372	1.339	11.665	1.402	Top	12.0
U14	qpnp	11.278	2.367	11.278	2.367	11.278	2.367	Top	-34.0
U14_1	qpnp	11.498	2.555	11.498	2.555	11.498	2.555	Top	-48.0
U14_2	qpnp	11.045	2.311	11.045	2.311	11.045	2.311	Top	84.0
U14_3	qpnp	10.968	2.550	10.968	2.550	10.968	2.550	Top	19.0
U16	r3	10.477	1.838	10.523	1.695	10.431	1.980	Top	108.0
U16_1	r3	10.772	1.727	10.836	1.591	10.709	1.863	Top	115.0
U3_1_3_1	r3	10.890	2.051	10.773	2.145	11.006	1.957	Top	-39.0
U3_1_3_1_1	r3	10.752	2.365	10.852	2.253	10.652	2.476	Top	132.0
U12_1	r3	11.144	1.971	11.134	1.822	11.155	2.121	Top	86.0
U1	cpoly104	11.546	2.037	11.463	1.913	11.630	2.162	Top	56.0
U1_1	cpoly104	12.230	2.120	12.090	2.066	12.370	2.174	Top	21.0
U7_3_1	r3	12.677	1.691	12.659	1.840	12.695	1.542	Top	-83.0
U1_1_1	cpoly104	12.822	1.783	12.858	1.637	12.786	1.928	Top	104.0
U14_1_1	qpnp	12.691	2.186	12.691	2.186	12.691	2.186	Top	180.0
U5	cpoly103	12.911	2.479	12.981	2.506	12.841	2.452	Top	-159.0
U3_2	r3	12.425	2.398	12.276	2.390	12.575	2.406	Top	3.0
U6	do3	12.411	2.569	12.261	2.569	12.261	2.569	Top	0.0
U3_1_2	r3	13.034	1.913	13.124	1.793	12.944	2.033	Top	127.0
U4_1	cel1	13.236	2.248	13.286	2.244	13.186	2.251	Top	176.0
U17_1	cpoly104	9.641	2.652	9.563	2.781	9.718	2.524	Top	-59.0
U13	dip8	8.478	2.421	8.328	2.271	8.328	2.271	Top	0.0
U13_1_2_1	r3	7.147	2.130	7.055	2.248	7.240	2.012	Top	-52.0
U15_3_1_3_1	r3	8.791	2.541	8.793	2.690	8.788	2.391	Top	-91.0
U15_3_1_4	r3	7.405	2.000	7.348	1.861	7.461	2.139	Top	68.0
U13_1	r3	8.187	2.399	8.174	2.549	8.200	2.250	Top	-85.0
U19	cel2	9.071	2.486	9.058	2.387	9.083	2.585	Top	83.0
U20	cel1	9.143	1.993	9.131	1.944	9.154	2.042	Top	77.0
U21	wsqin	8.906	2.159	8.883	2.114	8.883	2.114	Top	63.0
U15_3_1_3_1_1	r3	8.553	1.998	8.568	1.849	8.537	2.147	Top	96.0
U18_2	rrrspiral	13.466	2.292	13.445	2.441	13.487	2.144	Top	-82.0
U4_2	r3	1.482	2.840	1.492	2.691	1.471	2.990	Top	94.0
U4_3	r3	1.765	1.206	1.665	1.094	1.866	1.317	Top	48.0
U9	cpoly102	1.635	1.638	1.652	1.565	1.618	1.711	Top	103.0
U13_2	r3	2.130	2.696	2.253	2.782	2.007	2.610	Top	-145.0
U14_1	qnpn	6.509	2.410	6.509	2.410	6.509	2.410	Top	20.0
U15_2_1	r3	6.419	2.622	6.569	2.622	6.269	2.622	Top	180.0
U15_3_1	r3	6.512	1.580	6.546	1.434	6.478	1.727	Top	103.0
U17_1	cpoly104	6.128	1.571	6.022	1.465	6.234	1.677	Top	45.0
U7	wnob	1.165	0.751	1.147	0.849	1.182	0.652	Top	-80.0
U18	rrrspiral	6.390	2.091	6.410	1.942	6.369	2.240	Top	98.0
U13_1_2	r3	6.646	2.114	6.600	2.257	6.693	1.972	Top	-72.0
U8_1	rrrvaractor	1.787	1.819	1.834	1.676	1.741	1.961	Top	108.0
U8	rrrvaractor	1.692	2.372	1.646	2.514	1.739	2.229	Top	-72.0
U3	qpnp	1.487	1.934	1.487	1.934	1.487	1.934	Top	122.0
U3_1	qpnp	0.951	1.790	0.951	1.790	0.951	1.790	Top	-39.0
U15_3	r3	1.144	1.207	1.193	1.349	1.095	1.065	Top	-109.0
U15_1	r3	1.237	1.891	1.134	2.001	1.339	1.781	Top	-47.0
U18	rrrspiral	1.164	2.318	1.272	2.423	1.056	2.214	Top	-136.0
U6	cpoly101	1.396	2.305	1.362	2.238	1.430	2.372	Top	63.0
U6_1	cpoly101	1.042	2.576	0.970	2.557	1.115	2.596	Top	15.0
U10	cpoly100	1.584	2.134	1.529	2.185	1.639	2.083	Top	-43.0
U15_3_1	r3	0.774	1.027	0.733	1.171	0.815	0.882	Top	-74.0
U15_3_1_1	r3	0.856	1.292	0.982	1.210	0.730	1.373	Top	147.0
U17_2	cpoly104	0.933	1.545	0.803	1.620	1.063	1.470	Top	-30.0
U12_1	cpoly101	6.054	2.423	6.128	2.416	5.979	2.429	Top	175.0
U4_3	r3	1.957	1.860	2.010	1.719	1.903	2.000	Top	111.0
U4	wobelisk	2.487	2.179	2.469	2.328	2.469	2.328	Top	-83.0
U5	do3	2.628	1.189	2.664	1.043	2.664	1.043	Top	104.0
U11	cpoly104	1.418	0.910	1.364	1.050	1.472	0.770	Top	-69.0
U11_1	cpoly104	2.198	1.628	2.099	1.515	2.296	1.742	Top	49.0
U2	dip14	4.079	2.187	3.785	2.027	3.785	2.027	Top	2.0
U3	r3	4.237	1.468	4.209	1.615	4.266	1.320	Top	-79.0
U3_1	r3	3.028	2.247	2.969	2.385	3.087	2.109	Top	-67.0
U4	cel1	2.847	1.896	2.802	1.917	2.892	1.875	Top	-25.0
U3_1_1	r3	5.330	1.246	5.186	1.205	5.474	1.287	Top	16.0
U7_2	r3	3.784	2.561	3.686	2.448	3.882	2.674	Top	49.0
U7_1_1	r3	4.101	2.601	3.977	2.517	4.225	2.685	Top	34.0
U7_2_1	r3	3.617	2.161	3.622	2.011	3.612	2.311	Top	92.0
U7_3	r3	3.497	2.132	3.497	1.982	3.497	2.282	Top	90.0
U7_2_1_1	r3	4.134	1.750	3.994	1.696	4.274	1.803	Top	21.0
U11	qnpn	4.705	2.388	4.705	2.388	4.705	2.388	Top	-163.0
U12	r3	4.728	2.036	4.739	2.186	4.718	1.887	Top	-94.0
U7_4_1	r3	4.518	2.559	4.664	2.590	4.371	2.528	Top	-168.0
U14	qpnp	4.758	1.563	4.758	1.563	4.758	1.563	Top	146.0
U14_1	qpnp	4.538	1.375	4.538	1.375	4.538	1.375	Top	132.0
U14_2	qpnp	4.991	1.619	4.991	1.619	4.991	1.619	Top	-96.0
U14_3	qpnp	5.068	1.380	5.068	1.380	5.068	1.380	Top	-161.0
U16	r3	5.559	2.092	5.512	2.235	5.605	1.949	Top	-72.0
U16_1	r3	5.264	2.203	5.200	2.339	5.327	2.067	Top	-65.0
U3_1_3_1	r3	5.146	1.879	5.263	1.784	5.029	1.973	Top	141.0
U3_1_3_1_1	r3	5.284	1.565	5.184	1.677	5.384	1.454	Top	-48.0
U12_1	r3	4.892	1.958	4.902	2.108	4.881	1.809	Top	-94.0
U1	cpoly104	4.489	1.892	4.573	2.017	4.406	1.768	Top	-124.0
U1_1	cpoly104	3.806	1.810	3.946	1.863	3.666	1.756	Top	-159.0
U7_3_1	r3	3.359	2.239	3.377	2.090	3.341	2.388	Top	97.0
U1_1_1	cpoly104	3.214	2.147	3.177	2.293	3.250	2.001	Top	-76.0
U14_1_1	qpnp	3.345	1.743	3.345	1.743	3.345	1.743	Top	0.0
U5	cpoly103	3.125	1.451	3.055	1.424	3.195	1.478	Top	21.0
U3_2	r3	3.610	1.532	3.760	1.540	3.461	1.524	Top	-177.0
U6	do3	3.625	1.361	3.775	1.361	3.775	1.361	Top	180.0
U3_1_2	r3	3.002	2.017	2.912	2.136	3.092	1.897	Top	-53.0
U4_1	cel1	2.800	1.682	2.750	1.686	2.849	1.679	Top	-4.0
U17_1	cpoly104	6.354	1.278	6.446	1.160	6.261	1.396	Top	128.0
U20	cel1	6.926	1.965	6.901	2.009	6.950	1.921	Top	-61.0
U18_2	rrrspiral	2.561	1.640	2.581	1.492	2.540	1.789	Top	98.0
U13_1	r3	9.280	1.216	9.424	1.175	9.136	1.257	Top	164.0
U4_2	r3	14.554	1.089	14.544	1.239	14.564	0.940	Top	-86.0
U4_3	r3	14.271	2.724	14.371	2.836	14.170	2.613	Top	-132.0
U9	cpoly102	14.401	2.292	14.384	2.365	14.418	2.219	Top	-77.0
U13_2	r3	13.906	1.234	13.783	1.148	14.029	1.320	Top	35.0
U14_1	qnpn	9.527	1.520	9.527	1.520	9.527	1.520	Top	-160.0
U15_2_1	r3	9.616	1.308	9.466	1.308	9.766	1.308	Top	0.0
U15_3_1	r3	9.538	2.310	9.504	2.456	9.572	2.164	Top	-77.0
U17_1	cpoly104	9.921	2.358	10.040	2.450	9.803	2.266	Top	-142.0
U7	wnob	14.871	3.179	14.889	3.081	14.854	3.278	Top	100.0
U18	rrrspiral	9.646	1.839	9.625	1.987	9.667	1.690	Top	-82.0
U13_1_2	r3	9.390	1.816	9.436	1.673	9.343	1.958	Top	108.0
U8_1	rrrvaractor	14.249	2.111	14.202	2.254	14.295	1.969	Top	-72.0
U8	rrrvaractor	14.344	1.558	14.390	1.415	14.297	1.701	Top	108.0
U3_3	qpnp	14.549	1.996	14.549	1.996	14.549	1.996	Top	-58.0
U3_1_2	qpnp	15.084	2.140	15.084	2.140	15.084	2.140	Top	141.0
U15_3_3	r3	14.892	2.723	14.843	2.581	14.941	2.865	Top	71.0
U15_1_2	r3	14.799	2.039	14.901	1.929	14.697	2.149	Top	133.0
U18_3	rrrspiral	14.872	1.611	14.764	1.507	14.980	1.716	Top	44.0
U6_2	cpoly101	14.639	1.625	14.674	1.692	14.605	1.558	Top	-117.0
U6_1_2	cpoly101	14.994	1.354	15.066	1.373	14.921	1.334	Top	-165.0
U10_2	cpoly100	14.452	1.796	14.506	1.744	14.397	1.847	Top	137.0
U15_3_1_3	r3	15.262	2.903	15.303	2.759	15.221	3.047	Top	106.0
U15_3_1_1_2	r3	15.180	2.638	15.054	2.720	15.305	2.556	Top	-33.0
U17_2_2	cpoly104	15.102	2.385	15.232	2.310	14.973	2.460	Top	150.0
U3_2_1	qpnp	8.049	1.988	8.049	1.988	8.049	1.988	Top	-169.0
U3_1_1_1	qpnp	7.892	1.487	7.892	1.487	7.892	1.487	Top	65.0
U15_3_2_1	r3	7.966	2.324	8.022	2.185	7.910	2.463	Top	112.0
U15_1_1_1	r3	7.874	1.701	7.729	1.662	8.019	1.739	Top	15.0
U18_1	rrrspiral	8.381	1.517	8.478	1.632	8.285	1.402	Top	-130.0
U6_1_1	cpoly101	8.582	1.351	8.583	1.276	8.580	1.426	Top	91.0
U10_1_1	cpoly100	8.147	1.634	8.146	1.559	8.148	1.709	Top	89.0
U15_3_1_2_1	r3	7.202	1.633	7.348	1.601	7.055	1.664	Top	168.0
U15_3_1_1_1_1	r3	7.518	1.766	7.550	1.913	7.487	1.620	Top	-102.0
U17_2_1_1	cpoly104	7.734	1.985	7.711	1.837	7.758	2.133	Top	81.0
U12_1	cpoly101	9.982	1.507	9.907	1.514	10.057	1.500	Top	-5.0
U4_3	r3	14.079	2.070	14.025	2.210	14.133	1.930	Top	-69.0
U4_1	wobelisk	13.539	1.753	13.558	1.604	13.558	1.604	Top	97.0
U5_1	do3	13.399	2.743	13.363	2.889	13.363	2.889	Top	-76.0
U11	cpoly104	14.618	3.020	14.672	2.880	14.564	3.160	Top	111.0
U11_1_1	cpoly104	13.838	2.301	13.936	2.415	13.740	2.188	Top	-131.0
U2	dip14	11.957	1.743	12.251	1.903	12.251	1.903	Top	-178.0
U3	r3	11.799	2.462	11.827	2.315	11.770	2.609	Top	101.0
U3_1	r3	13.008	1.683	13.067	1.545	12.949	1.821	Top	113.0
U4	cel1	13.189	2.034	13.234	2.013	13.143	2.055	Top	155.0
U3_1_1	r3	10.706	2.684	10.850	2.725	10.562	2.643	Top	-164.0
U7_2	r3	12.252	1.369	12.350	1.482	12.153	1.256	Top	-131.0
U7_1_1	r3	11.935	1.329	12.059	1.413	11.811	1.245	Top	-146.0
U7_2_1	r3	12.419	1.769	12.414	1.919	12.424	1.619	Top	-88.0
U7_3	r3	12.539	1.798	12.539	1.948	12.539	1.648	Top	-90.0
U7_2_1_1	r3	11.902	2.180	12.042	2.234	11.762	2.127	Top	-159.0
U11	qnpn	11.331	1.542	11.331	1.542	11.331	1.542	Top	17.0
U12	r3	11.308	1.894	11.297	1.744	11.318	2.043	Top	86.0
U7_4_1	r3	11.518	1.371	11.372	1.339	11.665	1.402	Top	12.0
U14	qpnp	11.278	2.367	11.278	2.367	11.278	2.367	Top	-34.0
U14_1	qpnp	11.498	2.555	11.498	2.555	11.498	2.555	Top	-48.0
U14_2	qpnp	11.045	2.311	11.045	2.311	11.045	2.311	Top	84.0
U14_3	qpnp	10.968	2.550	10.968	2.550	10.968	2.550	Top	19.0
U16	r3	10.477	1.838	10.523	1.695	10.431	1.980	Top	108.0
U16_1	r3	10.772	1.727	10.836	1.591	10.709	1.863	Top	115.0
U3_1_3_1	r3	10.890	2.051	10.773	2.145	11.006	1.957	Top	-39.0
U3_1_3_1_1	r3	10.752	2.365	10.852	2.253	10.652	2.476	Top	132.0
U12_1	r3	11.144	1.971	11.134	1.822	11.155	2.121	Top	86.0
U1	cpoly104	11.546	2.037	11.463	1.913	11.630	2.162	Top	56.0
U1_1	cpoly104	12.230	2.120	12.090	2.066	12.370	2.174	Top	21.0
U7_3_1	r3	12.677	1.691	12.659	1.840	12.695	1.542	Top	-83.0
U1_1_1	cpoly104	12.822	1.783	12.858	1.637	12.786	1.928	Top	104.0
U14_1_1	qpnp	12.691	2.186	12.691	2.186	12.691	2.186	Top	180.0
U5	cpoly103	12.911	2.479	12.981	2.506	12.841	2.452	Top	-159.0
U3_2	r3	12.425	2.398	12.276	2.390	12.575	2.406	Top	3.0
U6	do3	12.411	2.569	12.261	2.569	12.261	2.569	Top	0.0
U3_1_2	r3	13.034	1.913	13.124	1.793	12.944	2.033	Top	127.0
U4_1	cel1	13.236	2.248	13.286	2.244	13.186	2.251	Top	176.0
U17_1_1	cpoly104	9.641	2.652	9.563	2.781	9.718	2.524	Top	-59.0
U13_2	dip8	8.478	2.421	8.328	2.271	8.328	2.271	Top	0.0
U13_1_2_1	r3	7.147	2.130	7.055	2.248	7.240	2.012	Top	-52.0
U15_3_1_3_1_2	r3	8.791	2.541	8.793	2.690	8.788	2.391	Top	-91.0
U15_3_1_4_1	r3	7.405	2.000	7.348	1.861	7.461	2.139	Top	68.0
U13_1	r3	8.187	2.399	8.174	2.549	8.200	2.250	Top	-85.0
U19_1	cel2	9.071	2.486	9.058	2.387	9.083	2.585	Top	83.0
U20	cel1	9.143	1.993	9.131	1.944	9.154	2.042	Top	77.0
U21_1	wsqin	8.906	2.159	8.883	2.114	8.883	2.114	Top	63.0
U15_3_1_3_1_1_1	r3	8.553	1.998	8.568	1.849	8.537	2.147	Top	96.0
U18_2_1	rrrspiral	13.466	2.292	13.445	2.441	13.487	2.144	Top	-82.0
U4_2	r3	1.482	2.840	1.492	2.691	1.471	2.990	Top	94.0
U4_3	r3	1.765	1.206	1.665	1.094	1.866	1.317	Top	48.0
U9	cpoly102	1.635	1.638	1.652	1.565	1.618	1.711	Top	103.0
U13_2	r3	2.130	2.696	2.253	2.782	2.007	2.610	Top	-145.0
U14_1	qnpn	6.509	2.410	6.509	2.410	6.509	2.410	Top	20.0
U15_2_1	r3	6.419	2.622	6.569	2.622	6.269	2.622	Top	180.0
U15_3_1	r3	6.512	1.580	6.546	1.434	6.478	1.727	Top	103.0
U17_1	cpoly104	6.128	1.571	6.022	1.465	6.234	1.677	Top	45.0
U7	wnob	1.165	0.751	1.147	0.849	1.182	0.652	Top	-80.0
U18	rrrspiral	6.390	2.091	6.410	1.942	6.369	2.240	Top	98.0
U13_1_2	r3	6.646	2.114	6.600	2.257	6.693	1.972	Top	-72.0
U8_1	rrrvaractor	1.787	1.819	1.834	1.676	1.741	1.961	Top	108.0
U8	rrrvaractor	1.692	2.372	1.646	2.514	1.739	2.229	Top	-72.0
U3	qpnp	1.487	1.934	1.487	1.934	1.487	1.934	Top	122.0
U3_1	qpnp	0.951	1.790	0.951	1.790	0.951	1.790	Top	-39.0
U15_3	r3	1.144	1.207	1.193	1.349	1.095	1.065	Top	-109.0
U15_1	r3	1.237	1.891	1.134	2.001	1.339	1.781	Top	-47.0
U18	rrrspiral	1.164	2.318	1.272	2.423	1.056	2.214	Top	-136.0
U6	cpoly101	1.396	2.305	1.362	2.238	1.430	2.372	Top	63.0
U6_1	cpoly101	1.042	2.576	0.970	2.557	1.115	2.596	Top	15.0
U10	cpoly100	1.584	2.134	1.529	2.185	1.639	2.083	Top	-43.0
U15_3_1	r3	0.774	1.027	0.733	1.171	0.815	0.882	Top	-74.0
U15_3_1_1	r3	0.856	1.292	0.982	1.210	0.730	1.373	Top	147.0
U17_2	cpoly104	0.933	1.545	0.803	1.620	1.063	1.470	Top	-30.0
U12_1	cpoly101	6.054	2.423	6.128	2.416	5.979	2.429	Top	175.0
U4_3	r3	1.957	1.860	2.010	1.719	1.903	2.000	Top	111.0
U4	wobelisk	2.487	2.179	2.469	2.328	2.469	2.328	Top	-83.0
U5	do3	2.628	1.189	2.664	1.043	2.664	1.043	Top	104.0
U11	cpoly104	1.418	0.910	1.364	1.050	1.472	0.770	Top	-69.0
U11_1	cpoly104	2.198	1.628	2.099	1.515	2.296	1.742	Top	49.0
U2	dip14	4.079	2.187	3.785	2.027	3.785	2.027	Top	2.0
U3	r3	4.237	1.468	4.209	1.615	4.266	1.320	Top	-79.0
U3_1	r3	3.028	2.247	2.969	2.385	3.087	2.109	Top	-67.0
U4	cel1	2.847	1.896	2.802	1.917	2.892	1.875	Top	-25.0
U3_1_1	r3	5.330	1.246	5.186	1.205	5.474	1.287	Top	16.0
U7_2	r3	3.784	2.561	3.686	2.448	3.882	2.674	Top	49.0
U7_1_1	r3	4.101	2.601	3.977	2.517	4.225	2.685	Top	34.0
U7_2_1	r3	3.617	2.161	3.622	2.011	3.612	2.311	Top	92.0
U7_3	r3	3.497	2.132	3.497	1.982	3.497	2.282	Top	90.0
U7_2_1_1	r3	4.134	1.750	3.994	1.696	4.274	1.803	Top	21.0
U11	qnpn	4.705	2.388	4.705	2.388	4.705	2.388	Top	-163.0
U12	r3	4.728	2.036	4.739	2.186	4.718	1.887	Top	-94.0
U7_4_1	r3	4.518	2.559	4.664	2.590	4.371	2.528	Top	-168.0
U14	qpnp	4.758	1.563	4.758	1.563	4.758	1.563	Top	146.0
U14_1	qpnp	4.538	1.375	4.538	1.375	4.538	1.375	Top	132.0
U14_2	qpnp	4.991	1.619	4.991	1.619	4.991	1.619	Top	-96.0
U14_3	qpnp	5.068	1.380	5.068	1.380	5.068	1.380	Top	-161.0
U16	r3	5.559	2.092	5.512	2.235	5.605	1.949	Top	-72.0
U16_1	r3	5.264	2.203	5.200	2.339	5.327	2.067	Top	-65.0
U3_1_3_1	r3	5.146	1.879	5.263	1.784	5.029	1.973	Top	141.0
U3_1_3_1_1	r3	5.284	1.565	5.184	1.677	5.384	1.454	Top	-48.0
U12_1	r3	4.892	1.958	4.902	2.108	4.881	1.809	Top	-94.0
U1	cpoly104	4.489	1.892	4.573	2.017	4.406	1.768	Top	-124.0
U1_1	cpoly104	3.806	1.810	3.946	1.863	3.666	1.756	Top	-159.0
U7_3_1	r3	3.359	2.239	3.377	2.090	3.341	2.388	Top	97.0
U1_1_1	cpoly104	3.214	2.147	3.177	2.293	3.250	2.001	Top	-76.0
U14_1_1	qpnp	3.345	1.743	3.345	1.743	3.345	1.743	Top	0.0
U5	cpoly103	3.125	1.451	3.055	1.424	3.195	1.478	Top	21.0
U3_2	r3	3.610	1.532	3.760	1.540	3.461	1.524	Top	-177.0
U6	do3	3.625	1.361	3.775	1.361	3.775	1.361	Top	180.0
U3_1_2	r3	3.002	2.017	2.912	2.136	3.092	1.897	Top	-53.0
U4_1	cel1	2.800	1.682	2.750	1.686	2.849	1.679	Top	-4.0
U17_1	cpoly104	6.354	1.278	6.446	1.160	6.261	1.396	Top	128.0
U20	cel1	6.926	1.965	6.901	2.009	6.950	1.921	Top	-61.0
U18_2	rrrspiral	2.561	1.640	2.581	1.492	2.540	1.789	Top	98.0
