Designator	Part	Midx	Midy	Refx	Refy	Padx	Pady	TB	Rotation
U3	qpnp	14.698	1.889	14.698	1.889	14.698	1.889	Top	157.0
U3_1	qpnp	14.243	1.683	14.243	1.683	14.243	1.683	Top	-25.0
U15_3	r3	14.631	1.358	14.697	1.493	14.566	1.223	Top	-116.0
U15_1	r3	14.537	1.730	14.411	1.812	14.663	1.649	Top	-33.0
U18	rrrspiral	14.636	2.257	14.786	2.259	14.487	2.254	Top	-179.0
U6_1	cpoly101	14.662	2.473	14.587	2.477	14.737	2.469	Top	-3.0
U15_3_1	r3	13.944	1.464	13.990	1.606	13.898	1.321	Top	-108.0
U15_3_1_1	r3	14.333	1.479	14.468	1.413	14.199	1.544	Top	154.0
U11	cpoly104	13.716	1.417	13.752	1.563	13.679	1.272	Top	-104.0
U4_2	r3	1.726	2.895	1.737	2.745	1.716	3.044	Top	94.0
U4_3	r3	2.242	1.895	2.330	1.774	2.154	2.016	Top	126.0
U9	cpoly102	1.879	1.692	1.896	1.619	1.862	1.765	Top	103.0
U13_2	r3	2.342	2.828	2.475	2.898	2.210	2.757	Top	-152.0
U14_1	qnpn	12.050	1.788	12.050	1.788	12.050	1.788	Top	-11.0
U15_2_1	r3	12.104	2.014	12.252	1.988	11.956	2.040	Top	170.0
U17_1	cpoly104	11.595	1.513	11.543	1.372	11.646	1.654	Top	70.0
U7	wnob	3.210	1.451	3.193	1.549	3.227	1.352	Top	-80.0
U13_1_2	r3	11.999	1.473	12.033	1.619	11.965	1.327	Top	-103.0
U8_1	rrrvaractor	2.032	1.873	2.078	1.730	1.986	2.016	Top	108.0
U8	rrrvaractor	1.937	2.426	1.890	2.569	1.983	2.283	Top	-72.0
U3	qpnp	1.732	1.988	1.732	1.988	1.732	1.988	Top	122.0
U3_1	qpnp	1.196	1.845	1.196	1.845	1.196	1.845	Top	-39.0
U15_3	r3	1.389	1.261	1.437	1.403	1.340	1.120	Top	-109.0
U15_1	r3	1.481	1.945	1.379	2.055	1.584	1.836	Top	-47.0
U18	rrrspiral	1.351	2.383	1.459	2.487	1.243	2.279	Top	-136.0
U6	cpoly101	1.621	2.352	1.587	2.285	1.655	2.419	Top	63.0
U6_1	cpoly101	1.287	2.631	1.214	2.611	1.359	2.650	Top	15.0
U15_3_1	r3	1.019	1.081	0.977	1.225	1.060	0.937	Top	-74.0
U15_3_1_1	r3	1.101	1.346	1.227	1.264	0.975	1.428	Top	147.0
U11	cpoly104	1.662	0.964	1.609	1.104	1.716	0.824	Top	-69.0
U13_2	r3	13.695	2.105	13.548	2.139	13.841	2.071	Top	-13.0
U4	wobelisk	13.107	1.765	13.107	1.915	13.107	1.915	Top	-90.0
U5	do3	12.953	1.478	12.972	1.329	12.972	1.329	Top	97.0
U31	qpnp	6.231	2.313	6.231	2.313	6.231	2.313	Top	-76.0
U32	qnpn	6.313	1.688	6.313	1.688	6.313	1.688	Top	107.0
U7_3_1_1	r3	6.712	1.958	6.706	1.808	6.717	2.108	Top	88.0
U7_3_1_1_1	r3	6.811	1.497	6.897	1.375	6.725	1.620	Top	125.0
U7_3_1_1_2	r3	6.789	2.284	6.701	2.405	6.877	2.163	Top	-54.0
U7_3_1_1_4	r3	6.715	2.634	6.604	2.534	6.827	2.734	Top	42.0
U7_3_1_1_2_1	r3	6.980	2.215	7.046	2.080	6.915	2.350	Top	116.0
U7_3_1_2	r3	6.867	1.926	6.935	2.060	6.799	1.792	Top	-117.0
U7_3_1_1_3_1	r3	6.039	2.565	5.893	2.598	6.185	2.531	Top	-13.0
U7_3_1_2_1	r3	5.999	1.414	6.148	1.432	5.851	1.396	Top	-173.0
U34	qnpn	5.296	2.693	5.296	2.693	5.296	2.693	Top	90.0
U35	qpnp	5.223	1.335	5.223	1.335	5.223	1.335	Top	-104.0
U34_1	qnpn	5.664	2.692	5.664	2.692	5.664	2.692	Top	90.0
U34_2	qnpn	5.014	2.356	5.014	2.356	5.014	2.356	Top	28.0
U34_3	qnpn	4.713	2.560	4.713	2.560	4.713	2.560	Top	-12.0
U35_1	qpnp	5.498	1.300	5.498	1.300	5.498	1.300	Top	-104.0
U35_2	qpnp	4.836	1.457	4.836	1.457	4.836	1.457	Top	14.0
U35_3	qpnp	5.095	1.667	5.095	1.667	5.095	1.667	Top	-14.0
U7_3_1_2_1_1	r3	5.930	1.809	5.831	1.922	6.028	1.695	Top	-49.0
U7_3_1_2_1_2	r3	5.480	2.189	5.424	2.049	5.536	2.328	Top	68.0
U7_3_1_2_1_1_1	r3	4.953	1.979	4.808	2.015	5.099	1.942	Top	-14.0
U7_3_1_2_1_1_1_1	r3	5.037	1.138	5.152	1.042	4.922	1.235	Top	140.0
U7_3_1_2_1_1_1_1_1	r3	4.308	1.170	4.458	1.173	4.158	1.168	Top	-179.0
U7_3_1_2_1_1_1_1_2	r3	4.240	2.332	4.276	2.477	4.203	2.186	Top	-104.0
U39	cpoly104	4.668	1.771	4.520	1.799	4.815	1.742	Top	-11.0
U7_3_1_2_1_1_1_1_2_5	r3	4.658	2.360	4.807	2.379	4.509	2.342	Top	-173.0
U7_3_1_2_1_1_1_1_2_6	r3	5.159	2.214	5.059	2.102	5.259	2.325	Top	48.0
U15_3_1_2_2	r3	11.807	1.531	11.776	1.385	11.838	1.678	Top	78.0
U2	dip14	9.718	2.122	9.438	1.937	9.438	1.937	Top	7.0
U7_2	r3	9.296	2.325	9.156	2.271	9.436	2.378	Top	21.0
U7_1_1	r3	10.500	2.587	10.471	2.734	10.528	2.439	Top	-79.0
U7_2_1	r3	8.621	1.908	8.560	1.771	8.682	2.045	Top	66.0
U7_3	r3	9.121	1.851	9.127	1.701	9.116	2.001	Top	92.0
U7_3_1	r3	9.279	1.929	9.307	1.781	9.250	2.076	Top	101.0
U14_1_1	qpnp	10.604	1.432	10.604	1.432	10.604	1.432	Top	-54.0
U3_2	r3	11.107	1.338	11.204	1.453	11.011	1.223	Top	-130.0
U3_1_2	r3	10.802	2.034	10.886	2.158	10.718	1.909	Top	-124.0
U7_1_1	r3	10.225	1.651	10.371	1.617	10.079	1.685	Top	167.0
U7_2	r3	9.769	2.410	9.916	2.441	9.622	2.378	Top	-168.0
U39_1	cpoly104	4.694	2.168	4.545	2.149	4.843	2.186	Top	7.0
U16	dip16	7.644	2.112	8.009	2.218	8.009	2.218	Top	173.0
U7_3	r3	9.645	2.703	9.794	2.716	9.495	2.690	Top	-175.0
U7_2_1	r3	8.141	2.154	8.133	2.304	8.148	2.004	Top	-87.0
U7_2_1_3	r3	7.612	2.359	7.761	2.344	7.463	2.375	Top	174.0
U7_2_1_4	r3	7.631	2.478	7.780	2.463	7.482	2.494	Top	174.0
U7_2_1_2_2	r3	7.525	1.745	7.376	1.752	7.675	1.737	Top	-3.0
U7_2_1_2_3	r3	7.522	1.863	7.373	1.879	7.671	1.848	Top	-6.0
U7_2_1_2_1_1	r3	8.448	2.480	8.331	2.385	8.564	2.574	Top	39.0
U7_2_1_2_1_2	r3	8.284	1.998	8.223	1.861	8.345	2.135	Top	66.0
U17_1	chair3	10.322	2.542	10.280	2.687	10.363	2.398	Top	-74.0
U17_2	chair3	9.555	1.707	9.687	1.779	9.424	1.634	Top	-151.0
U17_3	chair3	10.128	2.422	10.056	2.553	10.201	2.291	Top	-61.0
U14_1_1	qpnp	11.034	1.574	11.034	1.574	11.034	1.574	Top	-142.0
U3_2	r3	11.198	2.075	11.135	2.211	11.261	1.939	Top	-65.0
U3_2_1	r3	11.030	1.915	11.022	1.765	11.038	2.065	Top	87.0
U3_1_2	r3	10.478	2.069	10.616	2.011	10.339	2.128	Top	157.0
U14_1_1_1	qpnp	8.800	2.700	8.800	2.700	8.800	2.700	Top	9.0
U14_1_1_2	qpnp	8.786	2.489	8.786	2.489	8.786	2.489	Top	-6.0
U7_2_1_2_1_1_1	r3	8.894	2.241	8.886	2.091	8.902	2.391	Top	87.0
U7_2_1_2_1_1_2	r3	8.804	1.862	8.758	1.719	8.851	2.005	Top	72.0
U14_1_1_1_1	qpnp	8.811	1.500	8.811	1.500	8.811	1.500	Top	-81.0
U14_1	qnpn	8.633	1.468	8.633	1.468	8.633	1.468	Top	97.0
U7_2_1_2_1_1_3	r3	8.960	1.809	8.937	1.661	8.984	1.957	Top	81.0
U7_2_1_2_1_1_4	r3	9.009	2.201	8.993	2.051	9.024	2.350	Top	84.0
U7_3_2	r3	9.006	1.213	8.996	1.063	9.017	1.362	Top	86.0
U7_3_2_1	r3	8.434	1.277	8.447	1.128	8.421	1.427	Top	95.0
U7_3_2_2	r3	8.242	1.521	8.391	1.542	8.094	1.500	Top	-172.0
U14_2	cadsulfide	3.087	2.083	3.087	2.083	3.087	2.083	Top	0.0
U7_2_1_2_2_1	r3	8.583	2.120	8.683	2.231	8.482	2.008	Top	-132.0
U7_2_1_2_2_2	r3	8.656	2.343	8.793	2.282	8.519	2.404	Top	156.0
U14_2_1	cadsulfide	8.233	2.775	8.233	2.775	8.233	2.775	Top	6.0
U1	pentagram	13.455	3.496	13.455	3.496	13.544	3.374	Top	0.0
U5_2	do3	10.385	1.286	10.379	1.136	10.379	1.136	Top	88.0
U17_1_2	chair3	5.733	2.162	5.799	2.296	5.667	2.027	Top	-116.0
U31_1	qpnp	6.515	1.760	6.515	1.760	6.515	1.760	Top	-76.0
U32_1	qnpn	6.528	2.364	6.528	2.364	6.528	2.364	Top	107.0
U14_3	cpoly102	10.890	1.913	10.918	1.982	10.862	1.843	Top	-112.0
U13_2_1	r3	13.257	1.248	13.108	1.243	13.407	1.253	Top	2.0
U13_2_2	r3	2.869	0.782	2.719	0.777	3.019	0.787	Top	2.0
U7_2_1_2_1_1_5	r3	8.648	2.851	8.592	2.711	8.704	2.990	Top	68.0
U3_2_2	r3	11.241	1.694	11.166	1.824	11.316	1.564	Top	-60.0
U17	cpoly103	11.523	1.788	11.448	1.787	11.598	1.789	Top	1.0
U14_1_2	qnpn	10.941	2.902	10.941	2.902	10.941	2.902	Top	74.0
U14_1_3	qnpn	11.483	2.485	11.483	2.485	11.483	2.485	Top	139.0
U15_2_1	r3	11.114	2.810	11.200	2.933	11.028	2.687	Top	-125.0
U17_1_3	cpoly104	11.613	2.002	11.707	1.886	11.518	2.119	Top	129.0
U15_2_1_1	r3	11.347	2.352	11.250	2.467	11.443	2.237	Top	-50.0
U15_2_1_1_1	r3	11.469	2.778	11.617	2.752	11.322	2.804	Top	170.0
U15_2_1_1_2	r3	10.704	2.562	10.665	2.417	10.743	2.707	Top	75.0
U15_2_1_1_3	r3	10.699	2.255	10.558	2.204	10.840	2.306	Top	20.0
U15_2_1_1_1_1	r3	11.355	2.666	11.208	2.692	11.503	2.640	Top	-10.0
U15_2_1_1_1_1_1	r3	11.794	2.276	11.891	2.391	11.698	2.161	Top	-130.0
U17_4	cpoly103	10.795	1.654	10.722	1.672	10.867	1.636	Top	-14.0
U15_2_1_1_4	r3	11.077	2.332	10.928	2.319	11.227	2.345	Top	5.0
U6	cpoly101	1.804	2.206	1.871	2.172	1.738	2.240	Top	153.0
U6_1_1	cpoly101	14.607	2.075	14.532	2.079	14.682	2.071	Top	-3.0
U17_1_3_1	cpoly104	10.974	2.512	11.123	2.520	10.824	2.504	Top	-177.0
U17_1_1	chair3	12.499	1.468	12.466	1.614	12.533	1.321	Top	-77.0
U39_2	cpoly104	4.186	1.360	4.037	1.342	4.335	1.379	Top	7.0
U39_3	cpoly104	4.018	2.595	3.869	2.577	4.167	2.613	Top	7.0
U7	wnob	2.454	1.640	2.381	1.572	2.527	1.708	Top	43.0
U7_1	wnob	7.950	1.494	7.964	1.593	7.936	1.395	Top	-98.0
U7_2_1_2_3_1	r3	7.600	1.604	7.451	1.620	7.749	1.588	Top	-6.0
U7_2_1_2_3_2	r3	7.855	1.716	7.840	1.567	7.871	1.866	Top	84.0
U7_3_1_1_2_1_1	r3	7.106	2.251	7.165	2.112	7.048	2.389	Top	113.0
U4_3	r3	2.418	2.117	2.551	2.048	2.284	2.185	Top	153.0
U3_3	qpnp	14.698	1.889	14.698	1.889	14.698	1.889	Top	157.0
U3_1_1	qpnp	14.243	1.683	14.243	1.683	14.243	1.683	Top	-25.0
U15_3_2	r3	14.631	1.358	14.697	1.493	14.566	1.223	Top	-116.0
U15_1_1	r3	14.537	1.730	14.411	1.812	14.663	1.649	Top	-33.0
U18	rrrspiral	14.636	2.257	14.786	2.259	14.487	2.254	Top	-179.0
U6_1	cpoly101	14.662	2.473	14.587	2.477	14.737	2.469	Top	-3.0
U15_3_1_2	r3	13.944	1.464	13.990	1.606	13.898	1.321	Top	-108.0
U15_3_1_1_1	r3	14.333	1.479	14.468	1.413	14.199	1.544	Top	154.0
U11_1	cpoly104	13.716	1.417	13.752	1.563	13.679	1.272	Top	-104.0
U4_2	r3	1.726	2.895	1.737	2.745	1.716	3.044	Top	94.0
U4_3	r3	2.242	1.895	2.330	1.774	2.154	2.016	Top	126.0
U9	cpoly102	1.879	1.692	1.896	1.619	1.862	1.765	Top	103.0
U13_2	r3	2.342	2.828	2.475	2.898	2.210	2.757	Top	-152.0
U14_1	qnpn	12.050	1.788	12.050	1.788	12.050	1.788	Top	-11.0
U15_2_1	r3	12.104	2.014	12.252	1.988	11.956	2.040	Top	170.0
U17_1	cpoly104	11.595	1.513	11.543	1.372	11.646	1.654	Top	70.0
U7	wnob	3.210	1.451	3.193	1.549	3.227	1.352	Top	-80.0
U13_1_2	r3	11.999	1.473	12.033	1.619	11.965	1.327	Top	-103.0
U8_1	rrrvaractor	2.032	1.873	2.078	1.730	1.986	2.016	Top	108.0
U8	rrrvaractor	1.937	2.426	1.890	2.569	1.983	2.283	Top	-72.0
U3	qpnp	1.732	1.988	1.732	1.988	1.732	1.988	Top	122.0
U3_1	qpnp	1.196	1.845	1.196	1.845	1.196	1.845	Top	-39.0
U15_3	r3	1.389	1.261	1.437	1.403	1.340	1.120	Top	-109.0
U15_1	r3	1.481	1.945	1.379	2.055	1.584	1.836	Top	-47.0
U18	rrrspiral	1.351	2.383	1.459	2.487	1.243	2.279	Top	-136.0
U6	cpoly101	1.621	2.352	1.587	2.285	1.655	2.419	Top	63.0
U6_1	cpoly101	1.287	2.631	1.214	2.611	1.359	2.650	Top	15.0
U15_3_1	r3	1.019	1.081	0.977	1.225	1.060	0.937	Top	-74.0
U15_3_1_1	r3	1.101	1.346	1.227	1.264	0.975	1.428	Top	147.0
U11	cpoly104	1.662	0.964	1.609	1.104	1.716	0.824	Top	-69.0
U13_2	r3	13.695	2.105	13.548	2.139	13.841	2.071	Top	-13.0
U4_1	wobelisk	13.107	1.765	13.107	1.915	13.107	1.915	Top	-90.0
U5_1	do3	12.953	1.478	12.972	1.329	12.972	1.329	Top	97.0
U31_2	qpnp	6.231	2.313	6.231	2.313	6.231	2.313	Top	-76.0
U32_2	qnpn	6.313	1.688	6.313	1.688	6.313	1.688	Top	107.0
U7_3_1_1_3	r3	6.712	1.958	6.706	1.808	6.717	2.108	Top	88.0
U7_3_1_1_1_1	r3	6.811	1.497	6.897	1.375	6.725	1.620	Top	125.0
U7_3_1_1_2_2	r3	6.789	2.284	6.701	2.405	6.877	2.163	Top	-54.0
U7_3_1_1_4_1	r3	6.715	2.634	6.604	2.534	6.827	2.734	Top	42.0
U7_3_1_1_2_1_2	r3	6.980	2.215	7.046	2.080	6.915	2.350	Top	116.0
U7_3_1_2_2	r3	6.867	1.926	6.935	2.060	6.799	1.792	Top	-117.0
U7_3_1_1_3_1_1	r3	6.039	2.565	5.893	2.598	6.185	2.531	Top	-13.0
U7_3_1_2_1_3	r3	5.999	1.414	6.148	1.432	5.851	1.396	Top	-173.0
U34_4	qnpn	5.296	2.693	5.296	2.693	5.296	2.693	Top	90.0
U35_4	qpnp	5.223	1.335	5.223	1.335	5.223	1.335	Top	-104.0
U34_1_1	qnpn	5.664	2.692	5.664	2.692	5.664	2.692	Top	90.0
U34_2_1	qnpn	5.014	2.356	5.014	2.356	5.014	2.356	Top	28.0
U34_3_1	qnpn	4.713	2.560	4.713	2.560	4.713	2.560	Top	-12.0
U35_1_1	qpnp	5.498	1.300	5.498	1.300	5.498	1.300	Top	-104.0
U35_2_1	qpnp	4.836	1.457	4.836	1.457	4.836	1.457	Top	14.0
U35_3_1	qpnp	5.095	1.667	5.095	1.667	5.095	1.667	Top	-14.0
U7_3_1_2_1_1_2	r3	5.930	1.809	5.831	1.922	6.028	1.695	Top	-49.0
U7_3_1_2_1_2_1	r3	5.480	2.189	5.424	2.049	5.536	2.328	Top	68.0
U7_3_1_2_1_1_1_2	r3	4.953	1.979	4.808	2.015	5.099	1.942	Top	-14.0
U7_3_1_2_1_1_1_1_3	r3	5.037	1.138	5.152	1.042	4.922	1.235	Top	140.0
U7_3_1_2_1_1_1_1_1_1	r3	4.308	1.170	4.458	1.173	4.158	1.168	Top	-179.0
U7_3_1_2_1_1_1_1_2_1	r3	4.240	2.332	4.276	2.477	4.203	2.186	Top	-104.0
U39_4	cpoly104	4.668	1.771	4.520	1.799	4.815	1.742	Top	-11.0
U7_3_1_2_1_1_1_1_2_5_1	r3	4.658	2.360	4.807	2.379	4.509	2.342	Top	-173.0
U7_3_1_2_1_1_1_1_2_6_1	r3	5.159	2.214	5.059	2.102	5.259	2.325	Top	48.0
U15_3_1_2_2	r3	11.807	1.531	11.776	1.385	11.838	1.678	Top	78.0
U2	dip14	9.718	2.122	9.438	1.937	9.438	1.937	Top	7.0
U7_2	r3	9.296	2.325	9.156	2.271	9.436	2.378	Top	21.0
U7_1_1	r3	10.500	2.587	10.471	2.734	10.528	2.439	Top	-79.0
U7_2_1	r3	8.621	1.908	8.560	1.771	8.682	2.045	Top	66.0
U7_3	r3	9.121	1.851	9.127	1.701	9.116	2.001	Top	92.0
U7_3_1	r3	9.279	1.929	9.307	1.781	9.250	2.076	Top	101.0
U14_1_1	qpnp	10.604	1.432	10.604	1.432	10.604	1.432	Top	-54.0
U3_2	r3	11.107	1.338	11.204	1.453	11.011	1.223	Top	-130.0
U3_1_2	r3	10.802	2.034	10.886	2.158	10.718	1.909	Top	-124.0
U7_1_1	r3	10.225	1.651	10.371	1.617	10.079	1.685	Top	167.0
U7_2	r3	9.769	2.410	9.916	2.441	9.622	2.378	Top	-168.0
U39_1_1	cpoly104	4.694	2.168	4.545	2.149	4.843	2.186	Top	7.0
U16_1	dip16	7.644	2.112	8.009	2.218	8.009	2.218	Top	173.0
U7_3_1	r3	9.645	2.703	9.794	2.716	9.495	2.690	Top	-175.0
U7_2_1_1	r3	8.141	2.154	8.133	2.304	8.148	2.004	Top	-87.0
U7_2_1_3_1	r3	7.612	2.359	7.761	2.344	7.463	2.375	Top	174.0
U7_2_1_4_1	r3	7.631	2.478	7.780	2.463	7.482	2.494	Top	174.0
U7_2_1_2_2	r3	7.525	1.745	7.376	1.752	7.675	1.737	Top	-3.0
U7_2_1_2_3_3	r3	7.522	1.863	7.373	1.879	7.671	1.848	Top	-6.0
U7_2_1_2_1_1_6	r3	8.448	2.480	8.331	2.385	8.564	2.574	Top	39.0
U7_2_1_2_1_2_1	r3	8.284	1.998	8.223	1.861	8.345	2.135	Top	66.0
U17_1_4	chair3	10.322	2.542	10.280	2.687	10.363	2.398	Top	-74.0
U17_2_1	chair3	9.555	1.707	9.687	1.779	9.424	1.634	Top	-151.0
U17_3_1	chair3	10.128	2.422	10.056	2.553	10.201	2.291	Top	-61.0
U14_1_1_3	qpnp	11.034	1.574	11.034	1.574	11.034	1.574	Top	-142.0
U3_2_3	r3	11.198	2.075	11.135	2.211	11.261	1.939	Top	-65.0
U3_2_1_1	r3	11.030	1.915	11.022	1.765	11.038	2.065	Top	87.0
U3_1_2_1	r3	10.478	2.069	10.616	2.011	10.339	2.128	Top	157.0
U14_1_1_1_2	qpnp	8.800	2.700	8.800	2.700	8.800	2.700	Top	9.0
U14_1_1_2_1	qpnp	8.786	2.489	8.786	2.489	8.786	2.489	Top	-6.0
U7_2_1_2_1_1_1_1	r3	8.894	2.241	8.886	2.091	8.902	2.391	Top	87.0
U7_2_1_2_1_1_2_1	r3	8.804	1.862	8.758	1.719	8.851	2.005	Top	72.0
U14_1_1_1_1_1	qpnp	8.811	1.500	8.811	1.500	8.811	1.500	Top	-81.0
U14_1_4	qnpn	8.633	1.468	8.633	1.468	8.633	1.468	Top	97.0
U7_2_1_2_1_1_3_1	r3	8.960	1.809	8.937	1.661	8.984	1.957	Top	81.0
U7_2_1_2_1_1_4_1	r3	9.009	2.201	8.993	2.051	9.024	2.350	Top	84.0
U7_3_2_3	r3	9.006	1.213	8.996	1.063	9.017	1.362	Top	86.0
U7_3_2_1_1	r3	8.434	1.277	8.447	1.128	8.421	1.427	Top	95.0
U7_3_2_2_1	r3	8.242	1.521	8.391	1.542	8.094	1.500	Top	-172.0
U14_2_2	cadsulfide	3.087	2.083	3.087	2.083	3.087	2.083	Top	0.0
U7_2_1_2_2_1_1	r3	8.583	2.120	8.683	2.231	8.482	2.008	Top	-132.0
U7_2_1_2_2_2_1	r3	8.656	2.343	8.793	2.282	8.519	2.404	Top	156.0
U14_2_1_1	cadsulfide	8.233	2.775	8.233	2.775	8.233	2.775	Top	6.0
U1	pentagram	13.455	3.496	13.455	3.496	13.544	3.374	Top	0.0
U5_2	do3	10.385	1.286	10.379	1.136	10.379	1.136	Top	88.0
U17_1_2_1	chair3	5.733	2.162	5.799	2.296	5.667	2.027	Top	-116.0
U31_1_1	qpnp	6.515	1.760	6.515	1.760	6.515	1.760	Top	-76.0
U32_1_1	qnpn	6.528	2.364	6.528	2.364	6.528	2.364	Top	107.0
U14_3_1	cpoly102	10.890	1.913	10.918	1.982	10.862	1.843	Top	-112.0
U13_2_1_1	r3	13.257	1.248	13.108	1.243	13.407	1.253	Top	2.0
U13_2_2	r3	2.869	0.782	2.719	0.777	3.019	0.787	Top	2.0
U7_2_1_2_1_1_5_1	r3	8.648	2.851	8.592	2.711	8.704	2.990	Top	68.0
U3_2_2_1	r3	11.241	1.694	11.166	1.824	11.316	1.564	Top	-60.0
U17	cpoly103	11.523	1.788	11.448	1.787	11.598	1.789	Top	1.0
U14_1_2_1	qnpn	10.941	2.902	10.941	2.902	10.941	2.902	Top	74.0
U14_1_3_1	qnpn	11.483	2.485	11.483	2.485	11.483	2.485	Top	139.0
U15_2_1_2	r3	11.114	2.810	11.200	2.933	11.028	2.687	Top	-125.0
U17_1_3_2	cpoly104	11.613	2.002	11.707	1.886	11.518	2.119	Top	129.0
U15_2_1_1_5	r3	11.347	2.352	11.250	2.467	11.443	2.237	Top	-50.0
U15_2_1_1_1_2	r3	11.469	2.778	11.617	2.752	11.322	2.804	Top	170.0
U15_2_1_1_2_1	r3	10.704	2.562	10.665	2.417	10.743	2.707	Top	75.0
U15_2_1_1_3_1	r3	10.699	2.255	10.558	2.204	10.840	2.306	Top	20.0
U15_2_1_1_1_1_2	r3	11.355	2.666	11.208	2.692	11.503	2.640	Top	-10.0
U15_2_1_1_1_1_1_1	r3	11.794	2.276	11.891	2.391	11.698	2.161	Top	-130.0
U17_4_1	cpoly103	10.795	1.654	10.722	1.672	10.867	1.636	Top	-14.0
U15_2_1_1_4_1	r3	11.077	2.332	10.928	2.319	11.227	2.345	Top	5.0
U6	cpoly101	1.804	2.206	1.871	2.172	1.738	2.240	Top	153.0
U6_1_1_1	cpoly101	14.607	2.075	14.532	2.079	14.682	2.071	Top	-3.0
U17_1_3_1	cpoly104	10.974	2.512	11.123	2.520	10.824	2.504	Top	-177.0
U17_1_1	chair3	12.499	1.468	12.466	1.614	12.533	1.321	Top	-77.0
U39_2_1	cpoly104	4.186	1.360	4.037	1.342	4.335	1.379	Top	7.0
U39_3_1	cpoly104	4.018	2.595	3.869	2.577	4.167	2.613	Top	7.0
U7	wnob	2.454	1.640	2.381	1.572	2.527	1.708	Top	43.0
U7_1_2	wnob	7.950	1.494	7.964	1.593	7.936	1.395	Top	-98.0
U7_2_1_2_3_1_1	r3	7.600	1.604	7.451	1.620	7.749	1.588	Top	-6.0
U7_2_1_2_3_2_1	r3	7.855	1.716	7.840	1.567	7.871	1.866	Top	84.0
U7_3_1_1_2_1_1_1	r3	7.106	2.251	7.165	2.112	7.048	2.389	Top	113.0
U4_3_1	r3	2.418	2.117	2.551	2.048	2.284	2.185	Top	153.0
