1	4	4squin		U64	U64_1	U78	U78_1	
2	22	bigvia		U123_1	U123_1_1	U123_1_1_1	U123_2	U123_3	U123_3_1	U123_4	U123_4_1	U123_5_1	U123_6	
					U123_6_1	U123_7	U123_7_1	U123_7_2	U123_7_3	U123_7_3_1	U123_7_4	U123_7_5	U123_8	U123_8_1	
					U123_9	U123_9_1	
3	9	c104		U110	U110_1	U110_2	U111	U111_1	U113	U113_1	U114	U114_1	
4	10	c105		U115	U115_1	U116	U116_1	U117	U117_1	U118	U118_1	U118_2	U118_2_1	
5	3	cel2		U75	U75_1	U76	
6	2	chairg		U109	U109_1	
7	4	cpoly102		U70	U70_1	U71	U71_1	
8	4	dip14	064	064	064_1	U36	U36_1	
9	2	dip14	324	U69	U69_1	
10	1	dip14	4066	U2	
11	2	dip8	386	U74	U74_1	
12	9	do3		U106	U106_1	U107	U107_1	U58	U59	U59_1	U73	U73_1	
13	18	qnpn		U119	U119_1	U23	U23_1	U24	U24_1	U25	U25_1	U26	U26_1	
					U27	U27_1	U28	U28_1	U29	U29_1	U30	U30_1	
14	14	qpnp		U120	U120_1	U5	U5_1	U65	U65_1	U66	U66_1	U67	U67_1	
					U68	U68_1	U68_2	U68_3	
15	24	r3	100K	U39	U39_1	U41	U41_1	U53	U53_1	U55	U55_1	U56	U56_1	
					U57	U57_1	U92	U92_1	U93	U93_1	U94	U94_1	U95	U95_1	
					U96	U96_1	U98	U98_1	
16	30	r3	10K	U104	U105	U105_1	U47	U47_1	U48	U48_1	U49	U49_1	U49_1_1	
					U49_2	U49_2_1	U49_3	U49_3_1	U49_4	U49_4_1	U49_5	U80	U80_1	U81	
					U81_1	U83	U83_1	U86	U86_1	U87	U87_1	U99	U99_1	U99_2	
17	4	r3	10M	U3	U4	U97	U97_1	
18	16	r3	22K	U102	U102_1	U103	U103_1	U37	U37_1	U40	U40_1	U45	U45_1	
					U50	U50_1	U79	U79_1	U82	U82_1	
19	8	r3	4.7K	U38	U38_1	U42	U42_1	U44	U44_1	U54	U54_1	
20	20	r3	470K	U100	U100_1	U101	U101_1	U43	U43_1	U46	U46_1	U51	U51_1	
					U52	U52_1	U84	U84_1	U85	U85_1	U90	U90_1	U91	U91_1	
21	2	wnob		U1	U1_1	
22	2	wsqin		U77	U77_1	
23	4	wsqout		U88	U88_1	U89	U89_1	
24	2	wtrin		U108	U108_1	
