317**Signal 1**     U57   -2    D 280PA00X  47100Y  38850X 600Y 600             
317**Signal 1**     U64   -1    D 400PA00X  45750Y  42750X 800Y 800             
317**Signal 3**     064   -12   D 280PA00X  36300Y  39900X 600Y 600             
317**Signal 3**     U117  -1    D 280PA00X  34484Y  34508X 600Y 600             
317**Signal 3**     U43   -2    D 280PA00X  38350Y  40600X 600Y 600             
317**Signal 3**     U59   -K    D 280PA00X  38400Y  39650X 600Y 600             
317**Signal 4**     064   -13   D 280PA00X  36300Y  40900X 600Y 600             
317**Signal 4**     U29   -D    D 280PA00X  38500Y  42700X 600Y 600             
317**Signal 4**     U42   -1    D 280PA00X  38666Y  41776X 600Y 600             
317**Signal 5**     064   -14   D 280PA00X  36300Y  41900X 600Y 600             
317**Signal 5**     U29   -G    D 280PA00X  37941Y  43529X 600Y 600             
317**Signal 6**     U29   -S    D 280PA00X  37382Y  44358X 600Y 600             
317**Signal 6**     U37   -1    D 280PA00X  35550Y  45550X 600Y 600             
317**Signal 7**     U58   -A    D 280PA00X  37422Y  46812X 600Y 600             
317**Signal 7**     U61   -2    D 400PA00X  39350Y  46483X 800Y 800             
317**Signal 9**     U37   -2    D 280PA00X  32550Y  45550X 600Y 600             
317**Signal 9**     U66   -G    D 280PA00X  32050Y  43800X 600Y 600             
317**Signal 9**     U67   -G    D 280PA00X  34500Y  43700X 600Y 600             
317**Signal 9**     U67   -S    D 280PA00X  33586Y  44107X 600Y 600             
317**Signal 10**    064   -1    D 280PA00X  33300Y  41900X 600Y 600             
317**Signal 10**    064   -2    D 280PA00X  33300Y  40900X 600Y 600             
317**Signal 10**    U46   -1    D 280PA00X  30134Y  41374X 600Y 600             
317**Signal 11**    U38   -1    D 280PA00X  28216Y  45366X 600Y 600             
317**Signal 11**    U41   -2    D 280PA00X  38800Y  45050X 600Y 600             
317**Signal 11**    U65   -G    D 280PA00X  30250Y  45550X 600Y 600             
317**Signal 12**    U38   -2    D 280PA00X  29850Y  42850X 600Y 600             
317**Signal 12**    U39   -2    D 280PA00X  25450Y  44400X 600Y 600             
317**Signal 12**    U68_1 -G    D 280PA00X  27350Y  43550X 600Y 600             
317**Signal 13**    U65   -D    D 280PA00X  30475Y  44576X 600Y 600             
317**Signal 13**    U66   -S    D 280PA00X  31675Y  44727X 600Y 600             
317**Signal 13**    U68_1 -D    D 280PA00X  27176Y  44535X 600Y 600             
317**Signal 15**    U27   -G    D 280PA00X  43950Y  35250X 600Y 600             
317**Signal 15**    U27   -S    D 280PA00X  44950Y  35250X 600Y 600             
317**Signal 15**    U28   -G    D 280PA00X  44150Y  39600X 600Y 600             
317**Signal 15**    U45   -2    D 280PA00X  43950Y  36800X 600Y 600             
317**Signal 16**    U26   -D    D 280PA00X  45666Y  33192X 600Y 600             
317**Signal 16**    U28   -S    D 280PA00X  45128Y  39392X 600Y 600             
317**Signal 16**    U30   -D    D 280PA00X  45341Y  30521X 600Y 600             
317**Signal 17**    U26   -G    D 280PA00X  46600Y  33550X 600Y 600             
317**Signal 17**    U54   -2    D 280PA00X  46750Y  31400X 600Y 600             
317**Signal 17**    U57   -1    D 280PA00X  47152Y  35850X 600Y 600             
317**Signal 18**    U30   -G    D 280PA00X  44950Y  29600X 600Y 600             
317**Signal 18**    U53   -1    D 280PA00X  43482Y  31576X 600Y 600             
317**Signal 18**    U54   -1    D 280PA00X  43968Y  32524X 600Y 600             
317**Signal 21**    U68_1 -S    D 280PA00X  27524Y  42565X 600Y 600             
317**Signal 21**    U79   -2    D 280PA00X  21300Y  45200X 600Y 600             
317**Signal 21**    U84   -2    D 280PA00X  19000Y  45400X 600Y 600             
317**Signal 22**    U39   -1    D 280PA00X  23329Y  46521X 600Y 600             
317**Signal 22**    U88   -1    D 400PA00X  25900Y  46650X 800Y 800             
317**Signal 23**    U40   -2    D 280PA00X  22800Y  45350X 600Y 600             
317**Signal 23**    U65   -S    D 280PA00X  30025Y  46524X 600Y 600             
317**Signal 23**    U85   -2    D 280PA00X  18600Y  46650X 600Y 600             
317**Signal 24**    U74   -3    D 280PA00X   9861Y  46577X 600Y 600             
317**Signal 24**    U85   -1    D 280PA00X  15600Y  46650X 600Y 600             
317**Signal 24**    U86   -2    D 280PA00X  14500Y  46450X 600Y 600             
317**Signal 24**    U90   -2    D 280PA00X  10800Y  43650X 600Y 600             
317**Signal 25**    U74   -2    D 280PA00X  10405Y  45739X 600Y 600             
317**Signal 25**    U84   -1    D 280PA00X  16000Y  45400X 600Y 600             
317**Signal 25**    U87   -2    D 280PA00X  12700Y  45400X 600Y 600             
317**Signal 25**    U91   -2    D 280PA00X  11450Y  42900X 600Y 600             
317**Signal 27**    U74   -5    D 280PA00X   6800Y  45782X 600Y 600             
317**Signal 27**    U75   -1    D 280PA00X   4811Y  43339X 600Y 600             
317**Signal 28**    U75   -2    D 280PA00X   6250Y  41950X 600Y 600             
317**Signal 28**    U77   -2    D 400PA00X   5300Y  39900X 800Y 800             
317**Signal 29**    064   -11   D 280PA00X  36300Y  38900X 600Y 600             
317**Signal 29**    064_1 -11   D 280PA00X  14750Y  12350X 600Y 600             
317**Signal 29**    U104  -1    D 280PA00X  44182Y  17276X 600Y 600             
317**Signal 29**    U110  -2    D 280PA00X   4200Y  46000X 600Y 600             
317**Signal 29**    U110_1-2    D 280PA00X  46350Y  12900X 600Y 600             
317**Signal 29**    U110_2-2    D 280PA00X  46750Y   5150X 600Y 600             
317**Signal 29**    U111  -1    D 280PA00X  40351Y  29275X 600Y 600             
317**Signal 29**    U111_1-1    D 280PA00X  10749Y  21975X 600Y 600             
317**Signal 29**    U115  -2    D 280PA00X  28200Y  39050X 600Y 600             
317**Signal 29**    U115_1-2    D 280PA00X  22900Y  12150X 600Y 600             
317**Signal 29**    U116  -2    D 280PA00X  31750Y  40650X 600Y 600             
317**Signal 29**    U116_1-2    D 280PA00X  19350Y  10550X 600Y 600             
317**Signal 29**    U119  -D    D 280PA00X  20150Y  33600X 600Y 600             
317**Signal 29**    U119_1-D    D 280PA00X  30900Y  17600X 600Y 600             
317**Signal 29**    U123_7-1    D 150PA00X  46500Y  13900X 600Y 600             
317**Signal 29**    U123_7-1    D 150PA00X  44300Y  16050X 600Y 600             
317**Signal 29**    U2    -7    D 280PA00X  26693Y  22307X 600Y 600             
317**Signal 29**    U25   -D    D 280PA00X  12575Y  43035X 600Y 600             
317**Signal 29**    U25_1 -D    D 280PA00X  38503Y   8144X 600Y 600             
317**Signal 29**    U27   -D    D 280PA00X  42950Y  35250X 600Y 600             
317**Signal 29**    U27_1 -D    D 280PA00X   8150Y  16000X 600Y 600             
317**Signal 29**    U28   -D    D 280PA00X  43172Y  39808X 600Y 600             
317**Signal 29**    U28_1 -D    D 280PA00X   7928Y  11442X 600Y 600             
317**Signal 29**    U3    -1    D 280PA00X  23450Y  43600X 600Y 600             
317**Signal 29**    U36   -11   D 280PA00X  37332Y  28426X 600Y 600             
317**Signal 29**    U36_1 -11   D 280PA00X  13818Y  22774X 600Y 600             
317**Signal 29**    U4    -1    D 280PA00X  28000Y   7602X 600Y 600             
317**Signal 29**    U40   -1    D 280PA00X  20716Y  47508X 600Y 600             
317**Signal 29**    U40_1 -1    D 280PA00X  30384Y   3742X 600Y 600             
317**Signal 29**    U55   -2    D 280PA00X  41800Y  30250X 600Y 600             
317**Signal 29**    U55_1 -2    D 280PA00X   9300Y  21000X 600Y 600             
317**Signal 29**    U61   -1    D 400PA00X  40350Y  46500X 800Y 800             
317**Signal 29**    U69   -11   D 280PA00X  16171Y  38229X 600Y 600             
317**Signal 29**    U69_1 -11   D 280PA00X  34907Y  13000X 600Y 600             
317**Signal 29**    U74   -4    D 280PA00X   9316Y  47416X 600Y 600             
317**Signal 29**    U74_1 -4    D 280PA00X  41768Y   3850X 600Y 600             
317**Signal 29**    U76   -2    D 280PA00X   5100Y  37350X 600Y 600             
317**Signal 29**    U77   -1    D 400PA00X   4300Y  39900X 800Y 800             
317**Signal 29**    U77_1 -1    D 400PA00X  46600Y  11250X 800Y 800             
317**Signal 29**    U79   -1    D 280PA00X  19216Y  47358X 600Y 600             
317**Signal 29**    U79_1 -1    D 280PA00X  31884Y   3892X 600Y 600             
317**Signal 29**    U80   -2    D 280PA00X  22200Y  43400X 600Y 600             
317**Signal 29**    U80_1 -2    D 280PA00X  28900Y   7850X 600Y 600             
317**Signal 29**    U81   -2    D 280PA00X  20450Y  44050X 600Y 600             
317**Signal 29**    U81_1 -2    D 280PA00X  30650Y   7200X 600Y 600             
317**Signal 29**    U86   -1    D 280PA00X  11738Y  47622X 600Y 600             
317**Signal 29**    U86_1 -1    D 280PA00X  39550Y   3600X 600Y 600             
317**Signal 29**    U87   -1    D 280PA00X  10579Y  47521X 600Y 600             
317**Signal 29**    U87_1 -1    D 280PA00X  40750Y   3750X 600Y 600             
317**Signal 29**    U96   -2    D 280PA00X  24802Y  32459X 600Y 600             
317**Signal 29**    U96_1 -2    D 280PA00X  26400Y  18800X 600Y 600             
317**Signal 29**    U97   -1    D 280PA00X  22616Y  34224X 600Y 600             
317**Signal 29**    U97_1 -1    D 280PA00X  28500Y  17050X 600Y 600             
317**Signal 29**    U98   -2    D 280PA00X  25900Y  32700X 600Y 600             
317**Signal 29**    U98_1 -2    D 280PA00X  25302Y  18559X 600Y 600             
317**Signal 29**    U99_1 -1    D 280PA00X   5929Y  27246X 600Y 600             
317**Signal 30**    U23   -G    D 280PA00X  25700Y  40350X 600Y 600             
317**Signal 30**    U46   -2    D 280PA00X  27200Y  40750X 600Y 600             
317**Signal 30**    U47   -1    D 280PA00X  27222Y  39295X 600Y 600             
317**Signal 32**    U120  -S    D 280PA00X  26443Y  33943X 600Y 600             
317**Signal 32**    U49_2 -1    D 280PA00X  24904Y  38329X 600Y 600             
317**Signal 32**    U50   -1    D 280PA00X  25454Y  37129X 600Y 600             
317**Signal 33**    U23   -D    D 280PA00X  25700Y  41350X 600Y 600             
317**Signal 33**    U3    -2    D 280PA00X  24476Y  40781X 600Y 600             
317**Signal 33**    U5    -G    D 280PA00X  23050Y  40350X 600Y 600             
317**Signal 34**    U5    -S    D 280PA00X  22627Y  41256X 600Y 600             
317**Signal 34**    U82   -1    D 280PA00X  20550Y  40950X 600Y 600             
317**Signal 34**    U83   -1    D 280PA00X  21300Y  39850X 600Y 600             
317**Signal 35**    U69   -12   D 280PA00X  15464Y  38936X 600Y 600             
317**Signal 35**    U81   -1    D 280PA00X  17631Y  43024X 600Y 600             
317**Signal 35**    U83   -2    D 280PA00X  18300Y  39850X 600Y 600             
317**Signal 36**    U49   -1    D 280PA00X  16971Y  41529X 600Y 600             
317**Signal 36**    U69   -13   D 280PA00X  14757Y  39643X 600Y 600             
317**Signal 36**    U70   -1    D 280PA00X  16011Y  40289X 600Y 600             
317**Signal 36**    U82   -2    D 280PA00X  17550Y  40950X 600Y 600             
317**Signal 37**    U69   -14   D 280PA00X  14050Y  40350X 600Y 600             
317**Signal 37**    U69   -2    D 280PA00X  12636Y  37522X 600Y 600             
317**Signal 37**    U70   -2    D 280PA00X  14950Y  41350X 600Y 600             
317**Signal 37**    U78   -1    D 400PA00X   8850Y  36600X 800Y 800             
317**Signal 38**    U49_2 -2    D 280PA00X  21950Y  38850X 600Y 600             
317**Signal 38**    U69   -10   D 280PA00X  16878Y  37522X 600Y 600             
317**Signal 38**    U80   -1    D 280PA00X  19381Y  42374X 600Y 600             
317**Signal 40**    U69   -6    D 280PA00X  15464Y  34693X 600Y 600             
317**Signal 40**    U69   -8    D 280PA00X  18293Y  36107X 600Y 600             
317**Signal 40**    U71   -1    D 280PA00X  19536Y  36569X 600Y 600             
317**Signal 40**    U89   -1    D 400PA00X  23500Y  35850X 800Y 800             
317**Signal 41**    U25   -S    D 280PA00X  14325Y  42065X 600Y 600             
317**Signal 41**    U49   -2    D 280PA00X  14850Y  43650X 600Y 600             
317**Signal 42**    U25   -G    D 280PA00X  13450Y  42550X 600Y 600             
317**Signal 42**    U49_1 -2    D 280PA00X  12450Y  41600X 600Y 600             
317**Signal 43**    U49_3 -1    D 280PA00X  20728Y  37962X 600Y 600             
317**Signal 43**    U50   -2    D 280PA00X  22500Y  37650X 600Y 600             
317**Signal 43**    U69   -9    D 280PA00X  17586Y  36814X 600Y 600             
317**Signal 43**    U71   -2    D 280PA00X  18950Y  37950X 600Y 600             
317**Signal 44**    U49_1 -1    D 280PA00X  10366Y  39442X 600Y 600             
317**Signal 44**    U69   -1    D 280PA00X  11929Y  38229X 600Y 600             
317**Signal 44**    U92   -1    D 280PA00X  10179Y  38471X 600Y 600             
317**Signal 45**    U69   -3    D 280PA00X  13343Y  36814X 600Y 600             
317**Signal 45**    U92   -2    D 280PA00X  12300Y  36350X 600Y 600             
317**Signal 45**    U95   -2    D 280PA00X  19500Y  29800X 600Y 600             
317**Signal 46**    U69   -5    D 280PA00X  14757Y  35400X 600Y 600             
317**Signal 46**    U93   -2    D 280PA00X  12400Y  35250X 600Y 600             
317**Signal 46**    U94   -2    D 280PA00X  18100Y  31400X 600Y 600             
317**Signal 47**    U49_4 -1    D 280PA00X  16879Y  32929X 600Y 600             
317**Signal 47**    U69   -7    D 280PA00X  16171Y  33986X 600Y 600             
317**Signal 47**    U93   -1    D 280PA00X  14887Y  33572X 600Y 600             
317**Signal 52**    U119  -G    D 280PA00X  20150Y  34600X 600Y 600             
317**Signal 52**    U49_4 -2    D 280PA00X  19000Y  35050X 600Y 600             
317**Signal 53**    U119  -S    D 280PA00X  20150Y  35600X 600Y 600             
317**Signal 53**    U49_3 -2    D 280PA00X  21900Y  35200X 600Y 600             
317**Signal 54**    U120  -G    D 280PA00X  27150Y  34650X 600Y 600             
317**Signal 54**    U24   -D    D 280PA00X  28550Y  32400X 600Y 600             
317**Signal 54**    U97   -2    D 280PA00X  25550Y  33600X 600Y 600             
317**Signal 55**    U100  -1    D 280PA00X  42722Y  26062X 600Y 600             
317**Signal 55**    U123_8-1    D 150PA00X  31450Y  30450X 600Y 600             
317**Signal 55**    U123_9-1    D 150PA00X  34400Y  30450X 600Y 600             
317**Signal 55**    U36   -10   D 280PA00X  38259Y  28052X 600Y 600             
317**Signal 55**    U36   -13   D 280PA00X  35477Y  29175X 600Y 600             
317**Signal 55**    U36   -14   D 280PA00X  34550Y  29550X 600Y 600             
317**Signal 55**    U41   -1    D 280PA00X  41582Y  43926X 600Y 600             
317**Signal 55**    U42   -2    D 280PA00X  41600Y  42400X 600Y 600             
317**Signal 55**    U43   -1    D 280PA00X  41284Y  41224X 600Y 600             
317**Signal 55**    U44   -2    D 280PA00X  42100Y  38050X 600Y 600             
317**Signal 55**    U52   -1    D 280PA00X  39732Y  33176X 600Y 600             
317**Signal 55**    U53   -2    D 280PA00X  40700Y  32700X 600Y 600             
317**Signal 55**    U59   -A    D 280PA00X  41400Y  39650X 600Y 600             
317**Signal 55**    U73   -K    D 280PA00X  37200Y  31350X 600Y 600             
317**Signal 55**    U94   -1    D 280PA00X  20841Y  32620X 600Y 600             
317**Signal 55**    U95   -1    D 280PA00X  21621Y  31921X 600Y 600             
317**Signal 55**    U99   -1    D 280PA00X  44076Y  25769X 600Y 600             
317**Signal 57**    064   -3    D 280PA00X  33300Y  39900X 600Y 600             
317**Signal 57**    U115  -1    D 280PA00X  28721Y  36096X 600Y 600             
317**Signal 57**    U123_1-1    D 150PA00X  22500Y  31050X 600Y 600             
317**Signal 57**    U123_7-1    D 150PA00X  20350Y  28850X 600Y 600             
317**Signal 57**    U2    -4    D 280PA00X  24571Y  24429X 600Y 600             
317**Signal 2**     064_1 -5    D 280PA00X  17750Y  13350X 600Y 600             
317**Signal 2**     U116_1-1    D 280PA00X  19350Y  13550X 600Y 600             
317**Signal 2**     U2    -1    D 280PA00X  22450Y  26550X 600Y 600             
317**Signal 20**    064_1 -3    D 280PA00X  17750Y  11350X 600Y 600             
317**Signal 20**    U115_1-1    D 280PA00X  22379Y  15104X 600Y 600             
317**Signal 20**    U123_1-1    D 150PA00X  28600Y  19950X 600Y 600             
317**Signal 20**    U123_7-1    D 150PA00X  30800Y  22050X 600Y 600             
317**Signal 20**    U2    -11   D 280PA00X  26693Y  26550X 600Y 600             
317**Signal 39**    U101_1-2    D 280PA00X  10450Y  30000X 600Y 600             
317**Signal 39**    U113_1-1    D 280PA00X  11181Y  29023X 600Y 600             
317**Signal 39**    U36_1 -7    D 280PA00X  12161Y  26679X 600Y 600             
317**Signal 39**    U36_1 -9    D 280PA00X  11964Y  23523X 600Y 600             
317**Signal 49**    U69_1 -14   D 280PA00X  37029Y  10879X 600Y 600             
317**Signal 49**    U69_1 -2    D 280PA00X  38443Y  13707X 600Y 600             
317**Signal 49**    U70_1 -2    D 280PA00X  36150Y   9900X 600Y 600             
317**Signal 49**    U78_1 -1    D 400PA00X  42250Y  14650X 800Y 800             
317**Signal 58**    U101  -2    D 280PA00X  40900Y  21900X 600Y 600             
317**Signal 58**    U113  -1    D 280PA00X  39354Y  22371X 600Y 600             
317**Signal 58**    U36   -7    D 280PA00X  38989Y  24521X 600Y 600             
317**Signal 58**    U36   -9    D 280PA00X  39186Y  27677X 600Y 600             
317**Signal 59**    064   -5    D 280PA00X  33300Y  37900X 600Y 600             
317**Signal 59**    U116  -1    D 280PA00X  31750Y  37650X 600Y 600             
317**Signal 59**    U2    -8    D 280PA00X  28814Y  24429X 600Y 600             
317**Signal 60**    U117_1-2    D 280PA00X  18700Y  18900X 600Y 600             
317**Signal 60**    U118_2-2    D 280PA00X  18000Y  19750X 600Y 600             
317**Signal 60**    U118_2-2    D 280PA00X  17850Y  25650X 600Y 600             
317**Signal 60**    U2    -10   D 280PA00X  27400Y  25843X 600Y 600             
317**Signal 60**    U2    -2    D 280PA00X  23157Y  25843X 600Y 600             
317**Signal 60**    U36_1 -1    D 280PA00X  17724Y  24432X 600Y 600             
317**Signal 60**    U36_1 -2    D 280PA00X  16797Y  24806X 600Y 600             
317**Signal 61**    U117  -2    D 280PA00X  32400Y  32350X 600Y 600             
317**Signal 61**    U118  -2    D 280PA00X  33300Y  25550X 600Y 600             
317**Signal 61**    U118_1-2    D 280PA00X  33100Y  31500X 600Y 600             
317**Signal 61**    U2    -3    D 280PA00X  23864Y  25136X 600Y 600             
317**Signal 61**    U2    -9    D 280PA00X  28107Y  25136X 600Y 600             
317**Signal 61**    U36   -1    D 280PA00X  33426Y  26768X 600Y 600             
317**Signal 61**    U36   -2    D 280PA00X  34353Y  26394X 600Y 600             
317**Signal 62**    U24   -G    D 280PA00X  28550Y  33400X 600Y 600             
317**Signal 62**    U48   -2    D 280PA00X  29950Y  35600X 600Y 600             
317**Signal 62**    U51   -2    D 280PA00X  29850Y  34350X 600Y 600             
317**Signal 63**    064   -6    D 280PA00X  33300Y  36900X 600Y 600             
317**Signal 63**    064   -7    D 280PA00X  33300Y  35900X 600Y 600             
317**Signal 63**    U51   -1    D 280PA00X  32784Y  34974X 600Y 600             
317**Signal 65**    064   -10   D 280PA00X  36300Y  37900X 600Y 600             
317**Signal 65**    U118_1-1    D 280PA00X  35184Y  33658X 600Y 600             
317**Signal 65**    U52   -2    D 280PA00X  36950Y  34300X 600Y 600             
317**Signal 65**    U73   -A    D 280PA00X  36076Y  34132X 600Y 600             
317**Signal 66**    U111  -2    D 280PA00X  37550Y  30350X 600Y 600             
317**Signal 66**    U36   -12   D 280PA00X  36404Y  28801X 600Y 600             
317**Signal 66**    U55   -1    D 280PA00X  39038Y  31422X 600Y 600             
317**Signal 66**    U56   -2    D 280PA00X  36900Y  29900X 600Y 600             
317**Signal 70**    U114  -1    D 280PA00X  41434Y  25558X 600Y 600             
317**Signal 70**    U36   -8    D 280PA00X  40113Y  27302X 600Y 600             
317**Signal 71**    U103  -1    D 280PA00X  45962Y  17978X 600Y 600             
317**Signal 71**    U26   -S    D 280PA00X  47534Y  33908X 600Y 600             
317**Signal 71**    U90_1 -1    D 280PA00X  42400Y   9650X 600Y 600             
317**Signal 72**    U1    -2    D 400PA00X  40738Y  19294X 800Y 800             
317**Signal 72**    U104  -2    D 280PA00X  41400Y  18400X 600Y 600             
317**Signal 74**    U1    -1    D 400PA00X  38762Y  19606X 800Y 800             
317**Signal 74**    U105  -1    D 280PA00X  40271Y  20482X 600Y 600             
317**Signal 76**    U100  -2    D 280PA00X  41550Y  23300X 600Y 600             
317**Signal 76**    U118  -1    D 280PA00X  36062Y  24378X 600Y 600             
317**Signal 76**    U36   -6    D 280PA00X  38062Y  24895X 600Y 600             
317**Signal 77**    U101  -1    D 280PA00X  43900Y  21900X 600Y 600             
317**Signal 77**    U36   -5    D 280PA00X  37135Y  25270X 600Y 600             
317**Signal 77**    U99   -2    D 280PA00X  43050Y  22950X 600Y 600             
317**Signal 78**    U108  -1    D 400PA00X  32950Y  24050X 800Y 800             
317**Signal 78**    U36   -3    D 280PA00X  35281Y  26019X 600Y 600             
317**Signal 80**    U106  -A    D 280PA00X  32472Y  26062X 600Y 600             
317**Signal 80**    U107  -A    D 280PA00X  31922Y  27212X 600Y 600             
317**Signal 80**    U109  -2    D 400PA00X  30900Y  27250X 800Y 800             
317**Signal 81**    U102  -1    D 280PA00X  45704Y  20029X 600Y 600             
317**Signal 81**    U30   -S    D 280PA00X  44559Y  28679X 600Y 600             
317**Signal 81**    U91_1 -1    D 280PA00X  41750Y  10400X 600Y 600             
317**Signal 83**    U75_1 -2    D 280PA00X  44961Y   8839X 600Y 600             
317**Signal 83**    U77_1 -2    D 400PA00X  45600Y  11250X 800Y 800             
317**Signal 86**    U74_1 -5    D 280PA00X  44284Y   5484X 600Y 600             
317**Signal 86**    U75_1 -1    D 280PA00X  46400Y   7450X 600Y 600             
317**Signal 89**    U49_1_-1    D 280PA00X  40713Y  11737X 600Y 600             
317**Signal 89**    U69_1 -1    D 280PA00X  39150Y  13000X 600Y 600             
317**Signal 89**    U92_1 -1    D 280PA00X  40900Y  12750X 600Y 600             
317**Signal 90**    U69_1 -3    D 280PA00X  37736Y  14414X 600Y 600             
317**Signal 90**    U92_1 -2    D 280PA00X  38779Y  14871X 600Y 600             
317**Signal 90**    U95_1 -2    D 280PA00X  31550Y  21350X 600Y 600             
317**Signal 91**    U69_1 -5    D 280PA00X  36322Y  15828X 600Y 600             
317**Signal 91**    U93_1 -2    D 280PA00X  38650Y  16000X 600Y 600             
317**Signal 91**    U94_1 -2    D 280PA00X  33000Y  19800X 600Y 600             
317**Signal 92**    U49_4_-1    D 280PA00X  34200Y  18350X 600Y 600             
317**Signal 92**    U69_1 -7    D 280PA00X  34907Y  17243X 600Y 600             
317**Signal 92**    U93_1 -1    D 280PA00X  36163Y  17678X 600Y 600             
317**Signal 96**    U103_1-1    D 280PA00X   5138Y  33472X 600Y 600             
317**Signal 96**    U26_1 -S    D 280PA00X   3566Y  17342X 600Y 600             
317**Signal 96**    U90   -1    D 280PA00X   8679Y  41529X 600Y 600             
317**Signal 97**    U26_1 -G    D 280PA00X   4500Y  17700X 600Y 600             
317**Signal 97**    U54_1 -2    D 280PA00X   4350Y  19850X 600Y 600             
317**Signal 97**    U57_1 -1    D 280PA00X   3948Y  15400X 600Y 600             
317**Signal 98**    U26_1 -D    D 280PA00X   5434Y  18058X 600Y 600             
317**Signal 98**    U28_1 -S    D 280PA00X   5972Y  11858X 600Y 600             
317**Signal 98**    U30_1 -D    D 280PA00X   5759Y  20729X 600Y 600             
317**Signal 99**    U30_1 -G    D 280PA00X   6150Y  21650X 600Y 600             
317**Signal 99**    U53_1 -1    D 280PA00X   7618Y  19674X 600Y 600             
317**Signal 99**    U54_1 -1    D 280PA00X   7132Y  18726X 600Y 600             
317**Signal 102**   U111_1-2    D 280PA00X  13550Y  20900X 600Y 600             
317**Signal 102**   U36_1 -12   D 280PA00X  14746Y  22399X 600Y 600             
317**Signal 102**   U55_1 -1    D 280PA00X  12062Y  19828X 600Y 600             
317**Signal 102**   U56_1 -2    D 280PA00X  14200Y  21350X 600Y 600             
317**Signal 105**   U114_1-1    D 280PA00X   9716Y  25642X 600Y 600             
317**Signal 105**   U36_1 -8    D 280PA00X  11037Y  23898X 600Y 600             
317**Signal 106**   U100_1-2    D 280PA00X   9500Y  27950X 600Y 600             
317**Signal 106**   U118_2-1    D 280PA00X  15088Y  26822X 600Y 600             
317**Signal 106**   U36_1 -6    D 280PA00X  13088Y  26305X 600Y 600             
317**Signal 107**   U1_1  -2    D 400PA00X   8936Y  33157X 800Y 800             
317**Signal 107**   U99_1 -2    D 280PA00X   6450Y  30200X 600Y 600             
317**Signal 108**   U105_1-1    D 280PA00X  11416Y  31627X 600Y 600             
317**Signal 108**   U1_1  -1    D 400PA00X  10764Y  32343X 800Y 800             
317**Signal 109**   U102_1-1    D 280PA00X   5046Y  31671X 600Y 600             
317**Signal 109**   U30_1 -S    D 280PA00X   6541Y  22571X 600Y 600             
317**Signal 109**   U91   -1    D 280PA00X   9329Y  40779X 600Y 600             
317**Signal 110**   U101_1-1    D 280PA00X   7450Y  30000X 600Y 600             
317**Signal 110**   U36_1 -5    D 280PA00X  14015Y  25930X 600Y 600             
317**Signal 110**   U99_2 -2    D 280PA00X   8050Y  28350X 600Y 600             
317**Signal 113**   U57_1 -2    D 280PA00X   4000Y  12400X 600Y 600             
317**Signal 113**   U64_1 -1    D 400PA00X   5250Y   8500X 800Y 800             
317**Signal 114**   U27_1 -G    D 280PA00X   7150Y  16000X 600Y 600             
317**Signal 114**   U27_1 -S    D 280PA00X   6150Y  16000X 600Y 600             
317**Signal 114**   U28_1 -G    D 280PA00X   6950Y  11650X 600Y 600             
317**Signal 114**   U45_1 -2    D 280PA00X   7150Y  14450X 600Y 600             
317**Signal 115**   U45_1 -1    D 280PA00X  10095Y  15022X 600Y 600             
317**Signal 115**   U68_2 -S    D 280PA00X  12050Y  16500X 600Y 600             
317**Signal 116**   064_1 -8    D 280PA00X  14750Y  15350X 600Y 600             
317**Signal 116**   U68_2 -G    D 280PA00X  12425Y  15573X 600Y 600             
317**Signal 117**   064_1 -9    D 280PA00X  14750Y  14350X 600Y 600             
317**Signal 117**   U44_1 -1    D 280PA00X  11934Y  13824X 600Y 600             
317**Signal 117**   U68_2 -D    D 280PA00X  12799Y  14646X 600Y 600             
317**Signal 119**   064_1 -10   D 280PA00X  14750Y  13350X 600Y 600             
317**Signal 119**   U118_2-1    D 280PA00X  15916Y  17592X 600Y 600             
317**Signal 119**   U52_1 -2    D 280PA00X  14150Y  16950X 600Y 600             
317**Signal 119**   U73_1 -A    D 280PA00X  15024Y  17118X 600Y 600             
317**Signal 120**   064_1 -14   D 280PA00X  14750Y   9350X 600Y 600             
317**Signal 120**   U29_1 -G    D 280PA00X  13109Y   7721X 600Y 600             
317**Signal 121**   064_1 -13   D 280PA00X  14750Y  10350X 600Y 600             
317**Signal 121**   U29_1 -D    D 280PA00X  12550Y   8550X 600Y 600             
317**Signal 121**   U42_1 -1    D 280PA00X  12384Y   9524X 600Y 600             
317**Signal 122**   064_1 -12   D 280PA00X  14750Y  11350X 600Y 600             
317**Signal 122**   U117_1-1    D 280PA00X  16616Y  16742X 600Y 600             
317**Signal 122**   U43_1 -2    D 280PA00X  12684Y  10624X 600Y 600             
317**Signal 122**   U59_1 -K    D 280PA00X  12700Y  11600X 600Y 600             
317**Signal 125**   064_1 -1    D 280PA00X  17750Y   9350X 600Y 600             
317**Signal 125**   064_1 -2    D 280PA00X  17750Y  10350X 600Y 600             
317**Signal 125**   U46_1 -1    D 280PA00X  20916Y   9826X 600Y 600             
317**Signal 126**   U38_1 -2    D 280PA00X  21200Y   8400X 600Y 600             
317**Signal 126**   U39_1 -2    D 280PA00X  25650Y   6850X 600Y 600             
317**Signal 126**   U68_3 -G    D 280PA00X  23700Y   7700X 600Y 600             
317**Signal 127**   U38_1 -1    D 280PA00X  22834Y   5884X 600Y 600             
317**Signal 127**   U41_1 -2    D 280PA00X  11950Y   6000X 600Y 600             
317**Signal 127**   U65_1 -G    D 280PA00X  20800Y   5700X 600Y 600             
317**Signal 128**   U65_1 -D    D 280PA00X  20575Y   6674X 600Y 600             
317**Signal 128**   U66_1 -S    D 280PA00X  19225Y   6523X 600Y 600             
317**Signal 128**   U68_3 -D    D 280PA00X  23874Y   6715X 600Y 600             
317**Signal 131**   U29_1 -S    D 280PA00X  13668Y   6892X 600Y 600             
317**Signal 131**   U37_1 -1    D 280PA00X  14100Y   6000X 600Y 600             
317**Signal 132**   U39_1 -1    D 280PA00X  27771Y   4729X 600Y 600             
317**Signal 132**   U88_1 -1    D 400PA00X  25150Y   4650X 800Y 800             
317**Signal 134**   U40_1 -2    D 280PA00X  28300Y   5900X 600Y 600             
317**Signal 134**   U65_1 -S    D 280PA00X  21025Y   4726X 600Y 600             
317**Signal 134**   U85_1 -2    D 280PA00X  32700Y   4750X 600Y 600             
317**Signal 135**   U68_3 -S    D 280PA00X  23526Y   8685X 600Y 600             
317**Signal 135**   U79_1 -2    D 280PA00X  29800Y   6050X 600Y 600             
317**Signal 135**   U84_1 -2    D 280PA00X  34350Y   5900X 600Y 600             
317**Signal 136**   U74_1 -2    D 280PA00X  40679Y   5527X 600Y 600             
317**Signal 136**   U84_1 -1    D 280PA00X  37350Y   5900X 600Y 600             
317**Signal 136**   U87_1 -2    D 280PA00X  38629Y   5871X 600Y 600             
317**Signal 136**   U91_1 -2    D 280PA00X  39629Y   8279X 600Y 600             
317**Signal 137**   064_1 -6    D 280PA00X  17750Y  14350X 600Y 600             
317**Signal 137**   064_1 -7    D 280PA00X  17750Y  15350X 600Y 600             
317**Signal 137**   U51_1 -1    D 280PA00X  18300Y  16250X 600Y 600             
317**Signal 138**   064   -4    D 280PA00X  33300Y  38900X 600Y 600             
317**Signal 138**   064_1 -4    D 280PA00X  17750Y  12350X 600Y 600             
317**Signal 138**   U102  -2    D 280PA00X  42750Y  20550X 600Y 600             
317**Signal 138**   U102_1-2    D 280PA00X   8000Y  31150X 600Y 600             
317**Signal 138**   U103  -2    D 280PA00X  43200Y  19150X 600Y 600             
317**Signal 138**   U103_1-2    D 280PA00X   7900Y  32300X 600Y 600             
317**Signal 138**   U105  -2    D 280PA00X  37300Y  20900X 600Y 600             
317**Signal 138**   U105_1-2    D 280PA00X  14300Y  30800X 600Y 600             
317**Signal 138**   U109  -1    D 400PA00X  33021Y  29371X 800Y 800             
317**Signal 138**   U109_1-1    D 400PA00X  18129Y  21829X 800Y 800             
317**Signal 138**   U110  -1    D 280PA00X   6716Y  44366X 600Y 600             
317**Signal 138**   U110_1-1    D 280PA00X  43834Y  14534X 600Y 600             
317**Signal 138**   U110_2-1    D 280PA00X  44234Y   6784X 600Y 600             
317**Signal 138**   U120  -D    D 280PA00X  27857Y  35357X 600Y 600             
317**Signal 138**   U120_1-D    D 280PA00X  23243Y  15893X 600Y 600             
317**Signal 138**   U123_1-1    D 150PA00X  16200Y  27550X 600Y 600             
317**Signal 138**   U123_7-1    D 150PA00X  13450Y  28650X 600Y 600             
317**Signal 138**   U123_7-1    D 150PA00X  37650Y  23100X 600Y 600             
317**Signal 138**   U123_7-1    D 150PA00X  34650Y  23150X 600Y 600             
317**Signal 138**   U2    -14   D 280PA00X  24571Y  28671X 600Y 600             
317**Signal 138**   U23   -S    D 280PA00X  25700Y  39350X 600Y 600             
317**Signal 138**   U23_1 -S    D 280PA00X  25350Y  11900X 600Y 600             
317**Signal 138**   U24   -S    D 280PA00X  28550Y  34400X 600Y 600             
317**Signal 138**   U24_1 -S    D 280PA00X  22550Y  16850X 600Y 600             
317**Signal 138**   U36   -4    D 280PA00X  36208Y  25645X 600Y 600             
317**Signal 138**   U36_1 -4    D 280PA00X  14942Y  25555X 600Y 600             
317**Signal 138**   U47   -2    D 280PA00X  26650Y  36350X 600Y 600             
317**Signal 138**   U47_1 -2    D 280PA00X  24450Y  14850X 600Y 600             
317**Signal 138**   U48   -1    D 280PA00X  29429Y  38554X 600Y 600             
317**Signal 138**   U48_1 -1    D 280PA00X  21671Y  12646X 600Y 600             
317**Signal 138**   U5    -D    D 280PA00X  23473Y  39444X 600Y 600             
317**Signal 138**   U56   -1    D 280PA00X  34779Y  32021X 600Y 600             
317**Signal 138**   U56_1 -1    D 280PA00X  16321Y  19229X 600Y 600             
317**Signal 138**   U58   -K    D 280PA00X  36250Y  44050X 600Y 600             
317**Signal 138**   U5_1  -D    D 280PA00X  27627Y  11806X 600Y 600             
317**Signal 138**   U66   -D    D 280PA00X  32425Y  42873X 600Y 600             
317**Signal 138**   U66_1 -D    D 280PA00X  18475Y   8377X 600Y 600             
317**Signal 138**   U67   -D    D 280PA00X  35414Y  43293X 600Y 600             
317**Signal 138**   U67_1 -D    D 280PA00X  15336Y   8057X 600Y 600             
317**Signal 138**   U69   -4    D 280PA00X  14050Y  36107X 600Y 600             
317**Signal 138**   U69_1 -4    D 280PA00X  37029Y  15121X 600Y 600             
317**Signal 138**   U74   -6    D 280PA00X   7345Y  44943X 600Y 600             
317**Signal 138**   U74_1 -6    D 280PA00X  43739Y   6323X 600Y 600             
317**Signal 138**   U76   -1    D 280PA00X   6941Y  36569X 600Y 600             
317**Signal 139**   U108_1-1    D 400PA00X  17500Y  27550X 800Y 800             
317**Signal 139**   U36_1 -3    D 280PA00X  15869Y  25181X 600Y 600             
317**Signal 141**   U106_1-A    D 280PA00X  18678Y  25138X 600Y 600             
317**Signal 141**   U107_1-A    D 280PA00X  19228Y  23988X 600Y 600             
317**Signal 141**   U109_1-2    D 400PA00X  20250Y  23950X 800Y 800             
317**Signal 142**   U107_1-K    D 280PA00X  20400Y  26750X 600Y 600             
317**Signal 142**   U114_1-2    D 280PA00X  11800Y  27800X 600Y 600             
317**Signal 142**   U123_3-1    D 150PA00X  21650Y  27300X 600Y 600             
317**Signal 142**   U123_4-1    D 150PA00X  23750Y  29450X 600Y 600             
317**Signal 142**   U2    -13   D 280PA00X  25278Y  27964X 600Y 600             
317**Signal 142**   U96   -1    D 280PA00X  25271Y  29496X 600Y 600             
317**Signal 143**   U106  -K    D 280PA00X  31300Y  23300X 600Y 600             
317**Signal 143**   U113  -2    D 280PA00X  36400Y  21850X 600Y 600             
317**Signal 143**   U123_5-1    D 150PA00X  28000Y  20750X 600Y 600             
317**Signal 143**   U123_6-1    D 150PA00X  30150Y  22800X 600Y 600             
317**Signal 143**   U2    -5    D 280PA00X  25278Y  23722X 600Y 600             
317**Signal 143**   U98_1 -1    D 280PA00X  24729Y  21504X 600Y 600             
317**Signal 144**   U107  -K    D 280PA00X  30750Y  24450X 600Y 600             
317**Signal 144**   U114  -2    D 280PA00X  39350Y  23400X 600Y 600             
317**Signal 144**   U123_3-1    D 150PA00X  29450Y  23600X 600Y 600             
317**Signal 144**   U123_4-1    D 150PA00X  27400Y  21550X 600Y 600             
317**Signal 144**   U2    -6    D 280PA00X  25986Y  23014X 600Y 600             
317**Signal 144**   U96_1 -1    D 280PA00X  25828Y  21745X 600Y 600             
317**Signal 145**   U100_1-1    D 280PA00X   8328Y  25188X 600Y 600             
317**Signal 145**   U123_8-1    D 150PA00X  19700Y  20750X 600Y 600             
317**Signal 145**   U123_9-1    D 150PA00X  16700Y  20800X 600Y 600             
317**Signal 145**   U36_1 -10   D 280PA00X  12891Y  23148X 600Y 600             
317**Signal 145**   U36_1 -13   D 280PA00X  15673Y  22025X 600Y 600             
317**Signal 145**   U36_1 -14   D 280PA00X  16600Y  21650X 600Y 600             
317**Signal 145**   U41_1 -1    D 280PA00X   9168Y   7124X 600Y 600             
317**Signal 145**   U42_1 -2    D 280PA00X   9450Y   8900X 600Y 600             
317**Signal 145**   U43_1 -1    D 280PA00X   9750Y  10000X 600Y 600             
317**Signal 145**   U44_1 -2    D 280PA00X   9000Y  13200X 600Y 600             
317**Signal 145**   U52_1 -1    D 280PA00X  11368Y  18074X 600Y 600             
317**Signal 145**   U53_1 -2    D 280PA00X  10400Y  18550X 600Y 600             
317**Signal 145**   U59_1 -A    D 280PA00X   9700Y  11600X 600Y 600             
317**Signal 145**   U73_1 -K    D 280PA00X  13900Y  19900X 600Y 600             
317**Signal 145**   U94_1 -1    D 280PA00X  30259Y  18580X 600Y 600             
317**Signal 145**   U95_1 -1    D 280PA00X  29429Y  19229X 600Y 600             
317**Signal 145**   U99_2 -1    D 280PA00X   7024Y  25531X 600Y 600             
317**Signal 147**   U119_1-G    D 280PA00X  30900Y  16600X 600Y 600             
317**Signal 147**   U49_4_-2    D 280PA00X  32079Y  16229X 600Y 600             
317**Signal 148**   U120_1-G    D 280PA00X  23950Y  16600X 600Y 600             
317**Signal 148**   U24_1 -D    D 280PA00X  22550Y  18850X 600Y 600             
317**Signal 148**   U97_1 -2    D 280PA00X  25566Y  17674X 600Y 600             
317**Signal 150**   U24_1 -G    D 280PA00X  22550Y  17850X 600Y 600             
317**Signal 150**   U48_1 -2    D 280PA00X  21150Y  15600X 600Y 600             
317**Signal 150**   U51_1 -2    D 280PA00X  21234Y  16874X 600Y 600             
317**Signal 152**   U120_1-S    D 280PA00X  24657Y  17307X 600Y 600             
317**Signal 152**   U49_2_-1    D 280PA00X  26196Y  12871X 600Y 600             
317**Signal 152**   U50_1 -1    D 280PA00X  25646Y  14071X 600Y 600             
317**Signal 153**   U49_3_-1    D 280PA00X  30372Y  13238X 600Y 600             
317**Signal 153**   U50_1 -2    D 280PA00X  28600Y  13550X 600Y 600             
317**Signal 153**   U69_1 -9    D 280PA00X  33493Y  14414X 600Y 600             
317**Signal 153**   U71_1 -2    D 280PA00X  32150Y  13250X 600Y 600             
317**Signal 154**   U69_1 -6    D 280PA00X  35614Y  16536X 600Y 600             
317**Signal 154**   U69_1 -8    D 280PA00X  32786Y  15121X 600Y 600             
317**Signal 154**   U71_1 -1    D 280PA00X  31564Y  14631X 600Y 600             
317**Signal 154**   U89_1 -1    D 400PA00X  27600Y  15400X 800Y 800             
317**Signal 155**   U119_1-S    D 280PA00X  30900Y  15600X 600Y 600             
317**Signal 155**   U49_3_-2    D 280PA00X  29200Y  16000X 600Y 600             
317**Signal 156**   U23_1 -G    D 280PA00X  25350Y  10900X 600Y 600             
317**Signal 156**   U46_1 -2    D 280PA00X  23850Y  10450X 600Y 600             
317**Signal 156**   U47_1 -1    D 280PA00X  23878Y  11905X 600Y 600             
317**Signal 158**   U25_1 -G    D 280PA00X  37629Y   8629X 600Y 600             
317**Signal 158**   U49_1_-2    D 280PA00X  38629Y   9579X 600Y 600             
317**Signal 159**   U25_1 -S    D 280PA00X  36754Y   9113X 600Y 600             
317**Signal 159**   U49_5 -2    D 280PA00X  36250Y   7600X 600Y 600             
317**Signal 160**   U49_5 -1    D 280PA00X  34129Y   9721X 600Y 600             
317**Signal 160**   U69_1 -13   D 280PA00X  36322Y  11586X 600Y 600             
317**Signal 160**   U70_1 -1    D 280PA00X  35089Y  10961X 600Y 600             
317**Signal 160**   U82_1 -2    D 280PA00X  33550Y  10300X 600Y 600             
317**Signal 161**   U69_1 -12   D 280PA00X  35614Y  12293X 600Y 600             
317**Signal 161**   U81_1 -1    D 280PA00X  33469Y   8226X 600Y 600             
317**Signal 161**   U83_1 -2    D 280PA00X  32800Y  11350X 600Y 600             
317**Signal 162**   U74_1 -3    D 280PA00X  41223Y   4689X 600Y 600             
317**Signal 162**   U85_1 -1    D 280PA00X  35700Y   4750X 600Y 600             
317**Signal 162**   U86_1 -2    D 280PA00X  36788Y   4772X 600Y 600             
317**Signal 162**   U90_1 -2    D 280PA00X  40279Y   7529X 600Y 600             
317**Signal 163**   U5_1  -S    D 280PA00X  28473Y   9994X 600Y 600             
317**Signal 163**   U82_1 -1    D 280PA00X  30550Y  10300X 600Y 600             
317**Signal 163**   U83_1 -1    D 280PA00X  29800Y  11350X 600Y 600             
317**Signal 164**   U49_2_-2    D 280PA00X  29150Y  12350X 600Y 600             
317**Signal 164**   U69_1 -10   D 280PA00X  34200Y  13707X 600Y 600             
317**Signal 164**   U80_1 -1    D 280PA00X  31719Y   8876X 600Y 600             
317**Signal 8**     064   -8    D 280PA00X  36300Y  35900X 600Y 600             
317**Signal 8**     U68   -G    D 280PA00X  38675Y  35677X 600Y 600             
317**Signal 14**    064   -9    D 280PA00X  36300Y  36900X 600Y 600             
317**Signal 14**    U44   -1    D 280PA00X  39166Y  37426X 600Y 600             
317**Signal 14**    U68   -D    D 280PA00X  38301Y  36604X 600Y 600             
317**Signal 19**    U45   -1    D 280PA00X  41005Y  36228X 600Y 600             
317**Signal 19**    U68   -S    D 280PA00X  39050Y  34750X 600Y 600             
317**Signal 31**    U106_1-K    D 280PA00X  19850Y  27900X 600Y 600             
317**Signal 31**    U113_1-2    D 280PA00X  14050Y  29900X 600Y 600             
317**Signal 31**    U123_2-1    D 150PA00X  23100Y  30200X 600Y 600             
317**Signal 31**    U123_6-1    D 150PA00X  20950Y  28100X 600Y 600             
317**Signal 31**    U2    -12   D 280PA00X  25986Y  27257X 600Y 600             
317**Signal 31**    U98   -1    D 280PA00X  26472Y  29755X 600Y 600             
317**Signal 48**    U23_1 -D    D 280PA00X  25350Y   9900X 600Y 600             
317**Signal 48**    U4    -2    D 280PA00X  26500Y  10200X 600Y 600             
317**Signal 48**    U5_1  -G    D 280PA00X  28050Y  10900X 600Y 600             
317**Signal 26**    U37_1 -2    D 280PA00X  17054Y   5479X 600Y 600             
317**Signal 26**    U66_1 -G    D 280PA00X  18850Y   7450X 600Y 600             
317**Signal 26**    U67_1 -G    D 280PA00X  16250Y   7650X 600Y 600             
317**Signal 26**    U67_1 -S    D 280PA00X  17164Y   7243X 600Y 600             
317N/C              U1    -wipe D 280PA00X  39750Y  19450X 600Y 600             
317N/C              U1_1  -wipe D 280PA00X   9850Y  32750X 600Y 600             
317N/C              U74   -1    D 280PA00X  10950Y  44900X 600Y 600             
317N/C              U74   -7    D 280PA00X   7889Y  44105X 600Y 600             
317N/C              U74   -8    D 280PA00X   8434Y  43266X 600Y 600             
317N/C              U74_1 -1    D 280PA00X  40134Y   6366X 600Y 600             
317N/C              U74_1 -7    D 280PA00X  43195Y   7161X 600Y 600             
317N/C              U74_1 -8    D 280PA00X  42650Y   8000X 600Y 600             
999                                                                             
