%FSTAX24Y24*%
%MOIN*%
%IN nobsrine.bottomlayer.ger *%
%ADD10C,0.0100*%
%ADD11C,0.0200*%
%ADD12C,0.0600*%
%ADD13C,0.0800*%
%ADD14R,0.0800X0.0800*%
D12*X0333Y0399D03*Y0379D03*X0363Y0359D03*X038675Y035677D03*
X0363Y0369D03*X038301Y036604D03*X039166Y037426D03*X0363Y0379D03*
X035184Y033658D03*X036076Y034132D03*X03695Y0343D03*X0363Y0409D03*
X038666Y041776D03*X0385Y0427D03*X01775Y01135D03*Y01335D03*Y01435D03*
Y01535D03*X0183Y01625D03*X01475Y01335D03*X015916Y017592D03*
X015024Y017118D03*X01415Y01695D03*D13*X040738Y019294D03*D12*
X0414Y0184D03*X03975Y01945D03*X04155Y0233D03*X038062Y024895D03*
X036062Y024378D03*X0095Y02795D03*X013088Y026305D03*X015088Y026822D03*
X0439Y0219D03*X04305Y02295D03*X037135Y02527D03*X0409Y0219D03*
X039354Y022371D03*X038989Y024521D03*X040271Y020482D03*D13*
X038762Y019606D03*D12*X032472Y026062D03*X031922Y027212D03*D13*
X0309Y02725D03*D12*X018678Y025138D03*X019228Y023988D03*D13*
X02025Y02395D03*X03295Y02405D03*D12*X035281Y026019D03*D13*
X0175Y02755D03*D12*X015869Y025181D03*X0364Y02185D03*X0313Y0233D03*
X03015Y0228D03*X01405Y0299D03*X01985Y0279D03*X02095Y0281D03*
X041434Y025558D03*X040113Y027302D03*X03935Y0234D03*X03075Y02445D03*
X02945Y0236D03*X009716Y025642D03*X011037Y023898D03*X0118Y0278D03*
X0204Y02675D03*X02165Y0273D03*X028721Y036096D03*X022379Y015104D03*
X03175Y03765D03*Y04065D03*X0282Y03905D03*X02345Y0436D03*X0222Y0434D03*
X02045Y04405D03*X012575Y043035D03*X02015Y0336D03*X022616Y034224D03*
X024802Y032459D03*X0259Y0327D03*X016171Y038229D03*X009316Y047416D03*
X010579Y047521D03*X011738Y047622D03*X019216Y047358D03*
X020716Y047508D03*D14*X04035Y0465D03*D12*X0363Y0389D03*
X043172Y039808D03*X04295Y03525D03*X0418Y03025D03*X040351Y029275D03*
X044182Y017276D03*X0443Y01605D03*X037332Y028426D03*X0042Y046D03*D14*
X0043Y0399D03*D12*X0051Y03735D03*X01935Y01355D03*X034484Y034508D03*
X0363Y0399D03*X0384Y03965D03*X03835Y0406D03*X016616Y016742D03*
X01475Y01135D03*X0127Y0116D03*X012684Y010624D03*X02015Y0356D03*
X0219Y0352D03*X0309Y0166D03*X032079Y016229D03*X02715Y03465D03*
X02855Y0324D03*X02555Y0336D03*X02395Y0166D03*X025566Y017674D03*
X02255Y01885D03*X0225Y03105D03*X0286Y01995D03*X0231Y0302D03*
X026472Y029755D03*X025986Y027257D03*X02375Y02945D03*X025271Y029496D03*
X025278Y027964D03*X0274Y02155D03*X025828Y021745D03*X025986Y023014D03*
X028Y02075D03*X024729Y021504D03*X025278Y023722D03*X01345Y02865D03*
X0079Y0323D03*X008Y03115D03*X0143Y0308D03*X006941Y036569D03*
X007345Y044943D03*X006716Y044366D03*X043834Y014534D03*X0373Y0209D03*
X03765Y0231D03*X04275Y02055D03*X0432Y01915D03*X043739Y006323D03*
X044234Y006784D03*X037029Y015121D03*X024571Y028671D03*X01405Y036107D03*
X0308Y02205D03*X026693Y02655D03*X0465Y0139D03*X04635Y0129D03*D14*
X0466Y01125D03*D12*X04675Y00515D03*X03955Y0036D03*X031884Y003892D03*
X030384Y003742D03*X01475Y01235D03*X007928Y011442D03*X00815Y016D03*
X0093Y021D03*X013818Y022774D03*X010749Y021975D03*X005929Y027246D03*
X04075Y00375D03*X041768Y00385D03*X034907Y013D03*X026693Y022307D03*
X0309Y0176D03*X0285Y01705D03*X0264Y0188D03*X025302Y018559D03*
X038503Y008144D03*X03065Y0072D03*X0289Y00785D03*X028Y007602D03*
X0229Y01215D03*X01935Y01055D03*X0197Y02075D03*X029429Y019229D03*
X030259Y01858D03*X0167Y0208D03*X0139Y0199D03*X011368Y018074D03*
X009Y0132D03*X0097Y0116D03*X00975Y01D03*X00945Y0089D03*
X009168Y007124D03*X0104Y01855D03*X015673Y022025D03*X0166Y02165D03*
X012891Y023148D03*X008328Y025188D03*X007024Y025531D03*D13*
X010764Y032343D03*D12*X011416Y031627D03*D13*X008936Y033157D03*D12*
X00645Y0302D03*X00985Y03275D03*X02245Y02655D03*X023157Y025843D03*
X017724Y024432D03*X016797Y024806D03*X01785Y02565D03*X018Y01975D03*
X0187Y0189D03*X023864Y025136D03*X024571Y024429D03*X02035Y02885D03*
X028814Y024429D03*X028107Y025136D03*X033426Y026768D03*
X034353Y026394D03*X0333Y02555D03*X0331Y0315D03*X0324Y03235D03*
X0274Y025843D03*X0257Y04135D03*X024476Y040781D03*X02305Y04035D03*
X02855Y0334D03*X02985Y03435D03*X02995Y0356D03*X02255Y01785D03*
X021234Y016874D03*X02115Y0156D03*X014325Y042065D03*X01485Y04365D03*
X037629Y008629D03*X038629Y009579D03*X003566Y017342D03*
X008679Y041529D03*X005138Y033472D03*X04415Y0396D03*X04395Y0368D03*
Y03525D03*X04495D03*X005972Y011858D03*X005434Y018058D03*
X005759Y020729D03*X00695Y01165D03*X00715Y01445D03*Y016D03*X00615D03*
X037941Y043529D03*X0363Y0419D03*X013668Y006892D03*X0141Y006D03*
X013109Y007721D03*X01475Y00935D03*X01255Y00855D03*X012384Y009524D03*
X01475Y01035D03*X04495Y0296D03*X043482Y031576D03*X043968Y032524D03*
X045341Y030521D03*X045666Y033192D03*X045128Y039392D03*
X006541Y022571D03*X005046Y031671D03*X009329Y040779D03*
X039186Y027677D03*X036404Y028801D03*X0369Y0299D03*X03755Y03035D03*
X039038Y031422D03*X014015Y02593D03*X00805Y02835D03*X00745Y03D03*
X012161Y026679D03*X01045Y03D03*X011181Y029023D03*X011964Y023523D03*
X03555Y04555D03*X037382Y044358D03*X02985Y04285D03*X02735Y04355D03*
X02545Y0444D03*X022834Y005884D03*X0208Y0057D03*X01195Y006D03*
X0212Y0084D03*X0237Y0077D03*X02565Y00685D03*X0388Y04505D03*
X03025Y04555D03*X028216Y045366D03*X011934Y013824D03*X012799Y014646D03*
X01475Y01435D03*X010095Y015022D03*X01205Y0165D03*X030134Y041374D03*
X0333Y0419D03*Y0409D03*X020916Y009826D03*X01775Y00935D03*Y01035D03*
X027222Y039295D03*X0257Y04035D03*X0272Y04075D03*X023878Y011905D03*
X02535Y0109D03*X02385Y01045D03*X010366Y039442D03*X010179Y038471D03*
X011929Y038229D03*X01245Y0416D03*X01345Y04255D03*X040713Y011737D03*
X0409Y01275D03*X03915Y013D03*X024904Y038329D03*X025454Y037129D03*
X026443Y033943D03*X026196Y012871D03*X025646Y014071D03*
X024657Y017307D03*X0292Y016D03*X0309Y0156D03*X019Y03505D03*
X02015Y0346D03*X034129Y009721D03*X03355Y0103D03*X035089Y010961D03*
X036322Y011586D03*X03625Y0076D03*X036754Y009113D03*X0225Y03765D03*
X020728Y037962D03*X01895Y03795D03*X017586Y036814D03*X0286Y01355D03*
X030372Y013238D03*X03215Y01325D03*X033493Y014414D03*X032784Y034974D03*
X0333Y0359D03*Y0369D03*X04675Y0314D03*X0466Y03355D03*X047152Y03585D03*
X007132Y018726D03*X007618Y019674D03*X00615Y02165D03*X00435Y01985D03*
X0045Y0177D03*X003948Y0154D03*X012062Y019828D03*X01355Y0209D03*
X0142Y02135D03*X014746Y022399D03*X0471Y03885D03*D13*X04575Y04275D03*
D12*X037422Y046812D03*D13*X03935Y046483D03*D12*X03625Y04405D03*
X035414Y043293D03*X0333Y0389D03*X034779Y032021D03*D13*
X033021Y029371D03*D12*X036208Y025645D03*X03465Y02315D03*
X029429Y038554D03*X02665Y03635D03*X027857Y035357D03*X02855Y0344D03*
X0257Y03935D03*X023473Y039444D03*X032425Y042873D03*X02805Y0109D03*
X0265Y0102D03*X02535Y0099D03*D13*X00525Y0085D03*D12*X004Y0124D03*
X030025Y046524D03*X0228Y04535D03*X0186Y04665D03*X021025Y004726D03*
X0283Y0059D03*X0327Y00475D03*X019225Y006523D03*X020575Y006674D03*
X023874Y006715D03*X0345Y0437D03*X033586Y044107D03*X03255Y04555D03*
X03205Y0438D03*X01625Y00765D03*X017164Y007243D03*X01885Y00745D03*
X017054Y005479D03*X015336Y008057D03*X016321Y019229D03*D13*
X018129Y021829D03*D12*X014942Y025555D03*X0162Y02755D03*X01775Y01235D03*
X021671Y012646D03*X02445Y01485D03*X02535Y0119D03*X027627Y011806D03*
X023243Y015893D03*X02255Y01685D03*X018475Y008377D03*X03905Y03475D03*
X041005Y036228D03*X027176Y044535D03*X030475Y044576D03*
X031675Y044727D03*X012425Y015573D03*X01475Y01535D03*X023526Y008685D03*
X0298Y00605D03*X03435Y0059D03*X015464Y034693D03*X016171Y033986D03*
X014887Y033572D03*X016879Y032929D03*X018293Y036107D03*
X019536Y036569D03*D14*X0235Y03585D03*D12*X014757Y039643D03*
X016011Y040289D03*X01755Y04095D03*X016971Y041529D03*X038443Y013707D03*
D13*X04225Y01465D03*D12*X036322Y015828D03*X03865Y016D03*X033Y0198D03*
X035614Y016536D03*X034907Y017243D03*X036163Y017678D03*X0342Y01835D03*
X0342Y013707D03*X02915Y01235D03*X031719Y008876D03*X037029Y010879D03*
X03615Y0099D03*X01495Y04135D03*X01405Y04035D03*X01095Y0449D03*
X007889Y044105D03*X008434Y043266D03*X040134Y006366D03*
X043195Y007161D03*X04265Y008D03*X004811Y043339D03*X0068Y045782D03*
X0464Y00745D03*X044284Y005484D03*X044961Y008839D03*D13*X0456Y01125D03*
X0053Y0399D03*D12*X00625Y04195D03*D13*X00885Y0366D03*D12*
X012636Y037522D03*X019381Y042374D03*X016878Y037522D03*X02195Y03885D03*
X017631Y043024D03*X0183Y03985D03*X015464Y038936D03*X033469Y008226D03*
X0328Y01135D03*X035614Y012293D03*X02055Y04095D03*X022627Y041256D03*
X0213Y03985D03*X03055Y0103D03*X028473Y009994D03*X0298Y01135D03*
X016Y0454D03*X0127D03*X01145Y0429D03*X010405Y045739D03*X019Y0454D03*
X0213Y0452D03*X027524Y042565D03*X03735Y0059D03*X038629Y005871D03*
X039629Y008279D03*X040679Y005527D03*X0156Y04665D03*X0145Y04645D03*
X009861Y046577D03*X0108Y04365D03*D14*X0259Y04665D03*D12*
X023329Y046521D03*D14*X02515Y00465D03*D12*X027771Y004729D03*D14*
X0276Y0154D03*D12*X031564Y014631D03*X032786Y015121D03*X0424Y00965D03*
X047534Y033908D03*X045962Y017978D03*X040279Y007529D03*
X041223Y004689D03*X036788Y004772D03*X0357Y00475D03*X04175Y0104D03*
X045704Y020029D03*X044559Y028679D03*X020841Y03262D03*X021621Y031921D03*
X03145Y03045D03*X0181Y0314D03*X0124Y03525D03*X014757Y0354D03*
X0195Y0298D03*X0123Y03635D03*X013343Y036814D03*X03155Y02135D03*
X038779Y014871D03*X037736Y014414D03*X044076Y025769D03*
X042722Y026062D03*X038259Y028052D03*X035477Y029175D03*X0372Y03135D03*
X039732Y033176D03*X0407Y0327D03*X0421Y03805D03*X0414Y03965D03*
X041284Y041224D03*X0416Y0424D03*X041582Y043926D03*X0344Y03045D03*
X03455Y02955D03*D11*X0363Y0359D02*G01X038675Y035677D01*X0363Y0369D02*
X038301Y036604D01*X039166Y037426D01*X0363Y0379D02*X0355Y03765D01*
X0356Y03445D01*X035184Y033658D01*X036076Y034132D01*X03695Y0343D01*
X0363Y0409D02*X038666Y041776D01*X0385Y0427D01*X01775Y01435D02*
Y01535D01*X0183Y01625D01*X01475Y01335D02*X01555Y01355D01*X0155Y0168D01*
X015916Y017592D01*X015024Y017118D01*X01415Y01695D01*X040738Y019294D02*
X0414Y0184D01*X04155Y0233D02*X0391Y02565D01*X038062Y024895D01*
X036062Y024378D01*X0095Y02795D02*X012Y02555D01*X013088Y026305D01*
X015088Y026822D01*X0439Y0219D02*X04305Y02295D01*X0392Y02675D01*
X037135Y02527D01*X0409Y0219D02*X0405Y0233D01*X039354Y022371D01*
X0405Y0233D02*X038989Y024521D01*X040271Y020482D02*X038762Y019606D01*
X032472Y026062D02*X031922Y027212D01*X0309Y02725D01*X018678Y025138D02*
X019228Y023988D01*X02025Y02395D01*X03295Y02405D02*X035281Y026019D01*
X0175Y02755D02*X01745Y02665D01*X015869Y025181D01*X0364Y02185D02*
X03615Y0214D01*X03385Y021D01*X0313Y0233D01*X03095Y0236D01*
X03015Y0228D01*X01405Y0299D02*X01715Y0302D01*X01985Y0279D01*
X02095Y0281D01*X041434Y025558D02*X040113Y027302D01*X03935Y0234D02*
X03705Y02405D01*X0343Y02175D01*X03075Y02445D01*X02945Y0236D01*
X009716Y025642D02*X011037Y023898D01*X0118Y0278D02*X0139Y02755D01*
X01675Y02955D01*X0204Y02675D01*X02165Y0273D01*X03175Y04065D02*
X0285Y04035D01*X0282Y03905D01*X0285Y04035D02*X02765Y04155D01*
X02345Y0436D01*X0222Y0434D01*X02045Y04405D01*X0144Y04465D01*
X012575Y043035D01*X01115Y04155D01*X0156Y0376D01*X0193Y0329D01*
X02015Y0336D01*X022616Y034224D01*X024802Y032459D01*X0259Y0327D01*
X0156Y0376D02*X016171Y038229D01*X01115Y04155D02*X008Y0466D01*
X009316Y047416D01*X010579Y047521D01*X011738Y047622D01*
X019216Y047358D01*X020716Y047508D01*X0262Y04765D01*X0348Y0473D01*
X0396Y0478D01*X0419Y04685D01*X0412Y04565D01*X04055Y04485D01*
X04035Y0465D01*X04055Y04485D02*X03945Y0389D01*X0363D01*X0419Y04685D02*
X0433Y0459D01*X043172Y039808D01*X04295Y03525D01*X0418Y03025D01*
X03895Y0301D01*X040351Y029275D01*X0455Y027D01*X04485Y0213D01*
X04405Y0184D01*X044182Y017276D01*X0443Y01605D01*X03895Y0301D02*
X037332Y028426D01*X010579Y047521D02*X0037Y0476D01*X0042Y046D01*
X0037Y0476D02*X0043Y0399D01*X0051Y03735D01*X034484Y034508D02*
X03485Y0352D01*X035Y0396D01*X0363Y0399D01*X0384Y03965D01*
X03835Y0406D01*X016616Y016742D02*X0162Y0161D01*X01615Y01165D01*
X01475Y01135D01*X0127Y0116D01*X012684Y010624D01*X02015Y0356D02*
X0219Y0352D01*X0309Y0166D02*X032079Y016229D01*X02715Y03465D02*
X02745Y03285D01*X02855Y0324D01*X02555Y0336D01*X02395Y0166D02*
X0236Y0184D01*X025566Y017674D01*X02255Y01885D01*X0231Y0302D02*
X02565Y0303D01*X026472Y029755D01*X02735Y029D01*X025986Y027257D01*
X02375Y02945D02*X025271Y029496D01*X0259Y02895D01*X025278Y027964D01*
X0274Y02155D02*X0267Y0211D01*X025828Y021745D01*X0253Y02225D01*
X025986Y023014D01*X028Y02075D02*X02625Y02015D01*X024729Y021504D01*
X02415Y0225D01*X025278Y023722D01*X01345Y02865D02*X0118Y0306D01*
X0079Y0323D01*X008Y03115D01*X0118Y0306D02*X0143Y0308D01*X0126Y0318D01*
X01065Y03455D01*X00805Y03535D01*X007985Y035421D01*X006941Y036569D01*
X007985Y035421D02*X00775Y0386D01*X01065Y04055D01*X00805Y0452D01*
X007345Y044943D01*X006716Y044366D01*X01065Y04055D02*X01475Y0371D01*
X014747Y037096D01*X0169Y0345D01*X02375Y0277D01*X03635Y0141D01*
X0406Y0105D01*X04285Y0125D01*X043834Y014534D01*X0367Y02005D01*
X0373Y0209D01*X0385Y02175D01*X03765Y0231D01*X0385Y02175D02*
X04275Y02055D01*X0432Y01915D01*X0406Y0105D02*X04305Y00605D01*
X043739Y006323D01*X044234Y006784D01*X03635Y0141D02*X037029Y015121D01*
X02375Y0277D02*X024571Y028671D01*X014747Y037096D02*X01405Y036107D01*
D10*X0308Y02205D02*X03025Y02155D01*X0261Y0261D01*X026693Y02655D01*D11*
X0465Y0139D02*X04635Y0129D01*X0466Y01125D01*X04735Y00365D01*
X04675Y00515D01*X04735Y00365D02*X03955Y0036D01*X031884Y003892D01*
X030384Y003742D01*X0252Y00355D01*X0113Y00435D01*X0104Y0049D01*
X0116Y0123D01*X01475Y01235D01*X0104Y0049D02*X0077Y0054D01*
X007928Y011442D01*X00815Y016D01*X0093Y021D01*X0122Y0213D01*
X013818Y022774D01*X0122Y0213D02*X010749Y021975D01*X0056Y02415D01*
X005929Y027246D01*X03955Y0036D02*X04075Y00375D01*X041768Y00385D01*
X0431Y0046D01*X0399Y0097D01*X03545Y0136D01*X034907Y013D01*
X03545Y0136D02*X03175Y0183D01*X02735Y02275D01*X026693Y022307D01*
X03175Y0183D02*X0309Y0176D01*X0285Y01705D01*X0264Y0188D01*
X025302Y018559D01*X0399Y0097D02*X038503Y008144D01*X0368Y0067D01*
X03065Y0072D01*X0289Y00785D01*X028Y007602D01*X02375Y0095D01*
X02255Y0109D01*X0229Y01215D01*X02255Y01095D01*X01935Y01055D01*
X0197Y02075D02*X0249Y0202D01*X0283Y01885D01*X029429Y019229D01*
X030259Y01858D01*X0167Y0208D02*X01575Y02085D01*X0139Y0199D01*
X011368Y018074D01*X00955Y0167D01*X009Y0132D01*X0097Y0116D01*
X00975Y01D01*X00945Y0089D01*X009168Y007124D01*X011368Y018074D02*
X0104Y01855D01*X01575Y02085D02*X015673Y022025D01*X0166Y02165D01*
X015673Y022025D02*X01615Y0232D01*X0134Y0243D01*X012891Y023148D01*
X0123Y0225D01*X00885Y0238D01*X008328Y025188D01*X007024Y025531D01*
X010764Y032343D02*X011416Y031627D01*X008936Y033157D02*X00725Y0337D01*
X00645Y0302D01*X023157Y025843D02*X0191Y02185D01*X017724Y024432D01*
X016797Y024806D01*X01785Y02565D01*X0191Y02185D02*X0185Y02035D01*
X018Y01975D01*X0185Y02035D02*X0187Y0189D01*X024571Y024429D02*
X0252Y025D01*X02095Y02945D01*X02035Y02885D01*X028107Y025136D02*
X03215Y0294D01*X033426Y026768D01*X034353Y026394D01*X0333Y02555D01*
X03215Y0294D02*X03255Y03095D01*X0331Y0315D01*X03255Y03095D02*
X0324Y03235D01*X0257Y04135D02*X024476Y040781D01*X02305Y04035D01*
X02855Y0334D02*X02985Y03435D01*X02995Y0356D01*X02255Y01785D02*
X021234Y016874D01*X02115Y0156D01*X014325Y042065D02*X01485Y04365D01*
X037629Y008629D02*X038629Y009579D01*X003566Y017342D02*X0039Y024D01*
X0043Y02965D01*X00385Y03355D01*X00555Y03615D01*X0065Y0396D01*
X008679Y041529D01*X00385Y03355D02*X005138Y033472D01*X04415Y0396D02*
X04395Y0368D01*Y03525D01*X04495D01*X005972Y011858D02*X0052Y01645D01*
X005434Y018058D01*X005759Y020729D01*X00695Y01165D02*X00715Y01445D01*
Y016D01*X00615D01*X037941Y043529D02*X0363Y0419D01*X013668Y006892D02*
X0141Y006D01*X013109Y007721D02*X01475Y00935D01*X01255Y00855D02*
X012384Y009524D01*X01475Y01035D01*X04495Y0296D02*X043482Y031576D01*
X043968Y032524D01*X045341Y030521D02*X045666Y033192D01*X04585Y03505D01*
X045128Y039392D01*X006541Y022571D02*X00475Y0236D01*X00595Y0314D01*
X005046Y031671D01*X00595Y0314D02*X00605Y0362D01*X007Y03895D01*
X009329Y040779D01*X036404Y028801D02*X0369Y0299D01*X03755Y03035D01*
X039038Y031422D01*X014015Y02593D02*X0119Y02445D01*X00805Y02835D01*
X00745Y03D01*X012161Y026679D02*X00995Y0287D01*X01045Y03D01*
X00995Y0287D02*X011181Y029023D01*X03555Y04555D02*X037382Y044358D01*
X02985Y04285D02*X02735Y04355D01*X02545Y0444D01*X022834Y005884D02*
X0208Y0057D01*X0174Y00455D01*X01195Y006D01*X0212Y0084D02*X0237Y0077D01*
X02565Y00685D01*X0388Y04505D02*X03595Y04655D01*X032Y0465D01*
X03025Y04555D01*X028216Y045366D01*X011934Y013824D02*X012799Y014646D01*
X01475Y01435D01*X010095Y015022D02*X01205Y0165D01*X030134Y041374D02*
X0333Y0419D01*Y0409D01*X020916Y009826D02*X01775Y00935D01*Y01035D01*
X027222Y039295D02*X0257Y04035D01*X0272Y04075D01*X023878Y011905D02*
X02535Y0109D01*X02385Y01045D01*X010366Y039442D02*X010179Y038471D01*
X011929Y038229D01*X01245Y0416D02*X01345Y04255D01*X040713Y011737D02*
X0409Y01275D01*X03915Y013D01*X024904Y038329D02*X025454Y037129D01*
X0254Y03525D01*X026443Y033943D01*X026196Y012871D02*X025646Y014071D01*
X02565Y01595D01*X024657Y017307D01*X0292Y016D02*X0309Y0156D01*
X019Y03505D02*X02015Y0346D01*X034129Y009721D02*X03355Y0103D01*
X035089Y010961D01*X036322Y011586D01*X03625Y0076D02*X036754Y009113D01*
X0225Y03765D02*X020728Y037962D01*X01895Y03795D01*X017586Y036814D01*
X0286Y01355D02*X030372Y013238D01*X03215Y01325D01*X033493Y014414D01*
X032784Y034974D02*X0333Y0359D01*Y0369D01*X04675Y0314D02*X0466Y03355D01*
X047152Y03585D01*X007132Y018726D02*X007618Y019674D01*X00615Y02165D01*
X00435Y01985D02*X0045Y0177D01*X003948Y0154D01*X012062Y019828D02*
X01355Y0209D01*X0142Y02135D01*X014746Y022399D01*X0471Y03885D02*
X04575Y04275D01*X037422Y046812D02*X03935Y046483D01*X03625Y04405D02*
X035414Y043293D01*X0344Y0426D01*X03435Y03895D01*X0333Y0389D01*
X03435Y03895D01*X03425Y03585D01*X0333Y0342D01*X034779Y032021D01*
X0334Y03055D01*X033021Y029371D01*X03375Y0279D01*X0365Y02665D01*
X036208Y025645D01*X0346Y0245D01*X03465Y02315D01*X0333Y0389D02*
X029429Y038554D01*X02665Y03635D01*X027857Y035357D01*X02855Y0344D01*
X02665Y03635D02*X0257Y03935D01*X023473Y039444D01*X0344Y0426D02*
X032425Y042873D01*X02805Y0109D02*X0265Y0102D01*X02535Y0099D01*
X00525Y0085D02*X004Y0124D01*X030025Y046524D02*X0275Y04615D01*
X0267Y04525D01*X0228Y04535D01*X0186Y04665D01*X021025Y004726D02*
X0235Y00505D01*X0243Y00595D01*X0283Y0059D01*X0296Y00485D01*
X0327Y00475D01*X019225Y006523D02*X020575Y006674D01*X023874Y006715D01*
X0345Y0437D02*X033586Y044107D01*X03255Y04555D01*X033586Y044107D02*
X03205Y0438D01*X01625Y00765D02*X017164Y007243D01*X01885Y00745D01*
X017164Y007243D02*X017054Y005479D01*X015336Y008057D02*X0167Y0087D01*
Y01225D01*X0174Y01725D01*X016321Y019229D01*X0179Y0207D01*
X018129Y021829D01*X01735Y0234D01*X0146Y02455D01*X014942Y025555D01*
X01655Y02685D01*X0162Y02755D01*X0167Y01225D02*X01775Y01235D01*
X021671Y012646D01*X02445Y01485D01*X02535Y0119D01*X027627Y011806D01*
X02445Y01485D02*X023243Y015893D01*X02255Y01685D01*X0167Y0087D02*
X018475Y008377D01*X03905Y03475D02*X041005Y036228D01*X027176Y044535D02*
X030475Y044576D01*X031675Y044727D01*X012425Y015573D02*X01475Y01535D01*
X023526Y008685D02*X0298Y00605D01*X03435Y0059D01*X016171Y033986D02*
X01575Y0333D01*X014887Y033572D01*X016879Y032929D01*X018293Y036107D02*
X019536Y036569D01*X0235Y03585D01*X014757Y039643D02*X016011Y040289D01*
X01755Y04095D01*X016971Y041529D01*X038443Y013707D02*X04225Y01465D01*
X036322Y015828D02*X03865Y016D01*X03735Y01795D01*X033Y0198D01*
X034907Y017243D02*X0353Y01795D01*X036163Y017678D01*X0342Y01835D01*
X0342Y013707D02*X0313Y01175D01*X02915Y01235D01*X0313Y01175D02*
X031719Y008876D01*X037029Y010879D02*X03615Y0099D01*X01495Y04135D02*
X01405Y04035D01*X004811Y043339D02*X0068Y045782D01*X0464Y00745D02*
X044284Y005484D01*X044961Y008839D02*X0456Y01125D01*X0053Y0399D02*
X00625Y04195D01*X00885Y0366D02*X012636Y037522D01*X019381Y042374D02*
X01975Y0395D01*X016878Y037522D01*X01975Y0395D02*X02195Y03885D01*
X017631Y043024D02*X0188Y04095D01*X0183Y03985D01*X015464Y038936D01*
X033469Y008226D02*X0324Y0103D01*X0328Y01135D01*X035614Y012293D01*
X02055Y04095D02*X022627Y041256D01*X0213Y03985D01*X03055Y0103D02*
X028473Y009994D01*X0298Y01135D01*X016Y0454D02*X0127D01*X01145Y0429D01*
X0127Y0454D02*X010405Y045739D01*X019Y0454D02*X0213Y0452D01*
X027524Y042565D01*X03735Y0059D02*X038629Y005871D01*X039629Y008279D01*
X038629Y005871D02*X040679Y005527D01*X0156Y04665D02*X0145Y04645D01*
X009861Y046577D01*X00905Y04605D01*X0108Y04365D01*X0259Y04665D02*
X023329Y046521D01*X02515Y00465D02*X027771Y004729D01*X0276Y0154D02*
X031564Y014631D01*X032786Y015121D01*X0424Y00965D02*X04435Y0116D01*
X04745Y01725D01*X04705Y02495D01*X047534Y033908D01*X04745Y01725D02*
X045962Y017978D01*X040279Y007529D02*X042Y0052D01*X041223Y004689D01*
X036788Y004772D01*X0357Y00475D01*X04175Y0104D02*X0436Y01195D01*
X04565Y01635D01*X0449Y0185D01*X04615Y0195D01*X045704Y020029D01*
X04615Y0195D02*X04635Y02765D01*X044559Y028679D01*X020841Y03262D02*
X021621Y031921D01*X0227Y0326D01*X0243Y03145D01*X03145Y03045D01*
X0181Y0314D02*X0136Y03315D01*X0124Y03525D01*X014757Y0354D01*
X0195Y0298D02*X01885Y03045D01*X0179Y03035D01*X01725Y031D01*
X01335Y03215D01*X01115Y03555D01*X0123Y03635D01*X013343Y036814D01*
X03155Y02135D02*X038Y01845D01*X0399Y01565D01*X038779Y014871D01*
X037736Y014414D01*X044076Y025769D02*X042722Y026062D01*X0422Y0274D01*
X03885Y02875D01*X038259Y028052D01*X0377Y02695D01*X03495Y028D01*
X035477Y029175D01*X03535Y03035D01*X0372Y03135D01*X039732Y033176D01*
X0407Y0327D01*X039732Y033176D02*X04155Y0345D01*X0421Y03805D01*
X0414Y03965D01*X041284Y041224D01*X0416Y0424D01*X041582Y043926D01*
X03535Y03035D02*X0344Y03045D01*X035477Y029175D02*X03455Y02955D01*
M02*