1	8	cel1		U20	U4_1	U4	U13	U20	U4_1_1	U4	U13_1	
2	4	cpoly100		U10	U10	U10_1	U10	
3	6	cpoly101		U6_1	U6	U6_1	U6_1_1	U6	U6_1	
4	4	cpoly102		U9	U14	U9	U14	
5	2	cpoly103		U5	U5	
6	24	cpoly104		U11	U17_1	U11	U11_1	U39	U11_1	U1_1	U1_1_1	U1	U1_1_1	
					U1_1_1_1	U1_1_1_2	U11	U17_1	U11	U11_1	U39_1	U11_1_1	U1_1	U1_1_1	
					U1	U1_1_1_3	U1_1_1_1_1	U1_1_1_2_1	
7	2	dip14	084	U2	U2	
8	2	dip8	082	U30	U30_1	
9	4	do3		U5	U6	U5_1	U6	
10	4	ledstar		U23	U23_1	U23_2	U23_1_1	
11	2	pentagram		U1	U1	
12	18	qnpn		U14_1	U32	U34	U34_1	U34_2	U34_3	U34_3_1	U34_2_1	U34_3_2	U14_1	
					U32_1	U34_4	U34_1_1	U34_2_2	U34_3_3	U34_3_1_1	U34_2_1_1	U34_3_2_1	
13	26	qpnp		U3	U3_1	U3	U3_1	U31	U35	U35_1	U35_2	U35_3	U35_2_1	
					U14_1_1	U35_2_2	U35_3_1	U3_2	U3_1_1	U3	U3_1	U31_1	U35_4	U35_1_1	
					U35_2_3	U35_3_2	U35_2_1_1	U14_1_1	U35_2_2_1	U35_3_1_1	
14	2	r3	0	U3_1_2	U3_1_2_1	
15	4	r3	100k	U15_1	U15_1	U15_1_1	U15_1	
16	10	r3	10k	U15_3_1_1	U15_3_1_1	U7_3_1	U7_3_1_1_3	U15_3_1_2_2	U15_3_1_1_1	U15_3_1_1	U7_3_1_3	U7_3_1_1_3_2	U15_3_1_2_2	
17	6	r3	1m	U4_2	U13_1_2	U7_3_1	U4_2	U13_1_2	U7_3_1	
18	6	r3	2.2m	U7_3_1_1_1	U7_3_1_1_4	U7_3	U7_3_1_1_1_1	U7_3_1_1_4_1	U7_3	
19	14	r3	220k	U13_2	U13_2	U7_3_1_2_1_1	U7_3_1_2_1_2	U7_3_1_2_1_1_1_1	U7_3_1_2_1_1_1_1_3	U7_3_1_2_1_1_1_1_4	U13_2	U13_2_1	U7_3_1_2_1_1_2	
					U7_3_1_2_1_2_1	U7_3_1_2_1_1_1_1_5	U7_3_1_2_1_1_1_1_3_2	U7_3_1_2_1_1_1_1_4_1	
20	24	r3	22k	U15_3	U4_3	U15_3	U4_3	U7_3_1_1	U7_3_1_1_2	U3	U3_2	U3_1_2	U7_3_1_2_1_1_1_1_3_1	
					U7_3_1_1_2_2	U7_3_1_1_2_3	U15_3_2	U4_3	U15_3	U4_3	U7_3_1_1_5	U7_3_1_1_2_6	U3	U3_2	
					U3_1_2	U7_3_1_2_1_1_1_1_3_1_3	U7_3_1_1_2_2_1	U7_3_1_1_2_3_1	
21	4	r3	4.7k	U15_3_1	U15_3_1	U15_3_1_2	U15_3_1	
22	10	r3	470	U15_2_1	U7_3_1_2_1_1_1_1_2_1	U7_3_1_2_1_1_1_1_2_2	U7_3_1_1_2_4	U7_3_1_1_2_5	U15_2_1	U7_3_1_2_1_1_1_1_2_1_1	U7_3_1_2_1_1_1_1_2_2_1	U7_3_1_1_2_4_1	U7_3_1_1_2_5_1	
23	32	r3	47k	U7_3_1_1_2_1	U7_3_1_2	U7_3_1_1_3_1	U7_3_1_2_1	U7_3_1_2_1_1_1	U7_3_1_2_1_1_1_1_1	U7_3_1_2_1_1_1_1_2	U7_3_1_2_1_1_1_1_2_5	U7_3_1_2_1_1_1_1_2_6	U7_2	
					U7_1_1	U7_1_1	U7_2	U7_3_1_2_1_1_1_2	U7_3_1_2_1_1_1_1_3_1_1	U7_3_1_2_1_1_1_1_3_1_2	U7_3_1_1_2_1_1	U7_3_1_2_2	U7_3_1_1_3_1_1	U7_3_1_2_1_3	
					U7_3_1_2_1_1_1_3	U7_3_1_2_1_1_1_1_1_1	U7_3_1_2_1_1_1_1_2_3	U7_3_1_2_1_1_1_1_2_5_1	U7_3_1_2_1_1_1_1_2_6_1	U7_2	U7_1_1	U7_1_1	U7_2_1	U7_3_1_2_1_1_1_2_1	
					U7_3_1_2_1_1_1_1_3_1_1_1	U7_3_1_2_1_1_1_1_3_1_2_1	
24	4	r3	x	U7_2_1	U7_2_1_1	U7_2_1	U7_2_1_1	
25	4	rrrspiral		U18	U18	U18_1	U18	
26	4	rrrvaractor		U8_1	U8	U8_1	U8	
27	2	wnob		U7	U7	
28	2	wobelisk		U4	U4_2	
29	2	wpod		U38	U38_1	
30	2	wsquin		U12	U12	
31	2	wtrin		U15	U15_2	
32	2	wtrin3		U22	U22	
