%FSTAX24Y24*%
%MOIN*%
%IN deerhorn_prov.topsoldermask.ger *%
%ADD10C,0.0700*%
%ADD11C,0.0800*%
%ADD12C,0.0890*%
%ADD13C,0.1000*%
%ADD14C,0.1200*%
D11*X147902Y018501D03*X146982Y018892D03*X146061Y019283D03*
X141681Y017161D03*X142587Y016738D03*X143494Y016315D03*
X145758Y012078D03*X147073Y014774D03*X146679Y016482D03*
X144163Y018116D03*D13*X14501Y023046D02*G01X145206Y023008D01*
X147955Y022473D02*X148151Y022435D01*D11*X147598Y024781D03*
X146131Y025093D03*X146929Y020845D03*X145444Y021054D03*
X139115Y012895D03*X140042Y015748D03*X141986Y015444D03*
X144683Y014129D03*X136884Y012346D03*X13761Y015257D03*X016745Y03049D03*
X016955Y027497D03*X020689Y01376D03*X018681Y01153D03*X01821Y017697D03*
X018547Y016235D03*X021649Y027566D03*X024298Y028975D03*
X123074Y024266D03*X124048Y024491D03*X125022Y024716D03*
X120254Y026646D03*X123165Y027372D03*X119204Y021879D03*
X119099Y018881D03*X013853Y007111D03*X013505Y009081D03*
X013679Y008096D03*D14*X01207Y032855D03*X013569Y029146D03*
X010965Y030251D03*D11*X125314Y019325D03*X124741Y02227D03*D13*
X019411Y020297D02*X019473Y020106D01*X020338Y017443D02*X0204Y017253D01*
X019449Y022785D02*X019387Y022975D01*X018522Y025638D02*X01846Y025829D01*
D11*X017435Y019083D03*X016905Y019931D03*X016375Y020779D03*
X010769Y019122D03*X011546Y018492D03*X012323Y017863D03*
X012984Y011241D03*X013961Y014077D03*X015422Y018403D03*
X013376Y020597D03*D13*X012518Y022662D02*X012662Y022801D01*
X014676Y024746D02*X01482Y024885D01*D11*X016336Y024309D03*
X015655Y022973D03*X013179Y026545D03*X01173Y026157D03*X018422Y021421D03*
X017325Y022444D03*X010185Y009414D03*X009358Y012297D03*
X009336Y014324D03*X011852Y01269D03*X021061Y020585D03*X022136Y017784D03*
X016748Y008285D03*X015673Y011085D03*X024995Y018006D03*
X023027Y015741D03*D12*X024868Y020751D03*D11*X127537Y018921D03*
X127163Y019848D03*X148Y028D03*X035807Y008098D03*X034954Y015046D03*
X138408Y020713D03*X135485Y021388D03*D13*X131072Y019152D03*Y016152D03*
D11*X128911Y016358D03*X129277Y013381D03*X034954Y023148D03*
X0341Y030096D03*X071758Y021853D03*X070765Y021731D03*X069773Y02161D03*
X06878Y021488D03*X069146Y01851D03*X070138Y018632D03*X071131Y018754D03*
X072123Y018876D03*X073728Y025474D03*X074698Y025716D03*
X075668Y025958D03*X07082Y014315D03*X071702Y013845D03*X072585Y013376D03*
X071776Y017627D03*X074577Y016552D03*X078168Y018794D03*X0762Y016529D03*
X075698Y014123D03*X078669Y01454D03*X079766Y020782D03*X078404Y023455D03*
X075887Y023314D03*X072976Y022588D03*X076423Y027023D03*X079423D03*
X076344Y024685D03*X073433Y02396D03*X071584Y016156D03*X074384Y015081D03*
X069944Y025343D03*X067033Y024617D03*X065584Y016318D03*
X068495Y015592D03*X055741Y026313D03*Y027313D03*Y028313D03*
X056725Y016298D03*X056483Y015328D03*X056241Y014357D03*
X058275Y026504D03*Y027504D03*Y028504D03*X050448Y023431D03*
X051331Y0239D03*X052214Y02437D03*X047909Y025104D03*X048842Y025463D03*
X049776Y025821D03*X05993Y016039D03*X059688Y015068D03*X059446Y014098D03*
X050511Y014178D03*X051482Y01442D03*X052452Y014662D03*X050813Y017457D03*
X051783Y017215D03*X052753Y016973D03*X05978Y018801D03*X057812Y021065D03*
X060223Y022544D03*X060532Y023495D03*X057762Y023669D03*
X055497Y021701D03*X051851Y020139D03*X048941Y020865D03*
X053661Y012335D03*X056584Y01166D03*X042965Y015114D03*X045876Y014388D03*
X04088Y025407D03*X041872Y025529D03*X042865Y025651D03*X043706Y020185D03*
X044432Y023096D03*X043362Y010989D03*X044354Y011111D03*
X045347Y011233D03*X037891Y017308D03*X039612Y019765D03*
X037723Y019479D03*X034812Y020204D03*X04529Y018689D03*X049798Y019009D03*
X04682Y018644D03*X054717Y018341D03*X051806Y019067D03*X053935Y023727D03*
X051928Y021497D03*X139233Y017373D03*X136322Y018099D03*X12085Y022359D03*
X121473Y019425D03*X101007Y019946D03*X102007Y019981D03*
X103006Y020015D03*X104005Y02005D03*X105005Y020085D03*X106004Y02012D03*
X107004Y020155D03*X106899Y023153D03*X1059Y023118D03*X1049Y023083D03*
X103901Y023049D03*X102901Y023014D03*X101902Y022979D03*
X100903Y022944D03*X10582Y012883D03*X105248Y015828D03*X101577Y02476D03*
X098599Y024394D03*X104846Y02588D03*X102419Y027643D03*X099276Y022787D03*
X099381Y019789D03*X098125Y021976D03*Y018976D03*X1059Y017712D03*
X103099Y016637D03*X099821Y017238D03*X102622Y018313D03*
X096021Y022228D03*X096387Y01925D03*X094467Y016616D03*Y019616D03*
X096324Y016941D03*X097324D03*X098324D03*X095107Y012437D03*
X094744Y010982D03*X097767Y014917D03*X100763Y015074D03*
X097911Y013285D03*X100911D03*X092605Y01616D03*X0925Y019159D03*
X109957Y017498D03*X111634Y019985D03*X106272Y026621D03*
X106695Y027527D03*X091479Y015688D03*X091374Y018686D03*
X092432Y013747D03*X091677Y014403D03*X108372Y020028D03*
X107954Y017057D03*X103067Y023869D03*X106045Y024235D03*
X117215Y024211D03*X115986Y023351D03*X050937Y016141D03*
X047959Y015775D03*X087137Y023558D03*X087379Y022588D03*
X087621Y021618D03*X082931Y021821D03*X083173Y02085D03*X083415Y01988D03*
X084713Y025389D03*X085596Y02492D03*X086479Y02445D03*X082369Y025969D03*
X081549Y026543D03*X08073Y027117D03*X087185Y017437D03*X08826Y014636D03*
X088191Y019693D03*X085542Y018284D03*X082092Y01869D03*X083813Y016232D03*
X089214Y021384D03*X08994Y018473D03*X085495Y027572D03*X082584Y028298D03*
X084727Y022542D03*X08227Y024263D03*X075994Y02149D03*X07373Y019522D03*
X077457Y020805D03*X075193Y018836D03*X081275Y021605D03*
X079913Y024278D03*X087253Y027613D03*X089483Y025606D03*
X048663Y028087D03*X050072Y030736D03*X084956Y029264D03*
X082469Y030941D03*X068005Y030556D03*D10*X134554Y036458D03*
X135981Y035422D03*X133127Y035422D03*X133672Y033745D03*
X135436Y033745D03*D11*X147902Y018501D03*X146982Y018892D03*
X146061Y019283D03*X141681Y017161D03*X142587Y016738D03*
X143494Y016315D03*X145758Y012078D03*X147073Y014774D03*
X146679Y016482D03*X144163Y018116D03*D13*X14501Y023046D02*
X145206Y023008D01*X147955Y022473D02*X148151Y022435D01*D11*
X147598Y024781D03*X146131Y025093D03*X146929Y020845D03*
X145444Y021054D03*X139115Y012895D03*X140042Y015748D03*
X141986Y015444D03*X144683Y014129D03*X136884Y012346D03*X13761Y015257D03*
X016745Y03049D03*X016955Y027497D03*X020689Y01376D03*X018681Y01153D03*
X01821Y017697D03*X018547Y016235D03*X021649Y027566D03*X024298Y028975D03*
X123074Y024266D03*X124048Y024491D03*X125022Y024716D03*
X120254Y026646D03*X123165Y027372D03*X119204Y021879D03*
X119099Y018881D03*X013853Y007111D03*X013505Y009081D03*
X013679Y008096D03*D14*X01207Y032855D03*X013569Y029146D03*
X010965Y030251D03*D11*X125314Y019325D03*X124741Y02227D03*D13*
X019411Y020297D02*X019473Y020106D01*X020338Y017443D02*X0204Y017253D01*
X019449Y022785D02*X019387Y022975D01*X018522Y025638D02*X01846Y025829D01*
D11*X017435Y019083D03*X016905Y019931D03*X016375Y020779D03*
X010769Y019122D03*X011546Y018492D03*X012323Y017863D03*
X012984Y011241D03*X013961Y014077D03*X015422Y018403D03*
X013376Y020597D03*D13*X012518Y022662D02*X012662Y022801D01*
X014676Y024746D02*X01482Y024885D01*D11*X016336Y024309D03*
X015655Y022973D03*X013179Y026545D03*X01173Y026157D03*X018422Y021421D03*
X017325Y022444D03*X010185Y009414D03*X009358Y012297D03*
X009336Y014324D03*X011852Y01269D03*X021061Y020585D03*X022136Y017784D03*
X016748Y008285D03*X015673Y011085D03*X024995Y018006D03*
X023027Y015741D03*D12*X024868Y020751D03*D11*X127537Y018921D03*
X127163Y019848D03*X148Y028D03*X035807Y008098D03*X034954Y015046D03*
X138408Y020713D03*X135485Y021388D03*D13*X131072Y019152D03*Y016152D03*
D11*X128911Y016358D03*X129277Y013381D03*X034954Y023148D03*
X0341Y030096D03*X071758Y021853D03*X070765Y021731D03*X069773Y02161D03*
X06878Y021488D03*X069146Y01851D03*X070138Y018632D03*X071131Y018754D03*
X072123Y018876D03*X073728Y025474D03*X074698Y025716D03*
X075668Y025958D03*X07082Y014315D03*X071702Y013845D03*X072585Y013376D03*
X071776Y017627D03*X074577Y016552D03*X078168Y018794D03*X0762Y016529D03*
X075698Y014123D03*X078669Y01454D03*X079766Y020782D03*X078404Y023455D03*
X075887Y023314D03*X072976Y022588D03*X076423Y027023D03*X079423D03*
X076344Y024685D03*X073433Y02396D03*X071584Y016156D03*X074384Y015081D03*
X069944Y025343D03*X067033Y024617D03*X065584Y016318D03*
X068495Y015592D03*X055741Y026313D03*Y027313D03*Y028313D03*
X056725Y016298D03*X056483Y015328D03*X056241Y014357D03*
X058275Y026504D03*Y027504D03*Y028504D03*X050448Y023431D03*
X051331Y0239D03*X052214Y02437D03*X047909Y025104D03*X048842Y025463D03*
X049776Y025821D03*X05993Y016039D03*X059688Y015068D03*X059446Y014098D03*
X050511Y014178D03*X051482Y01442D03*X052452Y014662D03*X050813Y017457D03*
X051783Y017215D03*X052753Y016973D03*X05978Y018801D03*X057812Y021065D03*
X060223Y022544D03*X060532Y023495D03*X057762Y023669D03*
X055497Y021701D03*X051851Y020139D03*X048941Y020865D03*
X053661Y012335D03*X056584Y01166D03*X042965Y015114D03*X045876Y014388D03*
X04088Y025407D03*X041872Y025529D03*X042865Y025651D03*X043706Y020185D03*
X044432Y023096D03*X043362Y010989D03*X044354Y011111D03*
X045347Y011233D03*X037891Y017308D03*X039612Y019765D03*
X037723Y019479D03*X034812Y020204D03*X04529Y018689D03*X049798Y019009D03*
X04682Y018644D03*X054717Y018341D03*X051806Y019067D03*X053935Y023727D03*
X051928Y021497D03*X139233Y017373D03*X136322Y018099D03*X12085Y022359D03*
X121473Y019425D03*X101007Y019946D03*X102007Y019981D03*
X103006Y020015D03*X104005Y02005D03*X105005Y020085D03*X106004Y02012D03*
X107004Y020155D03*X106899Y023153D03*X1059Y023118D03*X1049Y023083D03*
X103901Y023049D03*X102901Y023014D03*X101902Y022979D03*
X100903Y022944D03*X10582Y012883D03*X105248Y015828D03*X101577Y02476D03*
X098599Y024394D03*X104846Y02588D03*X102419Y027643D03*X099276Y022787D03*
X099381Y019789D03*X098125Y021976D03*Y018976D03*X1059Y017712D03*
X103099Y016637D03*X099821Y017238D03*X102622Y018313D03*
X096021Y022228D03*X096387Y01925D03*X094467Y016616D03*Y019616D03*
X096324Y016941D03*X097324D03*X098324D03*X095107Y012437D03*
X094744Y010982D03*X097767Y014917D03*X100763Y015074D03*
X097911Y013285D03*X100911D03*X092605Y01616D03*X0925Y019159D03*
X109957Y017498D03*X111634Y019985D03*X106272Y026621D03*
X106695Y027527D03*X091479Y015688D03*X091374Y018686D03*
X092432Y013747D03*X091677Y014403D03*X108372Y020028D03*
X107954Y017057D03*X103067Y023869D03*X106045Y024235D03*
X117215Y024211D03*X115986Y023351D03*X050937Y016141D03*
X047959Y015775D03*X087137Y023558D03*X087379Y022588D03*
X087621Y021618D03*X082931Y021821D03*X083173Y02085D03*X083415Y01988D03*
X084713Y025389D03*X085596Y02492D03*X086479Y02445D03*X082369Y025969D03*
X081549Y026543D03*X08073Y027117D03*X087185Y017437D03*X08826Y014636D03*
X088191Y019693D03*X085542Y018284D03*X082092Y01869D03*X083813Y016232D03*
X089214Y021384D03*X08994Y018473D03*X085495Y027572D03*X082584Y028298D03*
X084727Y022542D03*X08227Y024263D03*X075994Y02149D03*X07373Y019522D03*
X077457Y020805D03*X075193Y018836D03*X081275Y021605D03*
X079913Y024278D03*X087253Y027613D03*X089483Y025606D03*
X048663Y028087D03*X050072Y030736D03*X084956Y029264D03*
X082469Y030941D03*X068005Y030556D03*D10*X134554Y036458D03*
X135981Y035422D03*X133127Y035422D03*X133672Y033745D03*
X135436Y033745D03*
M02*