%FSTAX24Y24*%
%MOIN*%
%IN deerhorn_prov.bottomlayer.ger *%
%ADD10C,0.0100*%
%ADD11C,0.0200*%
%ADD12C,0.0500*%
%ADD13C,0.0600*%
%ADD14C,0.0690*%
%ADD15C,0.0800*%
%ADD16C,0.1000*%
D13*X141681Y017161D03*X138408Y020713D03*X145444Y021054D03*D15*
X14501Y023046D02*G01X145206Y023008D01*D13*X146131Y025093D03*
X147073Y014774D03*X143494Y016315D03*X146061Y019283D03*
X144163Y018116D03*X142587Y016738D03*X141986Y015444D03*
X140042Y015748D03*X139233Y017373D03*X146929Y020845D03*
X146982Y018892D03*X146679Y016482D03*X016955Y027497D03*
X016336Y024309D03*D15*X018522Y025638D02*X01846Y025829D01*D13*
X125022Y024716D03*X123165Y027372D03*X119204Y021879D03*
X117215Y024211D03*X12085Y022359D03*X123074Y024266D03*X013679Y008096D03*
X018681Y01153D03*X010769Y019122D03*X015655Y022973D03*X017325Y022444D03*
X021649Y027566D03*D15*X012518Y022662D02*X012662Y022801D01*D13*
X01173Y026157D03*D16*X010965Y030251D03*D13*X013961Y014077D03*
X012323Y017863D03*X016375Y020779D03*X018422Y021421D03*
X016905Y019931D03*X015422Y018403D03*X009358Y012297D03*
X009336Y014324D03*X011546Y018492D03*X013376Y020597D03*
X021061Y020585D03*D15*X019449Y022785D02*X019387Y022975D01*
X019411Y020297D02*X019473Y020106D01*D13*X01821Y017697D03*
X022136Y017784D03*X023027Y015741D03*X020689Y01376D03*D14*
X024868Y020751D03*D13*X024995Y018006D03*D15*X131072Y016152D03*D13*
X128911Y016358D03*X071758Y021853D03*X072976Y022588D03*
X074698Y025716D03*X075887Y023314D03*X071702Y013845D03*
X074577Y016552D03*X072585Y013376D03*X074384Y015081D03*
X075698Y014123D03*X0762Y016529D03*X071776Y017627D03*X071131Y018754D03*
X078404Y023455D03*X076344Y024685D03*X075668Y025958D03*
X079423Y027023D03*X073433Y02396D03*X070765Y021731D03*X071584Y016156D03*
X070138Y018632D03*X069944Y025343D03*X073728Y025474D03*
X068495Y015592D03*X07082Y014315D03*X058275Y026504D03*X067033Y024617D03*
X058275Y027504D03*X055741Y027313D03*X052214Y02437D03*X055741Y026313D03*
X049776Y025821D03*X05993Y016039D03*X065584Y016318D03*X059688Y015068D03*
X056483Y015328D03*X050813Y017457D03*X051806Y019067D03*
X049798Y019009D03*X051928Y021497D03*X050448Y023431D03*
X052753Y016973D03*X056725Y016298D03*X052452Y014662D03*
X053661Y012335D03*X051482Y01442D03*X047959Y015775D03*X048842Y025463D03*
X048663Y028087D03*X048941Y020865D03*X045876Y014388D03*
X050511Y014178D03*X041872Y025529D03*X042965Y015114D03*
X043706Y020185D03*X044354Y011111D03*X044432Y023096D03*
X047909Y025104D03*X043362Y010989D03*X037723Y019479D03*
X037891Y017308D03*X034954Y015046D03*X039612Y019765D03*X04088Y025407D03*
X034812Y020204D03*X034954Y023148D03*X04682Y018644D03*X04529Y018689D03*
X106004Y02012D03*X109957Y017498D03*X1059Y017712D03*X101902Y022979D03*
X103067Y023869D03*X101577Y02476D03*X100903Y022944D03*X099276Y022787D03*
X098599Y024394D03*X102622Y018313D03*X102007Y019981D03*
X099381Y019789D03*X096021Y022228D03*X098125Y021976D03*
X102901Y023014D03*X094467Y019616D03*X094744Y010982D03*
X119099Y018881D03*X056584Y01166D03*X097911Y013285D03*X095107Y012437D03*
X097767Y014917D03*X097324Y016941D03*X091479Y015688D03*
X091677Y014403D03*X050937Y016141D03*X051783Y017215D03*
X051851Y020139D03*X055497Y021701D03*X057812Y021065D03*
X060223Y022544D03*X051331Y0239D03*X087379Y022588D03*X089214Y021384D03*
X088191Y019693D03*X082931Y021821D03*X081275Y021605D03*X083415Y01988D03*
X087185Y017437D03*X087621Y021618D03*X085596Y02492D03*X087253Y027613D03*
X082369Y025969D03*X08227Y024263D03*X075994Y02149D03*X085542Y018284D03*
X082092Y01869D03*X083173Y02085D03*X082584Y028298D03*X081549Y026543D03*
X079913Y024278D03*X084727Y022542D03*X087137Y023558D03*
X089483Y025606D03*X084956Y029264D03*X085495Y027572D03*
X084713Y025389D03*X077457Y020805D03*X082469Y030941D03*
X068005Y030556D03*X050072Y030736D03*D12*X134554Y036458D03*
X135981Y035422D03*X133127Y035422D03*X133672Y033745D03*
X135436Y033745D03*D13*X147902Y018501D03*X141681Y017161D03*
X138408Y020713D03*X145444Y021054D03*D15*X14501Y023046D02*
X145206Y023008D01*D13*X146131Y025093D03*X145758Y012078D03*
X147073Y014774D03*X143494Y016315D03*X146061Y019283D03*
X144163Y018116D03*X142587Y016738D03*X141986Y015444D03*
X140042Y015748D03*X139233Y017373D03*D15*X147955Y022473D02*
X148151Y022435D01*D13*X147598Y024781D03*X146929Y020845D03*
X146982Y018892D03*X146679Y016482D03*X139115Y012895D03*
X144683Y014129D03*X136884Y012346D03*X13761Y015257D03*X016745Y03049D03*
X016955Y027497D03*X020689Y01376D03*X018681Y01153D03*X01821Y017697D03*
X018547Y016235D03*X021649Y027566D03*X024298Y028975D03*
X123074Y024266D03*X124048Y024491D03*X125022Y024716D03*
X120254Y026646D03*X123165Y027372D03*X119204Y021879D03*
X119099Y018881D03*X013853Y007111D03*X013505Y009081D03*
X013679Y008096D03*D16*X01207Y032855D03*X013569Y029146D03*
X010965Y030251D03*D13*X125314Y019325D03*X124741Y02227D03*D15*
X019411Y020297D02*X019473Y020106D01*X020338Y017443D02*X0204Y017253D01*
X019449Y022785D02*X019387Y022975D01*X018522Y025638D02*X01846Y025829D01*
D13*X017435Y019083D03*X016905Y019931D03*X016375Y020779D03*
X010769Y019122D03*X011546Y018492D03*X012323Y017863D03*
X012984Y011241D03*X013961Y014077D03*X015422Y018403D03*
X013376Y020597D03*D15*X012518Y022662D02*X012662Y022801D01*
X014676Y024746D02*X01482Y024885D01*D13*X016336Y024309D03*
X015655Y022973D03*X013179Y026545D03*X01173Y026157D03*X018422Y021421D03*
X017325Y022444D03*X010185Y009414D03*X009358Y012297D03*
X009336Y014324D03*X011852Y01269D03*X021061Y020585D03*X022136Y017784D03*
X016748Y008285D03*X015673Y011085D03*X024995Y018006D03*
X023027Y015741D03*D14*X024868Y020751D03*D13*X127537Y018921D03*
X127163Y019848D03*X148Y028D03*X035807Y008098D03*X135485Y021388D03*D15*
X131072Y016152D03*D13*X128911Y016358D03*X129277Y013381D03*
X0341Y030096D03*X071758Y021853D03*X072976Y022588D03*X069773Y02161D03*
X06878Y021488D03*X072123Y018876D03*X074698Y025716D03*X075887Y023314D03*
X071702Y013845D03*X074577Y016552D03*X072585Y013376D03*
X074384Y015081D03*X075698Y014123D03*X0762Y016529D03*X071776Y017627D03*
X071131Y018754D03*X078669Y01454D03*X078404Y023455D03*X076344Y024685D03*
X075668Y025958D03*X079423Y027023D03*X076423D03*X073433Y02396D03*
X070765Y021731D03*X071584Y016156D03*X070138Y018632D03*
X069944Y025343D03*X073728Y025474D03*X068495Y015592D03*X07082Y014315D03*
X055741Y028313D03*X056241Y014357D03*X058275Y026504D03*
X067033Y024617D03*X058275Y027504D03*X055741Y027313D03*
X058275Y028504D03*X052214Y02437D03*X055741Y026313D03*X049776Y025821D03*
X05993Y016039D03*X065584Y016318D03*X059688Y015068D03*X056483Y015328D03*
X059446Y014098D03*X050813Y017457D03*X051806Y019067D03*
X049798Y019009D03*X051928Y021497D03*X050448Y023431D03*
X052753Y016973D03*X056725Y016298D03*X052452Y014662D03*X05978Y018801D03*
X060532Y023495D03*X057762Y023669D03*X053661Y012335D03*X051482Y01442D03*
X047959Y015775D03*X048842Y025463D03*X048663Y028087D03*
X048941Y020865D03*X056584Y01166D03*X045876Y014388D03*X050511Y014178D03*
X041872Y025529D03*X042965Y015114D03*X042865Y025651D03*
X043706Y020185D03*X044354Y011111D03*X044432Y023096D03*
X047909Y025104D03*X043362Y010989D03*X037723Y019479D03*
X045347Y011233D03*X037891Y017308D03*X034954Y015046D03*
X039612Y019765D03*X04088Y025407D03*X034812Y020204D03*X034954Y023148D03*
X04682Y018644D03*X04529Y018689D03*X054717Y018341D03*X053935Y023727D03*
X136322Y018099D03*X12085Y022359D03*X121473Y019425D03*X101007Y019946D03*
X102007Y019981D03*X103006Y020015D03*X104005Y02005D03*X105005Y020085D03*
X106004Y02012D03*X107004Y020155D03*X106899Y023153D03*X1059Y023118D03*
X1049Y023083D03*X103901Y023049D03*X102901Y023014D03*X101902Y022979D03*
X100903Y022944D03*X10582Y012883D03*X105248Y015828D03*X101577Y02476D03*
X098599Y024394D03*X104846Y02588D03*X102419Y027643D03*X099276Y022787D03*
X099381Y019789D03*X098125Y021976D03*Y018976D03*X1059Y017712D03*
X103099Y016637D03*X099821Y017238D03*X102622Y018313D03*
X096021Y022228D03*X096387Y01925D03*X094467Y016616D03*Y019616D03*
X096324Y016941D03*X097324D03*X098324D03*X095107Y012437D03*
X094744Y010982D03*X097767Y014917D03*X100763Y015074D03*
X097911Y013285D03*X100911D03*X092605Y01616D03*X0925Y019159D03*
X109957Y017498D03*X111634Y019985D03*X106272Y026621D03*
X106695Y027527D03*X091479Y015688D03*X091677Y014403D03*
X091374Y018686D03*X092432Y013747D03*X108372Y020028D03*
X107954Y017057D03*X103067Y023869D03*X106045Y024235D03*
X107004Y020155D03*X111634Y019985D03*X106045Y024235D03*
X117215Y024211D03*X115986Y023351D03*X050937Y016141D03*
X051783Y017215D03*X051851Y020139D03*X055497Y021701D03*
X057812Y021065D03*X060223Y022544D03*X051331Y0239D03*X087379Y022588D03*
X089214Y021384D03*X088191Y019693D03*X082931Y021821D03*
X081275Y021605D03*X083415Y01988D03*X087185Y017437D03*X087621Y021618D03*
X085596Y02492D03*X087253Y027613D03*X086479Y02445D03*X082369Y025969D03*
X08227Y024263D03*X075994Y02149D03*X08073Y027117D03*X08826Y014636D03*
X085542Y018284D03*X082092Y01869D03*X083173Y02085D03*X083813Y016232D03*
X08994Y018473D03*X082584Y028298D03*X081549Y026543D03*X079913Y024278D03*
X084727Y022542D03*X087137Y023558D03*X089483Y025606D03*X07373Y019522D03*
X075193Y018836D03*X084956Y029264D03*X085495Y027572D03*
X084713Y025389D03*X077457Y020805D03*X082469Y030941D03*
X068005Y030556D03*X050072Y030736D03*D12*X134554Y036458D03*
X135981Y035422D03*X133127Y035422D03*X133672Y033745D03*
X135436Y033745D03*D13*X024298Y028975D03*X124048Y024491D03*
X124741Y02227D03*X135485Y021388D03*X103006Y020015D03*X106899Y023153D03*
X1059Y023118D03*X105005Y020085D03*X105248Y015828D03*X096387Y01925D03*
X079766Y020782D03*X078168Y018794D03*X08994Y018473D03*X079766Y020782D03*
X078168Y018794D03*X125314Y019325D03*X127537Y018921D03*
X121473Y019425D03*X10582Y012883D03*X100763Y015074D03*X098324Y016941D03*
X104005Y02005D03*X107954Y017057D03*X100911Y013285D03*X08826Y014636D03*
X07373Y019522D03*X075193Y018836D03*X072123Y018876D03*X078669Y01454D03*
X05978Y018801D03*X054717Y018341D03*X059446Y014098D03*X056241Y014357D03*
X045347Y011233D03*X035807Y008098D03*X016748Y008285D03*
X013853Y007111D03*X012984Y011241D03*X010185Y009414D03*
X136884Y012346D03*X145758Y012078D03*X139115Y012895D03*
X129277Y013381D03*X101007Y019946D03*X103099Y016637D03*
X099821Y017238D03*X098125Y018976D03*X083813Y016232D03*X069146Y01851D03*
X069773Y02161D03*X069146Y01851D03*X096324Y016941D03*X094467Y016616D03*
X092605Y01616D03*X092432Y013747D03*X1049Y023083D03*X106272Y026621D03*
X104846Y02588D03*X108372Y020028D03*X115986Y023351D03*X120254Y026646D03*
X106695Y027527D03*X103901Y023049D03*X102419Y027643D03*
X076423Y027023D03*X058275Y028504D03*X055741Y028313D03*X0341Y030096D03*
X016745Y03049D03*D16*X013569Y029146D03*D13*X013179Y026545D03*D15*
X014676Y024746D02*X01482Y024885D01*D16*X01207Y032855D03*D15*
X020338Y017443D02*X0204Y017253D01*D13*X018547Y016235D03*
X017435Y019083D03*X015673Y011085D03*X013505Y009081D03*X011852Y01269D03*
X042865Y025651D03*X06878Y021488D03*X060532Y023495D03*X057762Y023669D03*
X053935Y023727D03*X08073Y027117D03*X091374Y018686D03*X0925Y019159D03*
X086479Y02445D03*X127163Y019848D03*D15*X131072Y019152D03*D13*
X13761Y015257D03*X144683Y014129D03*X147902Y018501D03*D15*
X147955Y022473D02*X148151Y022435D01*D13*X147598Y024781D03*X148Y028D03*
X136322Y018099D03*D15*X131072Y019152D03*D11*X141681Y017161D02*
X139192Y020127D01*X138408Y020713D01*X139192Y020127D02*
X142101Y022481D01*X145444Y021054D01*X142101Y022481D02*
X145108Y023027D01*X146131Y025093D01*X147073Y014774D02*
X145039Y015964D01*X143494Y016315D01*X145039Y015964D02*
X146061Y019283D01*X144163Y018116D02*X142587Y016738D01*
X141986Y015444D01*X140042Y015748D01*X139233Y017373D01*
X146929Y020845D02*X146982Y018892D01*X146679Y016482D01*
X016955Y027497D02*X017108Y025379D01*X016336Y024309D01*
X017108Y025379D02*X018491Y025734D01*X125022Y024716D02*
X123165Y027372D01*X119204Y021879D02*X119821Y024623D01*
X117215Y024211D01*X119821Y024623D02*X12085Y023594D01*Y022359D01*
Y023594D02*X123074Y024266D01*X013679Y008096D02*X018681Y01153D01*
X010769Y019122D02*X011638Y020568D01*X012328Y021254D01*
X015655Y022973D01*X017325Y022444D01*X021649Y027566D01*
X012328Y021254D02*X01259Y022731D01*X01173Y026157D01*X010965Y030251D01*
X013961Y014077D02*X01382Y018203D01*X012323Y017863D01*X01382Y018203D02*
X016375Y020779D01*X018422Y021421D02*X016905Y019931D01*
X015422Y018403D01*X009358Y012297D02*X009336Y014324D01*
X011546Y018492D01*X013376Y020597D01*X021061Y020585D02*X019418Y02288D01*
X019442Y020201D01*X01821Y017697D01*X022136Y017784D02*X021109Y014814D01*
X023027Y015741D01*X021109Y014814D02*X020689Y01376D01*X024868Y020751D02*
X024995Y018006D01*X131072Y016152D02*X128911Y016358D01*
X071758Y021853D02*X072976Y022588D01*X074698Y025716D02*
X075887Y023314D01*X071702Y013845D02*X074577Y016552D01*
X072585Y013376D02*X074384Y015081D01*X075698Y014123D01*X0762Y016529D01*
X071776Y017627D02*X07133Y017695D01*X071131Y018754D01*X078404Y023455D02*
X078052Y025103D01*X076344Y024685D01*X075668Y025958D01*
X078052Y025103D02*X079423Y027023D01*X073433Y02396D02*X071056Y023228D01*
X070765Y021731D01*X071584Y016156D02*X070461Y016232D01*
X070138Y018632D01*X069944Y025343D02*X073728Y025474D01*
X068495Y015592D02*X07082Y014315D01*X058275Y026504D02*X067033Y024617D01*
X058275Y027504D01*X055741Y027313D01*X052214Y02437D02*X052778Y025868D01*
X055741Y026313D01*X052778Y025868D02*X049776Y025821D01*X05993Y016039D02*
X065584Y016318D01*X059688Y015068D01*X056483Y015328D01*
X050813Y017457D02*X051273Y018981D01*X051806Y019067D01*
X051273Y018981D02*X050977Y019854D01*X049798Y019009D01*
X050977Y019854D02*X051282Y02164D01*X051928Y021497D01*X051282Y02164D02*
X050448Y023431D01*X052753Y016973D02*X054503Y016141D01*
X056725Y016298D01*X054503Y016141D02*X052452Y014662D01*
X053661Y012335D02*X051482Y01442D01*X050983Y015135D01*X047959Y015775D01*
X04809Y021238D01*X048842Y025463D01*X048663Y028087D01*X04809Y021238D02*
X048941Y020865D01*X045876Y014388D02*X050511Y014178D01*
X041872Y025529D02*X042965Y015114D01*X043706Y020185D02*
X044354Y011111D01*X044432Y023096D02*X047909Y025104D01*
X043362Y010989D02*X041551Y013657D01*X037723Y019479D01*
X037891Y017308D02*X034954Y015046D01*X039612Y019765D02*
X040669Y021225D01*X04088Y025407D01*X034812Y020204D02*X034954Y023148D01*
X04682Y018644D02*X04529Y018689D01*X106004Y02012D02*X106024Y018961D01*
X109957Y017498D01*X106024Y018961D02*X1059Y017712D01*X101902Y022979D02*
X102125Y023868D01*X103067Y023869D01*X102125Y023868D02*X101577Y02476D01*
X100903Y022944D02*X099995Y023198D01*X099276Y022787D01*
X099995Y023198D02*X098599Y024394D01*X102622Y018313D02*
X102007Y019981D01*X101994Y020604D01*X099363Y020426D01*
X099381Y019789D01*X096021Y022228D02*X096744Y022141D01*
X098274Y021839D01*X098125Y021976D01*X098274Y021839D02*
X102733Y022289D01*X102901Y023014D01*X096744Y022141D02*
X094467Y019616D01*X094744Y010982D02*X094375Y009191D01*
X111247Y010425D01*X119099Y018881D01*X094375Y009191D02*X056584Y01166D01*
X097911Y013285D02*X095953Y01358D01*X095107Y012437D01*X09657Y014883D01*
X097767Y014917D01*X09657Y014883D02*X097324Y016941D01*D10*
X091479Y015688D02*X091677Y014403D01*D11*X050937Y016141D02*
X051783Y017215D01*X053509Y019795D01*X052928Y021045D01*
X051851Y020139D01*X052928Y021045D02*X053266Y022408D01*
X055497Y021701D01*X057812Y021065D01*X060223Y022544D01*
X053266Y022408D02*X051331Y0239D01*X087379Y022588D02*X088862Y022924D01*
X089214Y021384D01*X088191Y019693D01*X082931Y021821D02*
X081275Y021605D01*X083415Y01988D02*X087036Y020507D01*X087185Y017437D01*
X087036Y020507D02*X087621Y021618D01*X085596Y02492D02*X087253Y027613D01*
X082369Y025969D02*X081275Y023525D01*X08227Y024263D01*X081275Y023525D02*
X075994Y02149D01*X085542Y018284D02*X082092Y01869D01*X081938Y019936D01*
X083173Y02085D01*X082584Y028298D02*X081549Y026543D01*X079913Y024278D01*
X084727Y022542D02*X087137Y023558D01*X089483Y025606D01*
X084956Y029264D02*X085495Y027572D01*X084713Y025389D01*
X082235Y022977D01*X077457Y020805D01*D10*X082469Y030941D02*
X068005Y030556D01*X050072Y030736D01*X0Y04D02*X16D01*Y0D01*X0D01*Y04D01*
D11*X141681Y017161D02*X139192Y020127D01*X138408Y020713D01*
X139192Y020127D02*X142101Y022481D01*X145444Y021054D01*
X142101Y022481D02*X145108Y023027D01*X146131Y025093D01*
X147073Y014774D02*X145039Y015964D01*X143494Y016315D01*
X145039Y015964D02*X146061Y019283D01*X144163Y018116D02*
X142587Y016738D01*X141986Y015444D01*X140042Y015748D01*
X139233Y017373D01*X146929Y020845D02*X146982Y018892D01*
X146679Y016482D01*X131072Y016152D02*X128911Y016358D01*
X071758Y021853D02*X072976Y022588D01*X074698Y025716D02*
X075887Y023314D01*X071702Y013845D02*X074577Y016552D01*
X072585Y013376D02*X074384Y015081D01*X075698Y014123D01*X0762Y016529D01*
X071776Y017627D02*X07133Y017695D01*X071131Y018754D01*X078404Y023455D02*
X078052Y025103D01*X076344Y024685D01*X075668Y025958D01*
X078052Y025103D02*X079423Y027023D01*X073433Y02396D02*X071056Y023228D01*
X070765Y021731D01*X071584Y016156D02*X070461Y016232D01*
X070138Y018632D01*X069944Y025343D02*X073728Y025474D01*
X068495Y015592D02*X07082Y014315D01*X058275Y026504D02*X067033Y024617D01*
X058275Y027504D01*X055741Y027313D01*X052214Y02437D02*X052778Y025868D01*
X055741Y026313D01*X052778Y025868D02*X049776Y025821D01*X05993Y016039D02*
X065584Y016318D01*X059688Y015068D01*X056483Y015328D01*
X050813Y017457D02*X051273Y018981D01*X051806Y019067D01*
X051273Y018981D02*X050977Y019854D01*X049798Y019009D01*
X050977Y019854D02*X051282Y02164D01*X051928Y021497D01*X051282Y02164D02*
X050448Y023431D01*X052753Y016973D02*X054503Y016141D01*
X056725Y016298D01*X054503Y016141D02*X052452Y014662D01*
X053661Y012335D02*X051482Y01442D01*X050983Y015135D01*X047959Y015775D01*
X04809Y021238D01*X048842Y025463D01*X048663Y028087D01*X04809Y021238D02*
X048941Y020865D01*X045876Y014388D02*X050511Y014178D01*
X041872Y025529D02*X042965Y015114D01*X043706Y020185D02*
X044354Y011111D01*X044432Y023096D02*X047909Y025104D01*
X043362Y010989D02*X041551Y013657D01*X037723Y019479D01*
X037891Y017308D02*X034954Y015046D01*X039612Y019765D02*
X040669Y021225D01*X04088Y025407D01*X034812Y020204D02*X034954Y023148D01*
X04682Y018644D02*X04529Y018689D01*D10*X091479Y015688D02*
X091677Y014403D01*D11*X106045Y024235D02*X107054Y024209D01*
X107241Y024187D01*X10742Y024129D01*X107586Y02404D01*X107732Y02392D01*
X107853Y023776D01*X107944Y023611D01*X108003Y023432D01*
X108028Y023245D01*X108017Y023057D01*X10797Y022874D01*X107004Y020155D01*
X107457Y019266D01*X110658Y018687D01*X111634Y019985D01*
X110658Y018687D01*X10797Y022874D02*X107004Y020155D01*X108017Y023057D02*
X10797Y022874D01*X108028Y023245D02*X108017Y023057D01*X108003Y023432D02*
X108028Y023245D01*X107944Y023611D02*X108003Y023432D01*
X107853Y023776D02*X107944Y023611D01*X107732Y02392D02*X107853Y023776D01*
X107586Y02404D02*X107732Y02392D01*X10742Y024129D02*X107586Y02404D01*
X107241Y024187D02*X10742Y024129D01*X107054Y024209D02*X107241Y024187D01*
X106045Y024235D02*X107054Y024209D01*X050937Y016141D02*
X051783Y017215D01*X053509Y019795D01*X052928Y021045D01*
X051851Y020139D01*X052928Y021045D02*X053266Y022408D01*
X055497Y021701D01*X057812Y021065D01*X060223Y022544D01*
X053266Y022408D02*X051331Y0239D01*X087379Y022588D02*X088862Y022924D01*
X089214Y021384D01*X088191Y019693D01*X082931Y021821D02*
X081275Y021605D01*X083415Y01988D02*X087036Y020507D01*X087185Y017437D01*
X087036Y020507D02*X087621Y021618D01*X085596Y02492D02*X087253Y027613D01*
X082369Y025969D02*X081275Y023525D01*X08227Y024263D01*X081275Y023525D02*
X075994Y02149D01*X085542Y018284D02*X082092Y01869D01*X081938Y019936D01*
X083173Y02085D01*X082584Y028298D02*X081549Y026543D01*X079913Y024278D01*
X084727Y022542D02*X087137Y023558D01*X089483Y025606D01*
X084956Y029264D02*X085495Y027572D01*X084713Y025389D01*
X082235Y022977D01*X077457Y020805D01*D10*X082469Y030941D02*
X068005Y030556D01*X050072Y030736D01*X0Y04D02*X16D01*Y0D01*X0D01*Y04D01*
D11*X033102Y032639D02*X024298Y028975D01*X051985Y033428D02*
X033102Y032639D01*X083026Y032819D02*X051985Y033428D01*
X118789Y028236D02*X083026Y032819D01*X121221Y027954D02*
X118789Y028236D01*X124048Y024491D02*X121221Y027954D01*X124741Y02227D02*
X124048Y024491D01*X135485Y021388D02*X124741Y02227D01*X102898Y02085D02*
X103006Y020015D01*X102898Y02085D02*X105076Y020933D01*X106899Y023153D01*
X1059Y023118D01*X105076Y020933D02*X105005Y020085D01*X105248Y015828D01*
X102569Y021344D02*X102898Y02085D01*X098645Y021154D02*X102569Y021344D01*
X096387Y01925D02*X098645Y021154D01*X087562Y016278D02*X096387Y01925D01*
X087562Y016278D02*X080932Y017901D01*X080041Y018998D01*
X079766Y020782D01*X080041Y018998D02*X078168Y018794D01*X08994Y018473D02*
X087562Y016278D01*X124565Y016305D02*X125314Y019325D01*
X124565Y016305D02*X127537Y018921D01*X124485Y012757D02*
X124565Y016305D01*X124485Y012757D02*X121473Y019425D01*
X118586Y019959D01*X106766Y011294D01*X10582Y012883D01*X103784Y012668D01*
X10363Y013863D01*X100763Y015074D01*X098324Y016941D01*X10363Y013863D02*
X104442Y013805D01*X104005Y02005D01*X104442Y013805D02*X107954Y017057D01*
X103784Y012668D02*X102853Y012663D01*X100911Y013285D01*
X106766Y011294D02*X093828Y011729D01*X089441Y011828D01*X08826Y014636D01*
X089441Y011828D02*X084362Y011865D01*X07373Y019522D01*X075193Y018836D01*
X072123Y018876D01*X084362Y011865D02*X082235Y012003D01*X078669Y01454D01*
X082235Y012003D02*X072473Y012071D01*X066735Y013169D01*
X067604Y017563D01*X05978Y018801D01*X054717Y018341D01*X066735Y013169D02*
X059446Y014098D01*X056241Y014357D01*X05384Y010357D01*X045404Y008848D01*
X045347Y011233D01*X045404Y008848D02*X035807Y008098D01*
X016748Y008285D01*X013853Y007111D01*X011947Y008486D01*
X012984Y011241D01*X011947Y008486D02*X010185Y009414D01*
X128808Y012449D02*X124485Y012757D01*X128808Y012449D02*
X136884Y012346D01*X138397Y011847D01*X145758Y012078D01*
X138397Y011847D02*X139115Y012895D01*X129277Y013381D02*
X128808Y012449D01*X101052Y017893D02*X101007Y019946D01*
X101052Y017893D02*X103099Y016637D01*X099821Y017238D02*
X101052Y017893D01*X098125Y018976D02*X099821Y017238D01*
X087425Y015455D02*X098125Y018976D01*X087425Y015455D02*
X083813Y016232D01*X087059Y015363D02*X087425Y015455D01*
X079286Y016827D02*X087059Y015363D01*X075211Y020244D02*
X079286Y016827D01*X07505Y020354D02*X075211Y020244D01*X074872Y020431D02*
X07505Y020354D01*X074682Y020471D02*X074872Y020431D01*X074488Y020475D02*
X074682Y020471D01*X069626Y020085D02*X074488Y020475D01*
X069626Y020085D02*X069146Y01851D01*X069773Y02161D02*X069626Y020085D01*
X094575Y015714D02*X096324Y016941D01*X094575Y015714D02*
X094467Y016616D01*X093272Y015371D02*X094575Y015714D01*
X093272Y015371D02*X092605Y01616D01*X092432Y013747D02*X093272Y015371D01*
X105075Y024005D02*X1049Y023083D01*X105293Y025119D02*X105075Y024005D01*
X106272Y026621D02*X105293Y025119D01*X105567Y025363D02*
X106272Y026621D01*X105567Y025363D02*X104846Y02588D01*X108365Y025103D02*
X105567Y025363D01*X10855Y025068D02*X108365Y025103D01*X108726Y024998D02*
X10855Y025068D01*X108885Y024897D02*X108726Y024998D01*X109022Y024768D02*
X108885Y024897D01*X109133Y024615D02*X109022Y024768D01*
X109213Y024444D02*X109133Y024615D01*X10926Y024261D02*X109213Y024444D01*
X109271Y024073D02*X10926Y024261D01*X109247Y023886D02*X109271Y024073D01*
X108372Y020028D02*X109247Y023886D01*X115191Y023079D02*
X115986Y023351D01*X115191Y023079D02*X113031Y024828D01*
X120254Y026646D01*X113031Y024828D02*X111241Y026929D01*
X108435Y028121D01*X106695Y027527D01*X108435Y028121D02*
X103886Y027618D01*X103901Y023049D01*X103372Y027466D01*
X095825Y026686D01*X102419Y027643D01*X095825Y026686D02*
X093141Y029286D01*X090397Y03059D01*X080246Y029949D01*X075127Y02799D01*
X076423Y027023D01*X075127Y02799D02*X069907Y026825D01*X058275Y028504D01*
X055741Y028313D01*X041666Y030092D01*X0341Y030096D01*X02384Y026371D01*
X022741Y029521D01*X016745Y03049D01*X013569Y031097D01*Y029146D01*
X013179Y026545D01*X014748Y024815D01*X013569Y031097D02*X01207Y032855D01*
X02384Y026371D02*X024001Y023659D01*X020369Y017348D01*X018547Y016235D01*
X016761Y014913D01*X017435Y019083D01*X016761Y014913D02*X01633Y013829D01*
X015673Y011085D01*X01633Y013829D02*X01482Y012675D01*X013505Y009081D01*
X01482Y012675D02*X011852Y01269D01*X041666Y030092D02*X042865Y025651D01*
X069907Y026825D02*X068061Y023333D01*X06878Y021488D01*X068061Y023333D02*
X060532Y023495D01*X057762Y023669D01*X053935Y023727D01*
X080246Y029949D02*X08073Y027117D01*X093141Y029286D02*X091117Y026166D01*
X091837Y025789D01*X091374Y018686D01*X091837Y025789D02*X0925Y019159D01*
X091117Y026166D02*X089254Y027526D01*X086479Y02445D01*X117352Y02133D02*
X115191Y023079D01*X127163Y019848D02*X117352Y02133D01*X131072Y019152D02*
X127163Y019848D01*X13495Y01801D02*X131072Y019152D01*X13495Y01801D02*
X13761Y015257D01*X142459Y013585D01*X144683Y014129D01*X148789Y013858D01*
X148958Y01505D01*X147902Y018501D01*X148958Y01505D02*X149907Y021168D01*
X148053Y022454D01*X147598Y024781D01*X148Y028D01*X136322Y018099D02*
X13495Y01801D01*
M02*