317**Signal 1**     U10   -2    D 280PA00X 145444Y  21054X 600Y 600             
317**Signal 1**     U13_2 -1    D 280PA00X 138408Y  20713X 600Y 600             
317**Signal 1**     U18   -1    D 400PA00X 145108Y  23027X1000Y 800             
317**Signal 1**     U3_1  -S    D 280PA00X 141681Y  17161X 600Y 600             
317**Signal 1**     U6_1  -2    D 280PA00X 146131Y  25093X 600Y 600             
317**Signal 4**     U15_3 -2    D 280PA00X 147073Y  14774X 600Y 600             
317**Signal 4**     U3    -D    D 280PA00X 146061Y  19283X 600Y 600             
317**Signal 4**     U3_1  -D    D 280PA00X 143494Y  16315X 600Y 600             
317**Signal 8**     U10   -1    D 280PA00X 146929Y  20845X 600Y 600             
317**Signal 8**     U15_1 -1    D 280PA00X 146679Y  16482X 600Y 600             
317**Signal 8**     U3    -G    D 280PA00X 146982Y  18892X 600Y 600             
317**Signal 9**     U11_1 -1    D 280PA00X 139233Y  17373X 600Y 600             
317**Signal 9**     U15_1 -2    D 280PA00X 144163Y  18116X 600Y 600             
317**Signal 9**     U15_3_-2    D 280PA00X 140042Y  15748X 600Y 600             
317**Signal 9**     U15_3_-1    D 280PA00X 141986Y  15444X 600Y 600             
317**Signal 9**     U3_1  -G    D 280PA00X 142587Y  16738X 600Y 600             
317NNAME00001       U6    -1    D 280PA00X  16336Y  24309X 600Y 600             
317NNAME00001       U4_2  -2    D 280PA00X  16955Y  27497X 600Y 600             
317NNAME00001       U8    -2    D 400PA00X  18491Y  25734X1000Y 800             
317NNAME00002       U11_1 -2    D 280PA00X  23027Y  15741X 600Y 600             
317NNAME00002       U4_3  -1    D 280PA00X  21061Y  20585X 600Y 600             
317NNAME00002       U4_3  -2    D 280PA00X  22136Y  17784X 600Y 600             
317NNAME00002       U4_3  -1    D 280PA00X  20689Y  13760X 600Y 600             
317NNAME00002       U8    -1    D 400PA00X  19418Y  22880X1000Y 800             
317NNAME00002       U8_1  -1    D 400PA00X  19442Y  20201X1000Y 800             
317NNAME00002       U9    -1    D 280PA00X  18210Y  17697X 600Y 600             
317NNAME00003       U4_3  -2    D 280PA00X  18681Y  11530X 600Y 600             
317NNAME00003       U7    -wipe D 280PA00X  13679Y   8096X 600Y 600             
317NNAME00004       U14_1 -D    D 280PA00X 125022Y  24716X 600Y 600             
317NNAME00004       U15_2_-2    D 280PA00X 123165Y  27372X 600Y 600             
317NNAME00005       U13_2 -2    D 280PA00X 135485Y  21388X 600Y 600             
317NNAME00005       U13_1_-2    D 280PA00X 124741Y  22270X 600Y 600             
317NNAME00005       U13_2 -2    D 280PA00X  24298Y  28975X 600Y 600             
317NNAME00005       U14_1 -G    D 280PA00X 124048Y  24491X 600Y 600             
317NNAME00006       U10   -2    D 280PA00X  17325Y  22444X 600Y 600             
317NNAME00006       U18   -1    D 400PA00X  12590Y  22731X1000Y 800             
317NNAME00006       U2    -11   D 400PA00X  10965Y  30251X1000Y1000             
317NNAME00006       U3_1  -S    D 280PA00X  10769Y  19122X 600Y 600             
317NNAME00006       U6    -2    D 280PA00X  15655Y  22973X 600Y 600             
317NNAME00006       U6_1  -2    D 280PA00X  11730Y  26157X 600Y 600             
317NNAME00006       U13_2 -1    D 280PA00X  21649Y  27566X 600Y 600             
317NNAME00007       U15_3 -2    D 280PA00X  13961Y  14077X 600Y 600             
317NNAME00007       U3    -D    D 280PA00X  16375Y  20779X 600Y 600             
317NNAME00007       U3_1  -D    D 280PA00X  12323Y  17863X 600Y 600             
317NNAME00008       U10   -1    D 280PA00X  18422Y  21421X 600Y 600             
317NNAME00008       U15_1 -1    D 280PA00X  15422Y  18403X 600Y 600             
317NNAME00008       U3    -G    D 280PA00X  16905Y  19931X 600Y 600             
317NNAME00009       U15_1 -2    D 280PA00X  13376Y  20597X 600Y 600             
317NNAME00009       U15_3_-2    D 280PA00X   9358Y  12297X 600Y 600             
317NNAME00009       U15_3_-1    D 280PA00X   9336Y  14324X 600Y 600             
317NNAME00009       U3_1  -G    D 280PA00X  11546Y  18492X 600Y 600             
317NNAME00010       U11_1 -1    D 280PA00X  24995Y  18006X 600Y 600             
317NNAME00010       U12   -1    D 280PA00X  24868Y  20751X 690Y 690             
317NNAME00011       U30   -3    D 280PA00X  69773Y  21610X 600Y 600             
317NNAME00011       U30   -5    D 280PA00X  69146Y  18510X 600Y 600             
317NNAME00011       U7_3_1-2    D 280PA00X  83813Y  16232X 600Y 600             
317NNAME00011       U1_1  -1    D 280PA00X  99821Y  17238X 600Y 600             
317NNAME00011       U2    -1    D 280PA00X 101007Y  19946X 600Y 600             
317NNAME00011       U7_2_1-2    D 280PA00X 103099Y  16637X 600Y 600             
317NNAME00011       U7_3  -2    D 280PA00X  98125Y  18976X 600Y 600             
317**Signal 5**     U4    -2    D 400PA00X 131072Y  16152X 800Y 800             
317**Signal 5**     U5    -A    D 280PA00X 128911Y  16358X 600Y 600             
317**Signal 36**    U30   -1    D 280PA00X  71758Y  21853X 600Y 600             
317**Signal 36**    U7_3_1-2    D 280PA00X  72976Y  22588X 600Y 600             
317**Signal 37**    U32   -G    D 280PA00X  71702Y  13845X 600Y 600             
317**Signal 37**    U7_3_1-2    D 280PA00X  74577Y  16552X 600Y 600             
317**Signal 38**    U32   -D    D 280PA00X  72585Y  13376X 600Y 600             
317**Signal 38**    U7_3_1-2    D 280PA00X  76200Y  16529X 600Y 600             
317**Signal 38**    U7_3_1-1    D 280PA00X  75698Y  14123X 600Y 600             
317**Signal 38**    U7_3_1-2    D 280PA00X  74384Y  15081X 600Y 600             
317**Signal 39**    U30   -7    D 280PA00X  71131Y  18754X 600Y 600             
317**Signal 39**    U7_3_1-1    D 280PA00X  71776Y  17627X 600Y 600             
317**Signal 40**    U31   -D    D 280PA00X  75668Y  25958X 600Y 600             
317**Signal 40**    U7_3_1-2    D 280PA00X  78404Y  23455X 600Y 600             
317**Signal 40**    U7_3_1-1    D 280PA00X  76344Y  24685X 600Y 600             
317**Signal 40**    U7_3_1-2    D 280PA00X  79423Y  27023X 600Y 600             
317**Signal 41**    U31   -G    D 280PA00X  74698Y  25716X 600Y 600             
317**Signal 41**    U7_3_1-1    D 280PA00X  75887Y  23314X 600Y 600             
317**Signal 42**    U30   -2    D 280PA00X  70765Y  21731X 600Y 600             
317**Signal 42**    U7_3_1-2    D 280PA00X  73433Y  23960X 600Y 600             
317**Signal 43**    U30   -6    D 280PA00X  70138Y  18632X 600Y 600             
317**Signal 43**    U7_3_1-1    D 280PA00X  71584Y  16156X 600Y 600             
317**Signal 44**    U31   -S    D 280PA00X  73728Y  25474X 600Y 600             
317**Signal 44**    U7_3_1-1    D 280PA00X  69944Y  25343X 600Y 600             
317**Signal 45**    U32   -S    D 280PA00X  70820Y  14315X 600Y 600             
317**Signal 45**    U7_3_1-2    D 280PA00X  68495Y  15592X 600Y 600             
317**Signal 47**    U34   -G    D 280PA00X  55741Y  27313X 600Y 600             
317**Signal 47**    U34_1 -G    D 280PA00X  58275Y  27504X 600Y 600             
317**Signal 47**    U34_1 -S    D 280PA00X  58275Y  26504X 600Y 600             
317**Signal 47**    U7_3_1-2    D 280PA00X  67033Y  24617X 600Y 600             
317**Signal 48**    U35   -G    D 280PA00X  56483Y  15328X 600Y 600             
317**Signal 48**    U35_1 -G    D 280PA00X  59688Y  15068X 600Y 600             
317**Signal 48**    U35_1 -S    D 280PA00X  59930Y  16039X 600Y 600             
317**Signal 48**    U7_3_1-1    D 280PA00X  65584Y  16318X 600Y 600             
317**Signal 50**    U34   -S    D 280PA00X  55741Y  26313X 600Y 600             
317**Signal 50**    U34_2 -D    D 280PA00X  52214Y  24370X 600Y 600             
317**Signal 50**    U34_3 -D    D 280PA00X  49776Y  25821X 600Y 600             
317**Signal 51**    U35   -S    D 280PA00X  56725Y  16298X 600Y 600             
317**Signal 51**    U35_2 -D    D 280PA00X  52452Y  14662X 600Y 600             
317**Signal 51**    U35_3 -D    D 280PA00X  52753Y  16973X 600Y 600             
317**Signal 52**    U34_2 -S    D 280PA00X  50448Y  23431X 600Y 600             
317**Signal 52**    U35_3 -S    D 280PA00X  50813Y  17457X 600Y 600             
317**Signal 52**    U39   -1    D 280PA00X  49798Y  19009X 600Y 600             
317**Signal 52**    U7_3_1-2    D 280PA00X  51806Y  19067X 600Y 600             
317**Signal 52**    U7_3_1-2    D 280PA00X  51928Y  21497X 600Y 600             
317**Signal 54**    U34_3 -G    D 280PA00X  48842Y  25463X 600Y 600             
317**Signal 54**    U35_2 -G    D 280PA00X  51482Y  14420X 600Y 600             
317**Signal 54**    U7_3_1-2    D 280PA00X  48941Y  20865X 600Y 600             
317**Signal 54**    U7_3_1-1    D 280PA00X  53661Y  12335X 600Y 600             
317**Signal 54**    U7_3_1-1    D 280PA00X  48663Y  28087X 600Y 600             
317**Signal 54**    U7_3_1-2    D 280PA00X  47959Y  15775X 600Y 600             
317**Signal 58**    U35_2 -S    D 280PA00X  50511Y  14178X 600Y 600             
317**Signal 58**    U7_3_1-2    D 280PA00X  45876Y  14388X 600Y 600             
317**Signal 59**    U34_3_-G    D 280PA00X  41872Y  25529X 600Y 600             
317**Signal 59**    U7_3_1-1    D 280PA00X  42965Y  15114X 600Y 600             
317**Signal 60**    U34_3 -S    D 280PA00X  47909Y  25104X 600Y 600             
317**Signal 60**    U7_3_1-2    D 280PA00X  44432Y  23096X 600Y 600             
317**Signal 61**    U35_2_-G    D 280PA00X  44354Y  11111X 600Y 600             
317**Signal 61**    U7_3_1-1    D 280PA00X  43706Y  20185X 600Y 600             
317**Signal 63**    U34_3_-S    D 280PA00X  40880Y  25407X 600Y 600             
317**Signal 63**    U7_3_1-2    D 280PA00X  39612Y  19765X 600Y 600             
317**Signal 64**    U23   -k    D 320PA00X  34954Y  15046X 600Y 600             
317**Signal 64**    U7_3_1-1    D 280PA00X  37891Y  17308X 600Y 600             
317**Signal 65**    U23_1 -a    D 320PA00X  34954Y  23148X 600Y 600             
317**Signal 65**    U7_3_1-2    D 280PA00X  34812Y  20204X 600Y 600             
317**Signal 67**    U35_2_-S    D 280PA00X  43362Y  10989X 600Y 600             
317**Signal 67**    U7_3_1-1    D 280PA00X  37723Y  19479X 600Y 600             
317**Signal 71**    U38   -growtD 280PA00X  45290Y  18689X 600Y 600             
317**Signal 71**    U39   -2    D 280PA00X  46820Y  18644X 600Y 600             
317**Signal 7**     U14   -1    D 280PA00X 117215Y  24211X 600Y 600             
317**Signal 7**     U15_3_-1    D 280PA00X 120850Y  22359X 600Y 600             
317**Signal 7**     U14_1 -S    D 280PA00X 123074Y  24266X 600Y 600             
317**Signal 7**     U17_1 -1    D 280PA00X 119204Y  21879X 600Y 600             
317NNAME00012       U1_1_1-2    D 280PA00X  94467Y  19616X 600Y 600             
317NNAME00012       U2    -12   D 280PA00X 102901Y  23014X 600Y 600             
317NNAME00012       U7_3  -1    D 280PA00X  98125Y  21976X 600Y 600             
317NNAME00012       U7_3_1-1    D 280PA00X  96021Y  22228X 600Y 600             
317NNAME00013       U7_2  -2    D 280PA00X 106045Y  24235X 600Y 600             
317NNAME00013       U1    -2    D 280PA00X 111634Y  19985X 600Y 600             
317NNAME00013       U2    -7    D 280PA00X 107004Y  20155X 600Y 600             
317NNAME00014       U2    -14   D 280PA00X 100903Y  22944X 600Y 600             
317NNAME00014       U7_2  -2    D 280PA00X  98599Y  24394X 600Y 600             
317NNAME00014       U7_2_1-1    D 280PA00X  99276Y  22787X 600Y 600             
317NNAME00015       U1_1  -2    D 280PA00X 102622Y  18313X 600Y 600             
317NNAME00015       U2    -2    D 280PA00X 102007Y  19981X 600Y 600             
317NNAME00015       U7_2_1-2    D 280PA00X  99381Y  19789X 600Y 600             
317NNAME00016       U1    -1    D 280PA00X 109957Y  17498X 600Y 600             
317NNAME00016       U2    -6    D 280PA00X 106004Y  20120X 600Y 600             
317NNAME00016       U7_2_1-1    D 280PA00X 105900Y  17712X 600Y 600             
317NNAME00017       U14_1_-G    D 280PA00X  97324Y  16941X 600Y 600             
317NNAME00017       U3_2  -1    D 280PA00X  97767Y  14917X 600Y 600             
317NNAME00017       U5    -1    D 280PA00X  95107Y  12437X 600Y 600             
317NNAME00017       U6    -A    D 280PA00X  97911Y  13285X 600Y 600             
317NNAME00018       U13   -1    D 280PA00X  92432Y  13747X 600Y 600             
317NNAME00018       U14_1_-S    D 280PA00X  96324Y  16941X 600Y 600             
317NNAME00018       U1_1_1-1    D 280PA00X  94467Y  16616X 600Y 600             
317NNAME00018       U3_1_2-1    D 280PA00X  92605Y  16160X 600Y 600             
317NNAME00019       U7_2  -1    D 280PA00X 103067Y  23869X 600Y 600             
317NNAME00019       U2    -13   D 280PA00X 101902Y  22979X 600Y 600             
317NNAME00019       U7_2  -1    D 280PA00X 101577Y  24760X 600Y 600             
317**Signal 3**     U7_3_1-2    D 280PA00X  56584Y  11660X 600Y 600             
317**Signal 3**     U17_1 -2    D 280PA00X 119099Y  18881X 600Y 600             
317**Signal 3**     U5    -2    D 280PA00X  94744Y  10982X 600Y 600             
317**Signal 20**    U7_1_1-1    D 280PA00X 108372Y  20028X 600Y 600             
317**Signal 20**    U2    -10   D 280PA00X 104900Y  23083X 600Y 600             
317**Signal 20**    U4    -1    D 280PA00X 106272Y  26621X 600Y 600             
317**Signal 20**    U7_1_1-1    D 280PA00X 104846Y  25880X 600Y 600             
317pos9\            U11   -1    D 280PA00X 136884Y  12346X 600Y 600             
317pos9\            U15_3 -1    D 280PA00X 145758Y  12078X 600Y 600             
317pos9\            U15_3_-1    D 280PA00X 139115Y  12895X 600Y 600             
317pos9\            U15_3_-2    D 280PA00X 121473Y  19425X 600Y 600             
317pos9\            U23   -a    D 320PA00X  35807Y   8098X 600Y 600             
317pos9\            U30   -8    D 280PA00X  72123Y  18876X 600Y 600             
317pos9\            U35   -D    D 280PA00X  56241Y  14357X 600Y 600             
317pos9\            U35_1 -D    D 280PA00X  59446Y  14098X 600Y 600             
317pos9\            U35_2_-D    D 280PA00X  45347Y  11233X 600Y 600             
317pos9\            U5    -K    D 280PA00X 129277Y  13381X 600Y 600             
317pos9\            U7_1_1-2    D 280PA00X 107954Y  17057X 600Y 600             
317pos9\            U7_3_1-2    D 280PA00X  78669Y  14540X 600Y 600             
317pos9\            U7_3_1-2    D 280PA00X  73730Y  19522X 600Y 600             
317pos9\            U7_3_1-2    D 280PA00X  75193Y  18836X 600Y 600             
317pos9\            U7_3_1-1    D 280PA00X  59780Y  18801X 600Y 600             
317pos9\            U7_3_1-1    D 280PA00X  54717Y  18341X 600Y 600             
317pos9\            U7_3_1-2    D 280PA00X  88260Y  14636X 600Y 600             
317pos9\            U11   -1    D 280PA00X  16748Y   8285X 600Y 600             
317pos9\            U13_1_-1    D 280PA00X 125314Y  19325X 600Y 600             
317pos9\            U15_3 -1    D 280PA00X  12984Y  11241X 600Y 600             
317pos9\            U15_3_-1    D 280PA00X  10185Y   9414X 600Y 600             
317pos9\            U20   -1    D 280PA00X 127537Y  18921X 600Y 600             
317pos9\            U7    -1    D 280PA00X  13853Y   7111X 600Y 600             
317pos9\            U14_1_-D    D 280PA00X  98324Y  16941X 600Y 600             
317pos9\            U2    -4    D 280PA00X 104005Y  20050X 600Y 600             
317pos9\            U3    -1    D 280PA00X 105820Y  12883X 600Y 600             
317pos9\            U3_2  -2    D 280PA00X 100763Y  15074X 600Y 600             
317pos9\            U6    -K    D 280PA00X 100911Y  13285X 600Y 600             
317**Signal 23**    U7_3_1-1    D 280PA00X  78168Y  18794X 600Y 600             
317**Signal 23**    U7_3_1-1    D 280PA00X  79766Y  20782X 600Y 600             
317**Signal 23**    U7_3_1-2    D 280PA00X  89940Y  18473X 600Y 600             
317**Signal 23**    U2    -3    D 280PA00X 103006Y  20015X 600Y 600             
317**Signal 23**    U2    -5    D 280PA00X 105005Y  20085X 600Y 600             
317**Signal 23**    U2    -8    D 280PA00X 106899Y  23153X 600Y 600             
317**Signal 23**    U2    -9    D 280PA00X 105900Y  23118X 600Y 600             
317**Signal 23**    U3    -2    D 280PA00X 105248Y  15828X 600Y 600             
317**Signal 23**    U7_3_1-2    D 280PA00X  96387Y  19250X 600Y 600             
317**Signal 26**    U13   -2    D 280PA00X  91677Y  14403X 600Y 600             
317**Signal 26**    U3_1_2-1    D 280PA00X  91479Y  15688X 600Y 600             
317gnd              U11   -2    D 280PA00X 137610Y  15257X 600Y 600             
317gnd              U11_1 -2    D 280PA00X 136322Y  18099X 600Y 600             
317gnd              U14   -2    D 280PA00X 115986Y  23351X 600Y 600             
317gnd              U15_3_-2    D 280PA00X 144683Y  14129X 600Y 600             
317gnd              U18   -2    D 400PA00X 148053Y  22454X1000Y 800             
317gnd              U23_1 -k    D 320PA00X  34100Y  30096X 600Y 600             
317gnd              U3    -S    D 280PA00X 147902Y  18501X 600Y 600             
317gnd              U30   -4    D 280PA00X  68780Y  21488X 600Y 600             
317gnd              U34   -D    D 280PA00X  55741Y  28313X 600Y 600             
317gnd              U34_1 -D    D 280PA00X  58275Y  28504X 600Y 600             
317gnd              U34_2_-D    D 280PA00X  86479Y  24450X 600Y 600             
317gnd              U34_3_-D    D 280PA00X  42865Y  25651X 600Y 600             
317gnd              U34_3_-D    D 280PA00X  80730Y  27117X 600Y 600             
317gnd              U3_1_2-2    D 280PA00X  91374Y  18686X 600Y 600             
317gnd              U4    -1    D 400PA00X 131072Y  19152X 800Y 800             
317gnd              U4_1  -2    D 280PA00X  60532Y  23495X 600Y 600             
317gnd              U6_1  -1    D 280PA00X 147598Y  24781X 600Y 600             
317gnd              U7_3_1-1    D 280PA00X  76423Y  27023X 600Y 600             
317gnd              U7_3_1-1    D 280PA00X  53935Y  23727X 600Y 600             
317gnd              U7_3_1-1    D 280PA00X  57762Y  23669X 600Y 600             
317gnd              U11   -2    D 280PA00X  15673Y  11085X 600Y 600             
317gnd              U15_3_-2    D 280PA00X  11852Y  12690X 600Y 600             
317gnd              U18   -2    D 400PA00X  14748Y  24815X1000Y 800             
317gnd              U2    -1    D 400PA00X  12070Y  32855X1000Y1000             
317gnd              U2    -2    D 400PA00X  13569Y  29146X1000Y1000             
317gnd              U20   -2    D 280PA00X 127163Y  19848X 600Y 600             
317gnd              U22   -1    D 280PA00X 148000Y  28000X 600Y 600             
317gnd              U3    -S    D 280PA00X  17435Y  19083X 600Y 600             
317gnd              U6_1  -1    D 280PA00X  13179Y  26545X 600Y 600             
317gnd              U15_2_-1    D 280PA00X 120254Y  26646X 600Y 600             
317gnd              U4_2  -1    D 280PA00X  16745Y  30490X 600Y 600             
317gnd              U7    -2    D 280PA00X  13505Y   9081X 600Y 600             
317gnd              U8_1  -2    D 400PA00X  20369Y  17348X1000Y 800             
317gnd              U9    -2    D 280PA00X  18547Y  16235X 600Y 600             
317gnd              U2    -11   D 280PA00X 103901Y  23049X 600Y 600             
317gnd              U3_1_2-2    D 280PA00X  92500Y  19159X 600Y 600             
317gnd              U4    -2    D 280PA00X 106695Y  27527X 600Y 600             
317gnd              U7_1_1-2    D 280PA00X 102419Y  27643X 600Y 600             
317**Signal 29**    U34_2 -G    D 280PA00X  51331Y  23900X 600Y 600             
317**Signal 29**    U35_3 -G    D 280PA00X  51783Y  17215X 600Y 600             
317**Signal 29**    U4_1  -1    D 280PA00X  60223Y  22544X 600Y 600             
317**Signal 29**    U7_3_1-2    D 280PA00X  57812Y  21065X 600Y 600             
317**Signal 29**    U7_3_1-1    D 280PA00X  51851Y  20139X 600Y 600             
317**Signal 29**    U7_3_1-1    D 280PA00X  50937Y  16141X 600Y 600             
317**Signal 29**    U7_3_1-2    D 280PA00X  55497Y  21701X 600Y 600             
317**Signal 31**    U35_2_-D    D 280PA00X  87621Y  21618X 600Y 600             
317**Signal 31**    U35_3_-D    D 280PA00X  83415Y  19880X 600Y 600             
317**Signal 31**    U7_3_1-1    D 280PA00X  87185Y  17437X 600Y 600             
317**Signal 32**    U35_3_-G    D 280PA00X  83173Y  20850X 600Y 600             
317**Signal 32**    U7_3_1-2    D 280PA00X  85542Y  18284X 600Y 600             
317**Signal 32**    U7_3_1-1    D 280PA00X  82092Y  18690X 600Y 600             
317**Signal 33**    U35_2_-G    D 280PA00X  87379Y  22588X 600Y 600             
317**Signal 33**    U7_3_1-1    D 280PA00X  88191Y  19693X 600Y 600             
317**Signal 33**    U7_3_1-1    D 280PA00X  89214Y  21384X 600Y 600             
317**Signal 34**    U1_1_1-2    D 280PA00X  82584Y  28298X 600Y 600             
317**Signal 34**    U34_3_-G    D 280PA00X  81549Y  26543X 600Y 600             
317**Signal 34**    U35_3_-S    D 280PA00X  82931Y  21821X 600Y 600             
317**Signal 34**    U7_3_1-1    D 280PA00X  81275Y  21605X 600Y 600             
317**Signal 34**    U7_3_1-2    D 280PA00X  79913Y  24278X 600Y 600             
317**Signal 35**    U1_1_1-1    D 280PA00X  84727Y  22542X 600Y 600             
317**Signal 35**    U35_2_-S    D 280PA00X  87137Y  23558X 600Y 600             
317**Signal 35**    U7_3_1-2    D 280PA00X  89483Y  25606X 600Y 600             
317**Signal 46**    U1_1_1-1    D 280PA00X  85495Y  27572X 600Y 600             
317**Signal 46**    U1_1_1-1    D 280PA00X  84956Y  29264X 600Y 600             
317**Signal 46**    U34_2_-S    D 280PA00X  84713Y  25389X 600Y 600             
317**Signal 46**    U7_3_1-1    D 280PA00X  77457Y  20805X 600Y 600             
317**Signal 49**    U1_1_1-2    D 280PA00X  82270Y  24263X 600Y 600             
317**Signal 49**    U34_3_-S    D 280PA00X  82369Y  25969X 600Y 600             
317**Signal 49**    U7_3_1-1    D 280PA00X  75994Y  21490X 600Y 600             
317**Signal 55**    U34_2_-G    D 280PA00X  85596Y  24920X 600Y 600             
317**Signal 55**    U7_3_1-1    D 280PA00X  87253Y  27613X 600Y 600             
317**Signal 56**    U15   -1    D 280PA00X  68005Y  30556X 600Y 600             
317**Signal 56**    U1_1_1-2    D 280PA00X  82469Y  30941X 600Y 600             
317**Signal 56**    U7_3_1-2    D 280PA00X  50072Y  30736X 600Y 600             
317N/C              U1    -1    D 100PA00X 134554Y  36458X 500Y 500             
317N/C              U1    -1    D 100PA00X 135981Y  35422X 500Y 500             
317N/C              U1    -1    D 100PA00X 133127Y  35422X 500Y 500             
317N/C              U1    -1    D 100PA00X 133672Y  33745X 500Y 500             
317N/C              U1    -1    D 100PA00X 135436Y  33745X 500Y 500             
317N/C              U3_2  -S    D 280PA00X 147902Y  18501X 600Y 600             
317N/C              U3_2  -G    D 280PA00X 146982Y  18892X 600Y 600             
317N/C              U3_2  -D    D 280PA00X 146061Y  19283X 600Y 600             
317N/C              U3_1_1-S    D 280PA00X 141681Y  17161X 600Y 600             
317N/C              U3_1_1-G    D 280PA00X 142587Y  16738X 600Y 600             
317N/C              U3_1_1-D    D 280PA00X 143494Y  16315X 600Y 600             
317N/C              U15_3_-1    D 280PA00X 145758Y  12078X 600Y 600             
317N/C              U15_3_-2    D 280PA00X 147073Y  14774X 600Y 600             
317N/C              U15_1_-1    D 280PA00X 146679Y  16482X 600Y 600             
317N/C              U15_1_-2    D 280PA00X 144163Y  18116X 600Y 600             
317N/C              U18_1 -1    D 400PA00X 145108Y  23027X1000Y 800             
317N/C              U18_1 -2    D 400PA00X 148053Y  22454X1000Y 800             
317N/C              U6_1_1-1    D 280PA00X 147598Y  24781X 600Y 600             
317N/C              U6_1_1-2    D 280PA00X 146131Y  25093X 600Y 600             
317N/C              U10_1 -1    D 280PA00X 146929Y  20845X 600Y 600             
317N/C              U10_1 -2    D 280PA00X 145444Y  21054X 600Y 600             
317N/C              U15_3_-1    D 280PA00X 139115Y  12895X 600Y 600             
317N/C              U15_3_-2    D 280PA00X 140042Y  15748X 600Y 600             
317N/C              U15_3_-1    D 280PA00X 141986Y  15444X 600Y 600             
317N/C              U15_3_-2    D 280PA00X 144683Y  14129X 600Y 600             
317N/C              U11   -1    D 280PA00X 136884Y  12346X 600Y 600             
317N/C              U11   -2    D 280PA00X 137610Y  15257X 600Y 600             
317N/C              U4_2  -1    D 280PA00X  16745Y  30490X 600Y 600             
317N/C              U4_2  -2    D 280PA00X  16955Y  27497X 600Y 600             
317N/C              U4_3  -1    D 280PA00X  20689Y  13760X 600Y 600             
317N/C              U4_3  -2    D 280PA00X  18681Y  11530X 600Y 600             
317N/C              U9    -1    D 280PA00X  18210Y  17697X 600Y 600             
317N/C              U9    -2    D 280PA00X  18547Y  16235X 600Y 600             
317N/C              U13_2 -1    D 280PA00X  21649Y  27566X 600Y 600             
317N/C              U13_2 -2    D 280PA00X  24298Y  28975X 600Y 600             
317N/C              U14_1 -S    D 280PA00X 123074Y  24266X 600Y 600             
317N/C              U14_1 -G    D 280PA00X 124048Y  24491X 600Y 600             
317N/C              U14_1 -D    D 280PA00X 125022Y  24716X 600Y 600             
317N/C              U15_2_-1    D 280PA00X 120254Y  26646X 600Y 600             
317N/C              U15_2_-2    D 280PA00X 123165Y  27372X 600Y 600             
317N/C              U17_1 -1    D 280PA00X 119204Y  21879X 600Y 600             
317N/C              U17_1 -2    D 280PA00X 119099Y  18881X 600Y 600             
317N/C              U7    -1    D 280PA00X  13853Y   7111X 600Y 600             
317N/C              U7    -2    D 280PA00X  13505Y   9081X 600Y 600             
317N/C              U7    -wipe D 280PA00X  13679Y   8096X 600Y 600             
317N/C              U2    -1    D 400PA00X  12070Y  32855X1000Y1000             
317N/C              U2    -2    D 400PA00X  13569Y  29146X1000Y1000             
317N/C              U2    -11   D 400PA00X  10965Y  30251X1000Y1000             
317N/C              U13_1_-1    D 280PA00X 125314Y  19325X 600Y 600             
317N/C              U13_1_-2    D 280PA00X 124741Y  22270X 600Y 600             
317N/C              U8_1  -1    D 400PA00X  19442Y  20201X1000Y 800             
317N/C              U8_1  -2    D 400PA00X  20369Y  17348X1000Y 800             
317N/C              U8    -1    D 400PA00X  19418Y  22880X1000Y 800             
317N/C              U8    -2    D 400PA00X  18491Y  25734X1000Y 800             
317N/C              U3    -S    D 280PA00X  17435Y  19083X 600Y 600             
317N/C              U3    -G    D 280PA00X  16905Y  19931X 600Y 600             
317N/C              U3    -D    D 280PA00X  16375Y  20779X 600Y 600             
317N/C              U3_1  -S    D 280PA00X  10769Y  19122X 600Y 600             
317N/C              U3_1  -G    D 280PA00X  11546Y  18492X 600Y 600             
317N/C              U3_1  -D    D 280PA00X  12323Y  17863X 600Y 600             
317N/C              U15_3 -1    D 280PA00X  12984Y  11241X 600Y 600             
317N/C              U15_3 -2    D 280PA00X  13961Y  14077X 600Y 600             
317N/C              U15_1 -1    D 280PA00X  15422Y  18403X 600Y 600             
317N/C              U15_1 -2    D 280PA00X  13376Y  20597X 600Y 600             
317N/C              U18   -1    D 400PA00X  12590Y  22731X1000Y 800             
317N/C              U18   -2    D 400PA00X  14748Y  24815X1000Y 800             
317N/C              U6    -1    D 280PA00X  16336Y  24309X 600Y 600             
317N/C              U6    -2    D 280PA00X  15655Y  22973X 600Y 600             
317N/C              U6_1  -1    D 280PA00X  13179Y  26545X 600Y 600             
317N/C              U6_1  -2    D 280PA00X  11730Y  26157X 600Y 600             
317N/C              U10   -1    D 280PA00X  18422Y  21421X 600Y 600             
317N/C              U10   -2    D 280PA00X  17325Y  22444X 600Y 600             
317N/C              U15_3_-1    D 280PA00X  10185Y   9414X 600Y 600             
317N/C              U15_3_-2    D 280PA00X   9358Y  12297X 600Y 600             
317N/C              U15_3_-1    D 280PA00X   9336Y  14324X 600Y 600             
317N/C              U15_3_-2    D 280PA00X  11852Y  12690X 600Y 600             
317N/C              U4_3  -1    D 280PA00X  21061Y  20585X 600Y 600             
317N/C              U4_3  -2    D 280PA00X  22136Y  17784X 600Y 600             
317N/C              U11   -1    D 280PA00X  16748Y   8285X 600Y 600             
317N/C              U11   -2    D 280PA00X  15673Y  11085X 600Y 600             
317N/C              U11_1 -1    D 280PA00X  24995Y  18006X 600Y 600             
317N/C              U11_1 -2    D 280PA00X  23027Y  15741X 600Y 600             
317N/C              U12   -1    D 280PA00X  24868Y  20751X 690Y 690             
317N/C              U20   -1    D 280PA00X 127537Y  18921X 600Y 600             
317N/C              U20   -2    D 280PA00X 127163Y  19848X 600Y 600             
317N/C              U22   -1    D 280PA00X 148000Y  28000X 600Y 600             
317N/C              U23_2 -a    D 320PA00X  35807Y   8098X 600Y 600             
317N/C              U23_2 -k    D 320PA00X  34954Y  15046X 600Y 600             
317N/C              U13_2_-1    D 280PA00X 138408Y  20713X 600Y 600             
317N/C              U13_2_-2    D 280PA00X 135485Y  21388X 600Y 600             
317N/C              U4_2  -1    D 400PA00X 131072Y  19152X 800Y 800             
317N/C              U4_2  -2    D 400PA00X 131072Y  16152X 800Y 800             
317N/C              U5_1  -A    D 280PA00X 128911Y  16358X 600Y 600             
317N/C              U5_1  -K    D 280PA00X 129277Y  13381X 600Y 600             
317N/C              U23_1_-a    D 320PA00X  34954Y  23148X 600Y 600             
317N/C              U23_1_-k    D 320PA00X  34100Y  30096X 600Y 600             
317N/C              U30_1 -1    D 280PA00X  71758Y  21853X 600Y 600             
317N/C              U30_1 -2    D 280PA00X  70765Y  21731X 600Y 600             
317N/C              U30_1 -3    D 280PA00X  69773Y  21610X 600Y 600             
317N/C              U30_1 -4    D 280PA00X  68780Y  21488X 600Y 600             
317N/C              U30_1 -5    D 280PA00X  69146Y  18510X 600Y 600             
317N/C              U30_1 -6    D 280PA00X  70138Y  18632X 600Y 600             
317N/C              U30_1 -7    D 280PA00X  71131Y  18754X 600Y 600             
317N/C              U30_1 -8    D 280PA00X  72123Y  18876X 600Y 600             
317N/C              U31_1 -S    D 280PA00X  73728Y  25474X 600Y 600             
317N/C              U31_1 -G    D 280PA00X  74698Y  25716X 600Y 600             
317N/C              U31_1 -D    D 280PA00X  75668Y  25958X 600Y 600             
317N/C              U32_1 -S    D 280PA00X  70820Y  14315X 600Y 600             
317N/C              U32_1 -G    D 280PA00X  71702Y  13845X 600Y 600             
317N/C              U32_1 -D    D 280PA00X  72585Y  13376X 600Y 600             
317N/C              U7_3_1-1    D 280PA00X  71776Y  17627X 600Y 600             
317N/C              U7_3_1-2    D 280PA00X  74577Y  16552X 600Y 600             
317N/C              U7_3_1-1    D 280PA00X  78168Y  18794X 600Y 600             
317N/C              U7_3_1-2    D 280PA00X  76200Y  16529X 600Y 600             
317N/C              U7_3_1-1    D 280PA00X  75698Y  14123X 600Y 600             
317N/C              U7_3_1-2    D 280PA00X  78669Y  14540X 600Y 600             
317N/C              U7_3_1-1    D 280PA00X  79766Y  20782X 600Y 600             
317N/C              U7_3_1-2    D 280PA00X  78404Y  23455X 600Y 600             
317N/C              U7_3_1-1    D 280PA00X  75887Y  23314X 600Y 600             
317N/C              U7_3_1-2    D 280PA00X  72976Y  22588X 600Y 600             
317N/C              U7_3_1-1    D 280PA00X  76423Y  27023X 600Y 600             
317N/C              U7_3_1-2    D 280PA00X  79423Y  27023X 600Y 600             
317N/C              U7_3_1-1    D 280PA00X  76344Y  24685X 600Y 600             
317N/C              U7_3_1-2    D 280PA00X  73433Y  23960X 600Y 600             
317N/C              U7_3_1-1    D 280PA00X  71584Y  16156X 600Y 600             
317N/C              U7_3_1-2    D 280PA00X  74384Y  15081X 600Y 600             
317N/C              U7_3_1-1    D 280PA00X  69944Y  25343X 600Y 600             
317N/C              U7_3_1-2    D 280PA00X  67033Y  24617X 600Y 600             
317N/C              U7_3_1-1    D 280PA00X  65584Y  16318X 600Y 600             
317N/C              U7_3_1-2    D 280PA00X  68495Y  15592X 600Y 600             
317N/C              U34_4 -S    D 280PA00X  55741Y  26313X 600Y 600             
317N/C              U34_4 -G    D 280PA00X  55741Y  27313X 600Y 600             
317N/C              U34_4 -D    D 280PA00X  55741Y  28313X 600Y 600             
317N/C              U35_4 -S    D 280PA00X  56725Y  16298X 600Y 600             
317N/C              U35_4 -G    D 280PA00X  56483Y  15328X 600Y 600             
317N/C              U35_4 -D    D 280PA00X  56241Y  14357X 600Y 600             
317N/C              U34_1_-S    D 280PA00X  58275Y  26504X 600Y 600             
317N/C              U34_1_-G    D 280PA00X  58275Y  27504X 600Y 600             
317N/C              U34_1_-D    D 280PA00X  58275Y  28504X 600Y 600             
317N/C              U34_2_-S    D 280PA00X  50448Y  23431X 600Y 600             
317N/C              U34_2_-G    D 280PA00X  51331Y  23900X 600Y 600             
317N/C              U34_2_-D    D 280PA00X  52214Y  24370X 600Y 600             
317N/C              U34_3_-S    D 280PA00X  47909Y  25104X 600Y 600             
317N/C              U34_3_-G    D 280PA00X  48842Y  25463X 600Y 600             
317N/C              U34_3_-D    D 280PA00X  49776Y  25821X 600Y 600             
317N/C              U35_1_-S    D 280PA00X  59930Y  16039X 600Y 600             
317N/C              U35_1_-G    D 280PA00X  59688Y  15068X 600Y 600             
317N/C              U35_1_-D    D 280PA00X  59446Y  14098X 600Y 600             
317N/C              U35_2_-S    D 280PA00X  50511Y  14178X 600Y 600             
317N/C              U35_2_-G    D 280PA00X  51482Y  14420X 600Y 600             
317N/C              U35_2_-D    D 280PA00X  52452Y  14662X 600Y 600             
317N/C              U35_3_-S    D 280PA00X  50813Y  17457X 600Y 600             
317N/C              U35_3_-G    D 280PA00X  51783Y  17215X 600Y 600             
317N/C              U35_3_-D    D 280PA00X  52753Y  16973X 600Y 600             
317N/C              U7_3_1-1    D 280PA00X  59780Y  18801X 600Y 600             
317N/C              U7_3_1-2    D 280PA00X  57812Y  21065X 600Y 600             
317N/C              U4_1_1-1    D 280PA00X  60223Y  22544X 600Y 600             
317N/C              U4_1_1-2    D 280PA00X  60532Y  23495X 600Y 600             
317N/C              U7_3_1-1    D 280PA00X  57762Y  23669X 600Y 600             
317N/C              U7_3_1-2    D 280PA00X  55497Y  21701X 600Y 600             
317N/C              U7_3_1-1    D 280PA00X  51851Y  20139X 600Y 600             
317N/C              U7_3_1-2    D 280PA00X  48941Y  20865X 600Y 600             
317N/C              U7_3_1-1    D 280PA00X  53661Y  12335X 600Y 600             
317N/C              U7_3_1-2    D 280PA00X  56584Y  11660X 600Y 600             
317N/C              U7_3_1-1    D 280PA00X  42965Y  15114X 600Y 600             
317N/C              U7_3_1-2    D 280PA00X  45876Y  14388X 600Y 600             
317N/C              U34_3_-S    D 280PA00X  40880Y  25407X 600Y 600             
317N/C              U34_3_-G    D 280PA00X  41872Y  25529X 600Y 600             
317N/C              U34_3_-D    D 280PA00X  42865Y  25651X 600Y 600             
317N/C              U7_3_1-1    D 280PA00X  43706Y  20185X 600Y 600             
317N/C              U7_3_1-2    D 280PA00X  44432Y  23096X 600Y 600             
317N/C              U35_2_-S    D 280PA00X  43362Y  10989X 600Y 600             
317N/C              U35_2_-G    D 280PA00X  44354Y  11111X 600Y 600             
317N/C              U35_2_-D    D 280PA00X  45347Y  11233X 600Y 600             
317N/C              U7_3_1-1    D 280PA00X  37891Y  17308X 600Y 600             
317N/C              U7_3_1-2    D 280PA00X  39612Y  19765X 600Y 600             
317N/C              U7_3_1-1    D 280PA00X  37723Y  19479X 600Y 600             
317N/C              U7_3_1-2    D 280PA00X  34812Y  20204X 600Y 600             
317N/C              U38_1 -growtD 280PA00X  45290Y  18689X 600Y 600             
317N/C              U39_1 -1    D 280PA00X  49798Y  19009X 600Y 600             
317N/C              U39_1 -2    D 280PA00X  46820Y  18644X 600Y 600             
317N/C              U7_3_1-1    D 280PA00X  54717Y  18341X 600Y 600             
317N/C              U7_3_1-2    D 280PA00X  51806Y  19067X 600Y 600             
317N/C              U7_3_1-1    D 280PA00X  53935Y  23727X 600Y 600             
317N/C              U7_3_1-2    D 280PA00X  51928Y  21497X 600Y 600             
317N/C              U11_1_-1    D 280PA00X 139233Y  17373X 600Y 600             
317N/C              U11_1_-2    D 280PA00X 136322Y  18099X 600Y 600             
317N/C              U15_3_-1    D 280PA00X 120850Y  22359X 600Y 600             
317N/C              U15_3_-2    D 280PA00X 121473Y  19425X 600Y 600             
317N/C              U2    -1    D 280PA00X 101007Y  19946X 600Y 600             
317N/C              U2    -2    D 280PA00X 102007Y  19981X 600Y 600             
317N/C              U2    -3    D 280PA00X 103006Y  20015X 600Y 600             
317N/C              U2    -4    D 280PA00X 104005Y  20050X 600Y 600             
317N/C              U2    -5    D 280PA00X 105005Y  20085X 600Y 600             
317N/C              U2    -6    D 280PA00X 106004Y  20120X 600Y 600             
317N/C              U2    -7    D 280PA00X 107004Y  20155X 600Y 600             
317N/C              U2    -8    D 280PA00X 106899Y  23153X 600Y 600             
317N/C              U2    -9    D 280PA00X 105900Y  23118X 600Y 600             
317N/C              U2    -10   D 280PA00X 104900Y  23083X 600Y 600             
317N/C              U2    -11   D 280PA00X 103901Y  23049X 600Y 600             
317N/C              U2    -12   D 280PA00X 102901Y  23014X 600Y 600             
317N/C              U2    -13   D 280PA00X 101902Y  22979X 600Y 600             
317N/C              U2    -14   D 280PA00X 100903Y  22944X 600Y 600             
317N/C              U3    -1    D 280PA00X 105820Y  12883X 600Y 600             
317N/C              U3    -2    D 280PA00X 105248Y  15828X 600Y 600             
317N/C              U7_2  -1    D 280PA00X 101577Y  24760X 600Y 600             
317N/C              U7_2  -2    D 280PA00X  98599Y  24394X 600Y 600             
317N/C              U7_1_1-1    D 280PA00X 104846Y  25880X 600Y 600             
317N/C              U7_1_1-2    D 280PA00X 102419Y  27643X 600Y 600             
317N/C              U7_2_1-1    D 280PA00X  99276Y  22787X 600Y 600             
317N/C              U7_2_1-2    D 280PA00X  99381Y  19789X 600Y 600             
317N/C              U7_3  -1    D 280PA00X  98125Y  21976X 600Y 600             
317N/C              U7_3  -2    D 280PA00X  98125Y  18976X 600Y 600             
317N/C              U7_2_1-1    D 280PA00X 105900Y  17712X 600Y 600             
317N/C              U7_2_1-2    D 280PA00X 103099Y  16637X 600Y 600             
317N/C              U1_1  -1    D 280PA00X  99821Y  17238X 600Y 600             
317N/C              U1_1  -2    D 280PA00X 102622Y  18313X 600Y 600             
317N/C              U7_3_1-1    D 280PA00X  96021Y  22228X 600Y 600             
317N/C              U7_3_1-2    D 280PA00X  96387Y  19250X 600Y 600             
317N/C              U1_1_1-1    D 280PA00X  94467Y  16616X 600Y 600             
317N/C              U1_1_1-2    D 280PA00X  94467Y  19616X 600Y 600             
317N/C              U14_1_-S    D 280PA00X  96324Y  16941X 600Y 600             
317N/C              U14_1_-G    D 280PA00X  97324Y  16941X 600Y 600             
317N/C              U14_1_-D    D 280PA00X  98324Y  16941X 600Y 600             
317N/C              U5    -1    D 280PA00X  95107Y  12437X 600Y 600             
317N/C              U5    -2    D 280PA00X  94744Y  10982X 600Y 600             
317N/C              U3_2  -1    D 280PA00X  97767Y  14917X 600Y 600             
317N/C              U3_2  -2    D 280PA00X 100763Y  15074X 600Y 600             
317N/C              U6    -A    D 280PA00X  97911Y  13285X 600Y 600             
317N/C              U6    -K    D 280PA00X 100911Y  13285X 600Y 600             
317N/C              U3_1_2-1    D 280PA00X  92605Y  16160X 600Y 600             
317N/C              U3_1_2-2    D 280PA00X  92500Y  19159X 600Y 600             
317N/C              U1    -1    D 280PA00X 109957Y  17498X 600Y 600             
317N/C              U1    -2    D 280PA00X 111634Y  19985X 600Y 600             
317N/C              U4    -1    D 280PA00X 106272Y  26621X 600Y 600             
317N/C              U4    -2    D 280PA00X 106695Y  27527X 600Y 600             
317N/C              U3_1_2-1    D 280PA00X  91479Y  15688X 600Y 600             
317N/C              U3_1_2-2    D 280PA00X  91374Y  18686X 600Y 600             
317N/C              U13_1 -1    D 280PA00X  92432Y  13747X 600Y 600             
317N/C              U13_1 -2    D 280PA00X  91677Y  14403X 600Y 600             
317N/C              U7_1_1-1    D 280PA00X 108372Y  20028X 600Y 600             
317N/C              U7_1_1-2    D 280PA00X 107954Y  17057X 600Y 600             
317N/C              U7_2_1-1    D 280PA00X 103067Y  23869X 600Y 600             
317N/C              U7_2_1-2    D 280PA00X 106045Y  24235X 600Y 600             
317N/C              U14   -1    D 280PA00X 117215Y  24211X 600Y 600             
317N/C              U14   -2    D 280PA00X 115986Y  23351X 600Y 600             
317N/C              U7_3_1-1    D 280PA00X  50937Y  16141X 600Y 600             
317N/C              U7_3_1-2    D 280PA00X  47959Y  15775X 600Y 600             
317N/C              U35_2_-S    D 280PA00X  87137Y  23558X 600Y 600             
317N/C              U35_2_-G    D 280PA00X  87379Y  22588X 600Y 600             
317N/C              U35_2_-D    D 280PA00X  87621Y  21618X 600Y 600             
317N/C              U35_3_-S    D 280PA00X  82931Y  21821X 600Y 600             
317N/C              U35_3_-G    D 280PA00X  83173Y  20850X 600Y 600             
317N/C              U35_3_-D    D 280PA00X  83415Y  19880X 600Y 600             
317N/C              U34_2_-S    D 280PA00X  84713Y  25389X 600Y 600             
317N/C              U34_2_-G    D 280PA00X  85596Y  24920X 600Y 600             
317N/C              U34_2_-D    D 280PA00X  86479Y  24450X 600Y 600             
317N/C              U34_3_-S    D 280PA00X  82369Y  25969X 600Y 600             
317N/C              U34_3_-G    D 280PA00X  81549Y  26543X 600Y 600             
317N/C              U34_3_-D    D 280PA00X  80730Y  27117X 600Y 600             
317N/C              U7_3_1-1    D 280PA00X  87185Y  17437X 600Y 600             
317N/C              U7_3_1-2    D 280PA00X  88260Y  14636X 600Y 600             
317N/C              U7_3_1-1    D 280PA00X  88191Y  19693X 600Y 600             
317N/C              U7_3_1-2    D 280PA00X  85542Y  18284X 600Y 600             
317N/C              U7_3_1-1    D 280PA00X  82092Y  18690X 600Y 600             
317N/C              U7_3_1-2    D 280PA00X  83813Y  16232X 600Y 600             
317N/C              U7_3_1-1    D 280PA00X  89214Y  21384X 600Y 600             
317N/C              U7_3_1-2    D 280PA00X  89940Y  18473X 600Y 600             
317N/C              U1_1_1-1    D 280PA00X  85495Y  27572X 600Y 600             
317N/C              U1_1_1-2    D 280PA00X  82584Y  28298X 600Y 600             
317N/C              U1_1_1-1    D 280PA00X  84727Y  22542X 600Y 600             
317N/C              U1_1_1-2    D 280PA00X  82270Y  24263X 600Y 600             
317N/C              U7_3_1-1    D 280PA00X  75994Y  21490X 600Y 600             
317N/C              U7_3_1-2    D 280PA00X  73730Y  19522X 600Y 600             
317N/C              U7_3_1-1    D 280PA00X  77457Y  20805X 600Y 600             
317N/C              U7_3_1-2    D 280PA00X  75193Y  18836X 600Y 600             
317N/C              U7_3_1-1    D 280PA00X  81275Y  21605X 600Y 600             
317N/C              U7_3_1-2    D 280PA00X  79913Y  24278X 600Y 600             
317N/C              U7_3_1-1    D 280PA00X  87253Y  27613X 600Y 600             
317N/C              U7_3_1-2    D 280PA00X  89483Y  25606X 600Y 600             
317N/C              U7_3_1-1    D 280PA00X  48663Y  28087X 600Y 600             
317N/C              U7_3_1-2    D 280PA00X  50072Y  30736X 600Y 600             
317N/C              U1_1_1-1    D 280PA00X  84956Y  29264X 600Y 600             
317N/C              U1_1_1-2    D 280PA00X  82469Y  30941X 600Y 600             
317N/C              U15_2 -1    D 280PA00X  68005Y  30556X 600Y 600             
317N/C              U1    -1    D 100PA00X 134554Y  36458X 500Y 500             
317N/C              U1    -1    D 100PA00X 135981Y  35422X 500Y 500             
317N/C              U1    -1    D 100PA00X 133127Y  35422X 500Y 500             
317N/C              U1    -1    D 100PA00X 133672Y  33745X 500Y 500             
317N/C              U1    -1    D 100PA00X 135436Y  33745X 500Y 500             
999                                                                             
