Designator	Part	Midx	Midy	Refx	Refy	Padx	Pady	TB	Rotation
U3	qpnp	14.698	1.889	14.698	1.889	14.698	1.889	Top	157.0
U3_1	qpnp	14.259	1.674	14.259	1.674	14.259	1.674	Top	-25.0
U15_3	r3	14.642	1.343	14.707	1.477	14.576	1.208	Top	-116.0
U15_1	r3	14.542	1.730	14.416	1.812	14.668	1.648	Top	-33.0
U18	rrrspiral	14.658	2.274	14.805	2.245	14.511	2.303	Top	169.0
U6_1	cpoly101	14.686	2.494	14.613	2.509	14.760	2.478	Top	-12.0
U10	cpoly100	14.619	2.095	14.544	2.105	14.693	2.085	Top	-8.0
U15_3_1	r3	13.958	1.432	14.004	1.575	13.912	1.289	Top	-108.0
U15_3_1_1	r3	14.333	1.479	14.468	1.413	14.199	1.544	Top	154.0
U11	cpoly104	13.725	1.380	13.761	1.526	13.688	1.235	Top	-104.0
U4_2	r3	1.685	2.899	1.695	2.750	1.675	3.049	Top	94.0
U4_3	r3	1.969	1.264	1.868	1.153	2.069	1.376	Top	48.0
U9	cpoly102	1.838	1.697	1.855	1.624	1.821	1.770	Top	103.0
U13_2	r3	2.297	2.827	2.430	2.897	2.165	2.757	Top	-152.0
U14_1	qnpn	12.405	2.449	12.405	2.449	12.405	2.449	Top	13.0
U15_2_1	r3	12.171	2.701	12.316	2.737	12.025	2.665	Top	-166.0
U17_1	cpoly104	11.915	2.038	11.910	1.888	11.920	2.188	Top	88.0
U7	wnob	1.368	0.810	1.351	0.908	1.385	0.711	Top	-80.0
U13_1_2	r3	12.503	2.080	12.474	2.227	12.531	1.933	Top	-79.0
U8_1	rrrvaractor	1.991	1.877	2.037	1.735	1.944	2.020	Top	108.0
U8	rrrvaractor	1.895	2.431	1.849	2.573	1.942	2.288	Top	-72.0
U3	qpnp	1.690	1.993	1.690	1.993	1.690	1.993	Top	122.0
U3_1	qpnp	1.155	1.849	1.155	1.849	1.155	1.849	Top	-39.0
U15_3	r3	1.347	1.266	1.396	1.408	1.298	1.124	Top	-109.0
U15_1	r3	1.440	1.950	1.338	2.060	1.542	1.840	Top	-47.0
U18	rrrspiral	1.367	2.377	1.475	2.482	1.259	2.273	Top	-136.0
U6	cpoly101	1.600	2.364	1.565	2.297	1.634	2.431	Top	63.0
U6_1	cpoly101	1.245	2.635	1.173	2.616	1.318	2.655	Top	15.0
U10	cpoly100	1.787	2.193	1.733	2.244	1.842	2.142	Top	-43.0
U15_3_1	r3	0.977	1.086	0.936	1.230	1.019	0.941	Top	-74.0
U15_3_1_1	r3	1.059	1.351	1.185	1.269	0.934	1.432	Top	147.0
U4_3	r3	2.160	1.918	2.214	1.778	2.106	2.058	Top	111.0
U11	cpoly104	1.621	0.969	1.567	1.109	1.675	0.828	Top	-69.0
U11_1	cpoly104	2.401	1.687	2.303	1.574	2.500	1.801	Top	49.0
U20	cel1	12.735	1.938	12.716	1.985	12.754	1.892	Top	-68.0
U23	ledstar	3.538	1.157	3.538	1.157	3.538	1.157	Top	-83.0
U13_2	r3	13.695	2.105	13.548	2.139	13.841	2.071	Top	-13.0
U4	wobelisk	13.107	1.765	13.107	1.915	13.107	1.915	Top	-90.0
U5	do3	12.909	1.487	12.928	1.338	12.928	1.338	Top	97.0
U23_1	ledstar	3.453	2.662	3.453	2.662	3.453	2.662	Top	-83.0
U30	dip8	7.045	2.018	7.176	2.185	7.176	2.185	Top	-173.0
U31	qpnp	7.470	2.572	7.470	2.572	7.470	2.572	Top	14.0
U32	qnpn	7.170	1.385	7.170	1.385	7.170	1.385	Top	-28.0
U7_3_1	r3	7.318	1.709	7.458	1.655	7.178	1.763	Top	159.0
U7_3_1_1	r3	7.718	1.766	7.620	1.653	7.817	1.879	Top	49.0
U7_3_1_1_1	r3	7.718	1.433	7.867	1.454	7.570	1.412	Top	-172.0
U7_3_1_1_2	r3	7.909	2.212	7.840	2.345	7.977	2.078	Top	-63.0
U7_3_1_1_3	r3	7.443	2.295	7.298	2.259	7.589	2.331	Top	14.0
U7_3_1_1_4	r3	7.792	2.702	7.942	2.702	7.642	2.702	Top	180.0
U7_3_1_1_2_1	r3	7.489	2.432	7.343	2.396	7.634	2.469	Top	14.0
U7_3_1_2	r3	7.298	1.562	7.438	1.508	7.158	1.616	Top	159.0
U7_3_1_1_3_1	r3	6.849	2.498	6.703	2.462	6.994	2.534	Top	14.0
U7_3_1_2_1	r3	6.704	1.595	6.850	1.559	6.558	1.632	Top	166.0
U34	qnpn	5.574	2.731	5.574	2.731	5.574	2.731	Top	90.0
U35	qpnp	5.648	1.533	5.648	1.533	5.648	1.533	Top	-104.0
U34_1	qnpn	5.828	2.750	5.828	2.750	5.828	2.750	Top	90.0
U34_2	qnpn	5.133	2.390	5.133	2.390	5.133	2.390	Top	28.0
U34_3	qnpn	4.884	2.546	4.884	2.546	4.884	2.546	Top	21.0
U35_1	qpnp	5.969	1.507	5.969	1.507	5.969	1.507	Top	-104.0
U35_2	qpnp	5.148	1.442	5.148	1.442	5.148	1.442	Top	14.0
U35_3	qpnp	5.178	1.722	5.178	1.722	5.178	1.722	Top	-14.0
U7_3_1_2_1_1	r3	5.880	1.993	5.781	2.106	5.978	1.880	Top	-49.0
U4_1	cel1	6.038	2.302	6.053	2.350	6.022	2.254	Top	-108.0
U7_3_1_2_1_2	r3	5.663	2.269	5.550	2.170	5.776	2.367	Top	41.0
U7_3_1_2_1_1_1	r3	5.040	2.050	4.894	2.086	5.185	2.014	Top	-14.0
U7_3_1_2_1_1_1_1	r3	5.512	1.200	5.658	1.166	5.366	1.233	Top	167.0
U7_3_1_2_1_1_1_1_1	r3	4.442	1.475	4.588	1.439	4.297	1.511	Top	166.0
U34_3_1	qnpn	4.187	2.553	4.187	2.553	4.187	2.553	Top	7.0
U7_3_1_2_1_1_1_1_2	r3	4.407	2.164	4.443	2.310	4.371	2.019	Top	-104.0
U35_2_1	qpnp	4.435	1.111	4.435	1.111	4.435	1.111	Top	7.0
U7_3_1_2_1_1_1_1_2_1	r3	3.875	1.854	3.961	1.976	3.789	1.731	Top	-125.0
U7_3_1_2_1_1_1_1_2_2	r3	3.627	1.984	3.481	2.020	3.772	1.948	Top	-14.0
U39	cpoly104	4.831	1.883	4.682	1.864	4.980	1.901	Top	7.0
U7_3_1_2_1_1_1_1_2_5	r3	5.326	1.870	5.181	1.907	5.472	1.834	Top	-14.0
U7_3_1_2_1_1_1_1_2_6	r3	5.293	2.261	5.193	2.150	5.393	2.373	Top	48.0
U11_1	cpoly104	13.778	1.774	13.632	1.810	13.923	1.737	Top	-14.0
U15_3_1_2_2	r3	12.116	2.089	12.147	1.942	12.085	2.236	Top	102.0
U2	dip14	10.395	2.155	10.101	1.995	10.101	1.995	Top	2.0
U3	r3	10.553	1.436	10.525	1.583	10.582	1.288	Top	-79.0
U7_2	r3	10.009	2.458	9.860	2.439	10.158	2.476	Top	7.0
U7_1_1	r3	10.363	2.676	10.242	2.764	10.485	2.588	Top	-36.0
U7_2_1	r3	9.933	2.129	9.938	1.979	9.928	2.279	Top	92.0
U7_3	r3	9.812	2.048	9.812	1.898	9.812	2.198	Top	90.0
U7_2_1_1	r3	10.450	1.717	10.310	1.664	10.590	1.771	Top	21.0
U1_1	cpoly104	10.122	1.778	10.262	1.831	9.982	1.724	Top	-159.0
U7_3_1	r3	9.620	2.074	9.639	1.925	9.602	2.223	Top	97.0
U1_1_1	cpoly104	9.447	1.812	9.447	1.962	9.447	1.662	Top	-90.0
U14_1_1	qpnp	9.732	1.694	9.732	1.694	9.732	1.694	Top	0.0
U5	cpoly103	9.493	1.171	9.474	1.098	9.511	1.244	Top	76.0
U3_2	r3	9.927	1.500	10.076	1.507	9.777	1.492	Top	-177.0
U6	do3	9.941	1.329	10.091	1.329	10.091	1.329	Top	180.0
U3_1_2	r3	9.255	1.766	9.250	1.916	9.261	1.616	Top	-88.0
U1	cpoly104	11.080	1.874	11.163	1.999	10.996	1.750	Top	-124.0
U4	cel1	10.648	2.707	10.669	2.753	10.627	2.662	Top	-115.0
U3_1_2	r3	9.143	1.719	9.137	1.869	9.148	1.569	Top	-88.0
U13	cel1	9.205	1.408	9.168	1.440	9.243	1.375	Top	-41.0
U7_1_1	r3	10.816	1.854	10.795	1.706	10.837	2.003	Top	82.0
U7_2	r3	10.456	2.405	10.604	2.423	10.307	2.387	Top	-173.0
U14	cpoly102	11.660	2.378	11.599	2.335	11.721	2.421	Top	35.0
U7_3_1_2_1_1_1_2	r3	4.945	1.596	4.796	1.578	5.094	1.614	Top	7.0
U35_2_2	qpnp	8.738	2.259	8.738	2.259	8.738	2.259	Top	-76.0
U35_3_1	qpnp	8.317	2.085	8.317	2.085	8.317	2.085	Top	-76.0
U34_2_1	qnpn	8.560	2.492	8.560	2.492	8.560	2.492	Top	-28.0
U34_3_2	qnpn	8.155	2.654	8.155	2.654	8.155	2.654	Top	145.0
U7_3_1_2_1_1_1_1_3	r3	8.772	1.604	8.826	1.464	8.718	1.744	Top	111.0
U7_3_1_2_1_1_1_1_3_1	r3	8.687	1.899	8.554	1.828	8.819	1.969	Top	28.0
U7_3_1_2_1_1_1_1_3_1_1	r3	8.295	1.746	8.381	1.623	8.209	1.869	Top	125.0
U7_3_1_2_1_1_1_1_3_1_2	r3	8.958	1.993	8.994	1.847	8.921	2.138	Top	104.0
U1_1_1	cpoly104	8.404	2.794	8.258	2.830	8.549	2.757	Top	-14.0
U1_1_1_1	cpoly104	8.350	2.340	8.227	2.426	8.473	2.254	Top	-35.0
U7_3_1_1_2_2	r3	7.486	2.051	7.373	1.952	7.599	2.149	Top	41.0
U7_3_1_1_2_3	r3	7.633	1.982	7.519	1.884	7.746	2.080	Top	41.0
U7_3_1_1_2_4	r3	8.059	2.294	7.991	2.428	8.128	2.160	Top	-63.0
U7_3_1_1_2_5	r3	8.837	2.661	8.948	2.561	8.725	2.761	Top	138.0
U7_3_1_2_1_1_1_1_4	r3	4.937	2.941	5.007	3.074	4.866	2.809	Top	-118.0
U1_1_1_2	cpoly104	8.371	3.010	8.247	3.094	8.496	2.926	Top	-34.0
U1	pentagram	13.455	3.496	13.455	3.496	13.544	3.374	Top	0.0
U3_2	qpnp	14.698	1.889	14.698	1.889	14.698	1.889	Top	157.0
U3_1_1	qpnp	14.259	1.674	14.259	1.674	14.259	1.674	Top	-25.0
U15_3_2	r3	14.642	1.343	14.707	1.477	14.576	1.208	Top	-116.0
U15_1_1	r3	14.542	1.730	14.416	1.812	14.668	1.648	Top	-33.0
U18_1	rrrspiral	14.658	2.274	14.805	2.245	14.511	2.303	Top	169.0
U6_1_1	cpoly101	14.686	2.494	14.613	2.509	14.760	2.478	Top	-12.0
U10_1	cpoly100	14.619	2.095	14.544	2.105	14.693	2.085	Top	-8.0
U15_3_1_2	r3	13.958	1.432	14.004	1.575	13.912	1.289	Top	-108.0
U15_3_1_1_1	r3	14.333	1.479	14.468	1.413	14.199	1.544	Top	154.0
U11	cpoly104	13.725	1.380	13.761	1.526	13.688	1.235	Top	-104.0
U4_2	r3	1.685	2.899	1.695	2.750	1.675	3.049	Top	94.0
U4_3	r3	1.969	1.264	1.868	1.153	2.069	1.376	Top	48.0
U9	cpoly102	1.838	1.697	1.855	1.624	1.821	1.770	Top	103.0
U13_2	r3	2.297	2.827	2.430	2.897	2.165	2.757	Top	-152.0
U14_1	qnpn	12.405	2.449	12.405	2.449	12.405	2.449	Top	13.0
U15_2_1	r3	12.171	2.701	12.316	2.737	12.025	2.665	Top	-166.0
U17_1	cpoly104	11.915	2.038	11.910	1.888	11.920	2.188	Top	88.0
U7	wnob	1.368	0.810	1.351	0.908	1.385	0.711	Top	-80.0
U13_1_2	r3	12.503	2.080	12.474	2.227	12.531	1.933	Top	-79.0
U8_1	rrrvaractor	1.991	1.877	2.037	1.735	1.944	2.020	Top	108.0
U8	rrrvaractor	1.895	2.431	1.849	2.573	1.942	2.288	Top	-72.0
U3	qpnp	1.690	1.993	1.690	1.993	1.690	1.993	Top	122.0
U3_1	qpnp	1.155	1.849	1.155	1.849	1.155	1.849	Top	-39.0
U15_3	r3	1.347	1.266	1.396	1.408	1.298	1.124	Top	-109.0
U15_1	r3	1.440	1.950	1.338	2.060	1.542	1.840	Top	-47.0
U18	rrrspiral	1.367	2.377	1.475	2.482	1.259	2.273	Top	-136.0
U6	cpoly101	1.600	2.364	1.565	2.297	1.634	2.431	Top	63.0
U6_1	cpoly101	1.245	2.635	1.173	2.616	1.318	2.655	Top	15.0
U10	cpoly100	1.787	2.193	1.733	2.244	1.842	2.142	Top	-43.0
U15_3_1	r3	0.977	1.086	0.936	1.230	1.019	0.941	Top	-74.0
U15_3_1_1	r3	1.059	1.351	1.185	1.269	0.934	1.432	Top	147.0
U4_3	r3	2.160	1.918	2.214	1.778	2.106	2.058	Top	111.0
U11	cpoly104	1.621	0.969	1.567	1.109	1.675	0.828	Top	-69.0
U11_1	cpoly104	2.401	1.687	2.303	1.574	2.500	1.801	Top	49.0
U20	cel1	12.735	1.938	12.716	1.985	12.754	1.892	Top	-68.0
U23_2	ledstar	3.538	1.157	3.538	1.157	3.538	1.157	Top	-83.0
U13_2_1	r3	13.695	2.105	13.548	2.139	13.841	2.071	Top	-13.0
U4_2	wobelisk	13.107	1.765	13.107	1.915	13.107	1.915	Top	-90.0
U5_1	do3	12.909	1.487	12.928	1.338	12.928	1.338	Top	97.0
U23_1_1	ledstar	3.453	2.662	3.453	2.662	3.453	2.662	Top	-83.0
U30_1	dip8	7.045	2.018	7.176	2.185	7.176	2.185	Top	-173.0
U31_1	qpnp	7.470	2.572	7.470	2.572	7.470	2.572	Top	14.0
U32_1	qnpn	7.170	1.385	7.170	1.385	7.170	1.385	Top	-28.0
U7_3_1_3	r3	7.318	1.709	7.458	1.655	7.178	1.763	Top	159.0
U7_3_1_1_5	r3	7.718	1.766	7.620	1.653	7.817	1.879	Top	49.0
U7_3_1_1_1_1	r3	7.718	1.433	7.867	1.454	7.570	1.412	Top	-172.0
U7_3_1_1_2_6	r3	7.909	2.212	7.840	2.345	7.977	2.078	Top	-63.0
U7_3_1_1_3_2	r3	7.443	2.295	7.298	2.259	7.589	2.331	Top	14.0
U7_3_1_1_4_1	r3	7.792	2.702	7.942	2.702	7.642	2.702	Top	180.0
U7_3_1_1_2_1_1	r3	7.489	2.432	7.343	2.396	7.634	2.469	Top	14.0
U7_3_1_2_2	r3	7.298	1.562	7.438	1.508	7.158	1.616	Top	159.0
U7_3_1_1_3_1_1	r3	6.849	2.498	6.703	2.462	6.994	2.534	Top	14.0
U7_3_1_2_1_3	r3	6.704	1.595	6.850	1.559	6.558	1.632	Top	166.0
U34_4	qnpn	5.574	2.731	5.574	2.731	5.574	2.731	Top	90.0
U35_4	qpnp	5.648	1.533	5.648	1.533	5.648	1.533	Top	-104.0
U34_1_1	qnpn	5.828	2.750	5.828	2.750	5.828	2.750	Top	90.0
U34_2_2	qnpn	5.133	2.390	5.133	2.390	5.133	2.390	Top	28.0
U34_3_3	qnpn	4.884	2.546	4.884	2.546	4.884	2.546	Top	21.0
U35_1_1	qpnp	5.969	1.507	5.969	1.507	5.969	1.507	Top	-104.0
U35_2_3	qpnp	5.148	1.442	5.148	1.442	5.148	1.442	Top	14.0
U35_3_2	qpnp	5.178	1.722	5.178	1.722	5.178	1.722	Top	-14.0
U7_3_1_2_1_1_2	r3	5.880	1.993	5.781	2.106	5.978	1.880	Top	-49.0
U4_1_1	cel1	6.038	2.302	6.053	2.350	6.022	2.254	Top	-108.0
U7_3_1_2_1_2_1	r3	5.663	2.269	5.550	2.170	5.776	2.367	Top	41.0
U7_3_1_2_1_1_1_3	r3	5.040	2.050	4.894	2.086	5.185	2.014	Top	-14.0
U7_3_1_2_1_1_1_1_5	r3	5.512	1.200	5.658	1.166	5.366	1.233	Top	167.0
U7_3_1_2_1_1_1_1_1_1	r3	4.442	1.475	4.588	1.439	4.297	1.511	Top	166.0
U34_3_1_1	qnpn	4.187	2.553	4.187	2.553	4.187	2.553	Top	7.0
U7_3_1_2_1_1_1_1_2_3	r3	4.407	2.164	4.443	2.310	4.371	2.019	Top	-104.0
U35_2_1_1	qpnp	4.435	1.111	4.435	1.111	4.435	1.111	Top	7.0
U7_3_1_2_1_1_1_1_2_1_1	r3	3.875	1.854	3.961	1.976	3.789	1.731	Top	-125.0
U7_3_1_2_1_1_1_1_2_2_1	r3	3.627	1.984	3.481	2.020	3.772	1.948	Top	-14.0
U39_1	cpoly104	4.831	1.883	4.682	1.864	4.980	1.901	Top	7.0
U7_3_1_2_1_1_1_1_2_5_1	r3	5.326	1.870	5.181	1.907	5.472	1.834	Top	-14.0
U7_3_1_2_1_1_1_1_2_6_1	r3	5.293	2.261	5.193	2.150	5.393	2.373	Top	48.0
U11_1_1	cpoly104	13.778	1.774	13.632	1.810	13.923	1.737	Top	-14.0
U15_3_1_2_2	r3	12.116	2.089	12.147	1.942	12.085	2.236	Top	102.0
U2	dip14	10.395	2.155	10.101	1.995	10.101	1.995	Top	2.0
U3	r3	10.553	1.436	10.525	1.583	10.582	1.288	Top	-79.0
U7_2	r3	10.009	2.458	9.860	2.439	10.158	2.476	Top	7.0
U7_1_1	r3	10.363	2.676	10.242	2.764	10.485	2.588	Top	-36.0
U7_2_1	r3	9.933	2.129	9.938	1.979	9.928	2.279	Top	92.0
U7_3	r3	9.812	2.048	9.812	1.898	9.812	2.198	Top	90.0
U7_2_1_1	r3	10.450	1.717	10.310	1.664	10.590	1.771	Top	21.0
U1_1	cpoly104	10.122	1.778	10.262	1.831	9.982	1.724	Top	-159.0
U7_3_1	r3	9.620	2.074	9.639	1.925	9.602	2.223	Top	97.0
U1_1_1	cpoly104	9.447	1.812	9.447	1.962	9.447	1.662	Top	-90.0
U14_1_1	qpnp	9.732	1.694	9.732	1.694	9.732	1.694	Top	0.0
U5	cpoly103	9.493	1.171	9.474	1.098	9.511	1.244	Top	76.0
U3_2	r3	9.927	1.500	10.076	1.507	9.777	1.492	Top	-177.0
U6	do3	9.941	1.329	10.091	1.329	10.091	1.329	Top	180.0
U3_1_2	r3	9.255	1.766	9.250	1.916	9.261	1.616	Top	-88.0
U1	cpoly104	11.080	1.874	11.163	1.999	10.996	1.750	Top	-124.0
U4	cel1	10.648	2.707	10.669	2.753	10.627	2.662	Top	-115.0
U3_1_2_1	r3	9.143	1.719	9.137	1.869	9.148	1.569	Top	-88.0
U13_1	cel1	9.205	1.408	9.168	1.440	9.243	1.375	Top	-41.0
U7_1_1	r3	10.816	1.854	10.795	1.706	10.837	2.003	Top	82.0
U7_2_1	r3	10.456	2.405	10.604	2.423	10.307	2.387	Top	-173.0
U14	cpoly102	11.660	2.378	11.599	2.335	11.721	2.421	Top	35.0
U7_3_1_2_1_1_1_2_1	r3	4.945	1.596	4.796	1.578	5.094	1.614	Top	7.0
U35_2_2_1	qpnp	8.738	2.259	8.738	2.259	8.738	2.259	Top	-76.0
U35_3_1_1	qpnp	8.317	2.085	8.317	2.085	8.317	2.085	Top	-76.0
U34_2_1_1	qnpn	8.560	2.492	8.560	2.492	8.560	2.492	Top	-28.0
U34_3_2_1	qnpn	8.155	2.654	8.155	2.654	8.155	2.654	Top	145.0
U7_3_1_2_1_1_1_1_3_2	r3	8.772	1.604	8.826	1.464	8.718	1.744	Top	111.0
U7_3_1_2_1_1_1_1_3_1_3	r3	8.687	1.899	8.554	1.828	8.819	1.969	Top	28.0
U7_3_1_2_1_1_1_1_3_1_1_1	r3	8.295	1.746	8.381	1.623	8.209	1.869	Top	125.0
U7_3_1_2_1_1_1_1_3_1_2_1	r3	8.958	1.993	8.994	1.847	8.921	2.138	Top	104.0
U1_1_1_3	cpoly104	8.404	2.794	8.258	2.830	8.549	2.757	Top	-14.0
U1_1_1_1_1	cpoly104	8.350	2.340	8.227	2.426	8.473	2.254	Top	-35.0
U7_3_1_1_2_2_1	r3	7.486	2.051	7.373	1.952	7.599	2.149	Top	41.0
U7_3_1_1_2_3_1	r3	7.633	1.982	7.519	1.884	7.746	2.080	Top	41.0
U7_3_1_1_2_4_1	r3	8.059	2.294	7.991	2.428	8.128	2.160	Top	-63.0
U7_3_1_1_2_5_1	r3	8.837	2.661	8.948	2.561	8.725	2.761	Top	138.0
U7_3_1_2_1_1_1_1_4_1	r3	4.937	2.941	5.007	3.074	4.866	2.809	Top	-118.0
U1_1_1_2_1	cpoly104	8.371	3.010	8.247	3.094	8.496	2.926	Top	-34.0
U1	pentagram	13.455	3.496	13.455	3.496	13.544	3.374	Top	0.0
