%FSTAX24Y24*%
%MOIN*%
%IN deerhorn_balt.bottomlayer.ger *%
%ADD10C,0.0100*%
%ADD11C,0.0200*%
%ADD12C,0.0400*%
%ADD13C,0.0600*%
%ADD14C,0.0690*%
%ADD15C,0.0800*%
%ADD16C,0.1000*%
D13*X145735Y01738D03*X135678Y024114D03*X149498Y021273D03*D15*
X149064Y023265D02*G01X14926Y023227D01*D13*X150185Y025312D03*
X151127Y014993D03*X147547Y016535D03*X150115Y019502D03*
X148217Y018335D03*X146641Y016957D03*X14604Y015663D03*X144096Y015967D03*
X143286Y017593D03*X150983Y021065D03*X151035Y019111D03*
X150733Y016702D03*X014923Y026908D03*X014304Y02372D03*D15*
X016489Y025049D02*X016428Y025239D01*D13*X127445Y024438D03*D15*
X126819Y023239D02*X126822Y023039D01*D13*X124645Y025148D03*
X129394Y024888D03*X129279Y02669D03*X126428Y014175D03*X127937Y017512D03*
X126794Y018427D03*D15*X126871Y020239D02*X126875Y020039D01*D13*
X011647Y007507D03*X016649Y010941D03*D16*X008933Y029662D03*D13*
X009698Y025568D03*D15*X010486Y022073D02*X01063Y022211D01*D13*
X013623Y022384D03*X015293Y021855D03*X019617Y026977D03*X008004Y02189D03*
X008736Y018532D03*X011929Y013488D03*X010291Y017274D03*
X014343Y020189D03*X011344Y020007D03*X009514Y017903D03*
X008035Y016197D03*X007304Y013735D03*X007326Y011708D03*X01639Y020832D03*
X014873Y019341D03*X01339Y017813D03*X019029Y019996D03*D15*
X017417Y022196D02*X017355Y022386D01*X017379Y019707D02*
X017441Y019517D01*D13*X016178Y017107D03*X020104Y017195D03*
X020995Y015152D03*X018657Y01317D03*D14*X022836Y020162D03*D13*
X022963Y017416D03*X077777Y020312D03*X084658Y022407D03*X08669Y024983D03*
X100113Y018865D03*X103304Y01818D03*X110538Y01708D03*X115325Y016882D03*
X089931Y020405D03*X088039Y018067D03*X090053Y019412D03*
X092523Y019136D03*X093964Y018313D03*X099117Y01361D03*X102181Y014668D03*
X099991Y017873D03*X103182Y017187D03*X101215Y016377D03*
X103472Y013021D03*X103426Y019173D03*X10312Y021041D03*X100234Y019858D03*
X099942Y021296D03*X11066Y018073D03*X114943Y020158D03*X112769Y023088D03*
X117155Y022866D03*X114062Y021354D03*X115447Y017874D03*X117592Y01875D03*
X118113Y016898D03*X117898Y022197D03*D15*X136442Y016893D03*D13*
X136007Y015089D03*X111112Y014601D03*X110416Y016088D03*X1149Y014135D03*
X115203Y015889D03*X097511Y018171D03*X098237Y016012D03*X098235Y01408D03*
X066921Y022618D03*X067186Y023651D03*X068577Y023279D03*
X065928Y022496D03*X065942Y02449D03*X069598Y024822D03*X065301Y019397D03*
X065194Y017077D03*X067752Y017129D03*X066294Y019519D03*
X066033Y018321D03*X067763Y018612D03*X069861Y026481D03*
X071488Y024005D03*X070832Y026723D03*X072509Y025548D03*X07388Y025639D03*
X075248Y027323D03*X068152Y01485D03*X070674Y017886D03*X069085Y014491D03*
X070663Y016403D03*X071927Y017788D03*X073015Y018198D03*
X075926Y018924D03*X076794Y023843D03*X076791Y026365D03*
X079861Y025058D03*X082002Y023437D03*X081944Y021701D03*
X065107Y026108D03*X068891Y026239D03*X062196Y025382D03*
X058275Y027504D03*Y026504D03*X055741Y027313D03*X062254Y01581D03*
X059191Y014165D03*Y015165D03*X056018Y013641D03*X065165Y015085D03*
X067218Y015208D03*X052214Y02437D03*X055741Y026313D03*X049776Y025821D03*
X052475Y014594D03*X056018Y014641D03*X053076Y016267D03*
X051438Y017414D03*X052199Y018808D03*X049798Y019009D03*
X051928Y021497D03*X050448Y023431D03*X052257Y01684D03*X051852Y020139D03*
X055497Y021701D03*X057812Y021065D03*X060223Y022544D03*X051331Y0239D03*
X048941Y020865D03*X051504Y014352D03*X052677Y010444D03*
X048842Y025463D03*X045876Y014388D03*X050534Y01411D03*X041872Y025529D03*
X042965Y015114D03*X043706Y020185D03*X044354Y011111D03*
X044432Y023096D03*X047909Y025104D03*X043362Y010989D03*
X037731Y019039D03*X037905Y017187D03*X035772Y014022D03*
X039626Y019645D03*X04088Y025407D03*X03482Y019765D03*X034728Y023864D03*
X108506Y020312D03*X10731Y018255D03*X106712Y02147D03*X110514Y022542D03*
X112113Y022333D03*X111261Y020279D03*X109027Y018808D03*
X106944Y015278D03*X104405Y013379D03*X104803Y016667D03*
X105092Y015393D03*X04682Y018644D03*X04529Y018689D03*X122256Y015385D03*
X120804Y017695D03*X120209Y01989D03*X121764Y022222D03*X121594Y019968D03*
X12309Y020073D03*X123738Y018319D03*X125294Y015829D03*X123044Y014769D03*
X151956Y018721D03*X145735Y01738D03*X135678Y024114D03*X149498Y021273D03*
D15*X149064Y023265D02*X14926Y023227D01*D13*X150185Y025312D03*
X149811Y012297D03*X151127Y014993D03*X147547Y016535D03*
X150115Y019502D03*X148217Y018335D03*X146641Y016957D03*X14604Y015663D03*
X144096Y015967D03*X143286Y017593D03*D15*X152009Y022693D02*
X152205Y022655D01*D13*X151652Y025D03*X150983Y021065D03*
X151035Y019111D03*X150733Y016702D03*X143169Y013114D03*
X148737Y014348D03*X140938Y012565D03*X141664Y015476D03*X014713Y0299D03*
X014923Y026908D03*X018657Y01317D03*X016649Y010941D03*X016178Y017107D03*
X016515Y015646D03*X019617Y026977D03*X022266Y028385D03*
X127445Y024438D03*X12842Y024663D03*X129394Y024888D03*X126301Y027056D03*
X129279Y02669D03*X126428Y014175D03*X126323Y011176D03*X011821Y006522D03*
X011473Y008491D03*X011647Y007507D03*D15*X126819Y023239D02*
X126822Y023039D01*X126871Y020239D02*X126875Y020039D01*D16*
X010038Y032265D03*X011537Y028557D03*X008933Y029662D03*D13*
X129708Y020085D03*X129136Y02303D03*D15*X017379Y019707D02*
X017441Y019517D01*X018306Y016854D02*X018368Y016664D01*
X017417Y022196D02*X017355Y022386D01*X016489Y025049D02*
X016428Y025239D01*D13*X015403Y018493D03*X014873Y019341D03*
X014343Y020189D03*X008736Y018532D03*X009514Y017903D03*
X010291Y017274D03*X010952Y010652D03*X011929Y013488D03*X01339Y017813D03*
X011344Y020007D03*D15*X010486Y022073D02*X01063Y022211D01*
X012644Y024156D02*X012788Y024295D01*D13*X014304Y02372D03*
X013623Y022384D03*X011147Y025956D03*X009698Y025568D03*X01639Y020832D03*
X015293Y021855D03*X008153Y008824D03*X007326Y011708D03*
X007304Y013735D03*X00982Y012101D03*X123178Y02546D03*X124645Y025148D03*
X019029Y019996D03*X020104Y017195D03*X014716Y007695D03*
X013641Y010496D03*X022963Y017416D03*X020995Y015152D03*D14*
X022836Y020162D03*D13*X079861Y025058D03*X078361Y027656D03*
X082002Y023437D03*X082311Y024388D03*X073883Y023117D03*
X076794Y023843D03*X077777Y020312D03*X074866Y021038D03*
X089931Y020405D03*X090053Y019412D03*X090175Y01842D03*X088039Y018067D03*
X087502Y016667D03*X08669Y024983D03*X084606Y027141D03*X084658Y022407D03*
X084143Y023264D03*X132188Y019645D03*X131813Y020572D03*X008004Y02189D03*
X132707Y023696D03*X099117Y01361D03*X102181Y014668D03*X099991Y017873D03*
X1Y013141D03*X102538Y012662D03*X103182Y017187D03*X101215Y016377D03*
X103472Y013021D03*X103304Y01818D03*X103426Y019173D03*X10312Y021041D03*
X100113Y018865D03*X100234Y019858D03*X099942Y021296D03*X11066Y018073D03*
X114943Y020158D03*X112769Y023088D03*X110538Y01708D03*X115325Y016882D03*
X117155Y022866D03*X114062Y021354D03*X115447Y017874D03*
X116412Y023536D03*X113425Y023842D03*X117592Y01875D03*X118113Y016898D03*
X117898Y022197D03*D15*X136442Y019893D03*Y016893D03*D13*
X136007Y015089D03*X136373Y012111D03*X111112Y014601D03*
X110416Y016088D03*X108662Y01583D03*X117747Y01392D03*X1149Y014135D03*
X115203Y015889D03*X105168Y019644D03*X103486Y024019D03*
X097511Y018171D03*X098237Y016012D03*X098235Y01408D03*X081944Y021701D03*
X084276Y019813D03*X066921Y022618D03*X067186Y023651D03*
X068577Y023279D03*X065928Y022496D03*X065942Y02449D03*X069598Y024822D03*
X064936Y022374D03*X064309Y019275D03*X065301Y019397D03*
X065194Y017077D03*X067752Y017129D03*X066294Y019519D03*
X066033Y018321D03*X067763Y018612D03*X067286Y01964D03*X069861Y026481D03*
X071488Y024005D03*X070832Y026723D03*X072509Y025548D03*X07388Y025639D03*
X075248Y027323D03*X068152Y01485D03*X070674Y017886D03*X069085Y014491D03*
X070663Y016403D03*X071927Y017788D03*X073015Y018198D03*
X075926Y018924D03*X072653Y014877D03*X076791Y026365D03*
X072248Y027323D03*X065107Y026108D03*X068891Y026239D03*
X062196Y025382D03*X058275Y027504D03*Y026504D03*X055741Y027313D03*
X062254Y01581D03*X059191Y014165D03*Y015165D03*X056018Y013641D03*
X065165Y015085D03*X067218Y015208D03*X058275Y028504D03*X052214Y02437D03*
X055741Y026313D03*X049776Y025821D03*X052475Y014594D03*
X056018Y014641D03*X053076Y016267D03*X051438Y017414D03*
X052199Y018808D03*X049798Y019009D03*X051928Y021497D03*
X050448Y023431D03*X052257Y01684D03*X051852Y020139D03*X055497Y021701D03*
X057812Y021065D03*X060223Y022544D03*X051331Y0239D03*X05978Y018801D03*
X060532Y023495D03*X048941Y020865D03*X051504Y014352D03*
X052677Y010444D03*X048842Y025463D03*X054398Y007986D03*
X045876Y014388D03*X050534Y01411D03*X041872Y025529D03*X042965Y015114D03*
X043706Y020185D03*X044354Y011111D03*X044432Y023096D03*
X047909Y025104D03*X043362Y010989D03*X037731Y019039D03*
X045347Y011233D03*X037905Y017187D03*X035772Y014022D03*
X039626Y019645D03*X04088Y025407D03*X03482Y019765D03*X034728Y023864D03*
X108506Y020312D03*X10731Y018255D03*X106712Y02147D03*X110514Y022542D03*
X112113Y022333D03*X111261Y020279D03*X109027Y018808D03*
X106944Y015278D03*X104405Y013379D03*X104803Y016667D03*
X105092Y015393D03*X04682Y018644D03*X04529Y018689D03*X05511Y018082D03*
X010633Y014697D03*X008035Y016197D03*X140375Y018318D03*
X092523Y019136D03*X093964Y018313D03*X094329Y015335D03*
X122256Y015385D03*X120804Y017695D03*X120209Y01989D03*X121764Y022222D03*
X121594Y019968D03*X123832Y014153D03*X119586Y022825D03*X12309Y020073D03*
X123738Y018319D03*X125294Y015829D03*X123044Y014769D03*
X126794Y018427D03*X127937Y017512D03*X128561Y014578D03*
X010952Y010652D03*X008153Y008824D03*X011821Y006522D03*
X014716Y007695D03*X036625Y007074D03*X045347Y011233D03*
X056018Y012641D03*X059191Y013165D03*X05978Y018801D03*X05511Y018082D03*
X072653Y014877D03*X067286Y01964D03*X084276Y019813D03*X090175Y01842D03*
X092837Y016152D03*X094329Y015335D03*X1Y013141D03*X102538Y012662D03*
X110746Y011623D03*X108662Y01583D03*X114535Y011157D03*X117747Y01392D03*
X123832Y014153D03*X129708Y020085D03*X132188Y019645D03*
X136373Y012111D03*X140938Y012565D03*X149811Y012297D03*
X143169Y013114D03*X128561Y014578D03*X036625Y007074D03*
X056018Y012641D03*X059191Y013165D03*X092837Y016152D03*
X110746Y011623D03*X114535Y011157D03*X097877Y021149D03*
X033875Y030812D03*X042865Y025651D03*X055741Y028313D03*
X063943Y022253D03*X053935Y023727D03*X057762Y023669D03*
X084143Y023264D03*X082311Y024388D03*X078361Y027656D03*
X072248Y027323D03*X058275Y028504D03*X055741Y028313D03*
X033875Y030812D03*X014713Y0299D03*D16*X011537Y028557D03*D13*
X011147Y025956D03*D15*X012644Y024156D02*X012788Y024295D01*D16*
X010038Y032265D03*D15*X018306Y016854D02*X018368Y016664D01*D13*
X016515Y015646D03*X015403Y018493D03*X013641Y010496D03*
X011473Y008491D03*X010633Y014697D03*X00982Y012101D03*X042865Y025651D03*
X063943Y022253D03*X060532Y023495D03*X057762Y023669D03*
X053935Y023727D03*X084606Y027141D03*X100307Y024274D03*
X103486Y024019D03*X113425Y023842D03*X119586Y022825D03*
X126301Y027056D03*X123178Y02546D03*X131813Y020572D03*D15*
X136442Y019893D03*D13*X140375Y018318D03*X141664Y015476D03*
X148737Y014348D03*X151956Y018721D03*D15*X152009Y022693D02*
X152205Y022655D01*D13*X151652Y025D03*X116412Y023536D03*
X105168Y019644D03*X097877Y021149D03*X100307Y024274D03*
X022266Y028385D03*X12842Y024663D03*X129136Y02303D03*X132707Y023696D03*
X074866Y021038D03*X073883Y023117D03*X064936Y022374D03*
X064309Y019275D03*X087502Y016667D03*X126323Y011176D03*
X054398Y007986D03*D11*X145735Y01738D02*X143246Y020346D01*
X135678Y024114D01*X143246Y020346D02*X146154Y0227D01*X149498Y021273D01*
X146154Y0227D02*X149162Y023246D01*X150185Y025312D01*X151127Y014993D02*
X149093Y016183D01*X147547Y016535D01*X149093Y016183D02*
X150115Y019502D01*X148217Y018335D02*X146641Y016957D01*X14604Y015663D01*
X144096Y015967D01*X143286Y017593D01*X150983Y021065D02*
X151035Y019111D01*X150733Y016702D01*X014923Y026908D02*X015076Y02479D01*
X014304Y02372D01*X015076Y02479D02*X016459Y025144D01*X127445Y024438D02*
X126366Y023787D01*X12682Y023139D01*X126366Y023787D02*X124645Y025148D01*
X129394Y024888D02*X129279Y02669D01*X126428Y014175D02*X127937Y017512D01*
X126794Y018427D01*X126873Y020139D01*X011647Y007507D02*
X016649Y010941D01*X008933Y029662D02*X009698Y025568D01*
X010558Y022142D01*X010296Y020665D01*X013623Y022384D01*
X015293Y021855D01*X019617Y026977D01*X010296Y020665D02*
X009606Y019979D01*X008004Y02189D01*X009606Y019979D02*X008736Y018532D01*
X011929Y013488D02*X011788Y017614D01*X010291Y017274D01*
X011788Y017614D02*X014343Y020189D01*X011344Y020007D02*
X009514Y017903D01*X008035Y016197D01*X007304Y013735D01*
X007326Y011708D01*X01639Y020832D02*X014873Y019341D01*X01339Y017813D01*
X019029Y019996D02*X017386Y022291D01*X01741Y019612D01*X016178Y017107D01*
X020104Y017195D02*X019077Y014225D01*X020995Y015152D01*
X019077Y014225D02*X018657Y01317D01*X022836Y020162D02*X022963Y017416D01*
X077777Y020312D02*X080964Y018755D01*X084658Y022407D01*
X086347Y023743D01*X08669Y024983D01*X086347Y023743D02*X08708Y023921D01*
X08865Y023838D01*X100113Y018865D01*X103304Y01818D01*X10706Y017187D01*
X110538Y01708D01*X115325Y016882D01*X08865Y023838D02*X089931Y020405D01*
X088039Y018067D02*X088715Y019271D01*X090053Y019412D01*
X092523Y019136D01*X093964Y018313D01*X099117Y01361D02*X099942Y015104D01*
X102181Y014668D01*X099942Y015104D02*X099991Y017873D01*
X103182Y017187D02*X102604Y016493D01*X101215Y016377D01*
X102604Y016493D02*X103472Y013021D01*X103426Y019173D02*X10312Y021041D01*
X100234Y019858D02*X099942Y021296D01*X11066Y018073D02*X112847Y02066D01*
X114943Y020158D01*X112847Y02066D02*X112769Y023088D01*X117155Y022866D02*
X116319Y021991D01*X114062Y021354D01*X116319Y021991D02*
X115447Y017874D01*X117592Y01875D02*X118286Y019155D01*X118113Y016898D01*
X118286Y019155D02*X117898Y022197D01*X136442Y016893D02*
X136007Y015089D01*X111112Y014601D02*X110416Y016088D01*X1149Y014135D02*
X115203Y015889D01*X097511Y018171D02*X097627Y015046D01*
X098237Y016012D01*X097627Y015046D02*X098235Y01408D01*X066921Y022618D02*
X067465Y023277D01*X067186Y023651D01*X067465Y023277D02*
X068577Y023279D01*X065928Y022496D02*X065942Y02449D01*X069598Y024822D01*
X065301Y019397D02*X065194Y017077D01*X067752Y017129D01*
X066294Y019519D02*X066033Y018321D01*X067763Y018612D01*
X069861Y026481D02*X071488Y024005D01*X070832Y026723D02*
X072509Y025548D01*X07388Y025639D01*X075248Y027323D01*X068152Y01485D02*
X070674Y017886D01*X069085Y014491D02*X070663Y016403D01*
X071927Y017788D01*X073015Y018198D01*X075926Y018924D02*
X076794Y023843D01*X076791Y026365D01*X076794Y023843D02*
X079861Y025058D01*X082002Y023437D01*X081944Y021701D01*
X065107Y026108D02*X068891Y026239D01*X062196Y025382D02*
X058275Y027504D01*Y026504D01*Y027504D02*X055741Y027313D01*
X062254Y01581D02*X059191Y014165D01*Y015165D01*Y014165D02*
X056018Y013641D01*D10*X065165Y015085D02*X067218Y015208D01*D11*
X052214Y02437D02*X052778Y025868D01*X055741Y026313D01*X052778Y025868D02*
X049776Y025821D01*X052475Y014594D02*X053935Y015046D01*
X056018Y014641D01*X053935Y015046D02*X053076Y016267D01*
X051438Y017414D02*X051273Y018981D01*X052199Y018808D01*
X051273Y018981D02*X050977Y019854D01*X049798Y019009D01*
X050977Y019854D02*X051282Y02164D01*X051928Y021497D01*X051282Y02164D02*
X050448Y023431D01*X052257Y01684D02*X053509Y019795D01*X052928Y021045D01*
X051852Y020139D01*X052928Y021045D02*X053266Y022408D01*
X055497Y021701D01*X057812Y021065D01*X060223Y022544D01*
X053266Y022408D02*X051331Y0239D01*X048941Y020865D02*X04809Y021238D01*
X048379Y018692D01*X051504Y014352D01*X052677Y010444D01*X04809Y021238D02*
X048842Y025463D01*X045876Y014388D02*X050534Y01411D01*X041872Y025529D02*
X042965Y015114D01*D10*X043706Y020185D02*X044354Y011111D01*D11*
X044432Y023096D02*X047909Y025104D01*X043362Y010989D02*
X041551Y013657D01*X037731Y019039D01*X037905Y017187D02*
X035772Y014022D01*X039626Y019645D02*X040567Y022338D01*X04088Y025407D01*
X03482Y019765D02*X034728Y023864D01*X108506Y020312D02*X107465Y020023D01*
X10731Y018255D01*X107465Y020023D02*X106712Y02147D01*X110514Y022542D02*
X112113Y022333D01*X110705Y020833D01*X111261Y020279D01*
X110705Y020833D02*X109027Y018808D01*X106944Y015278D02*
X104405Y013379D01*X104224Y01522D01*X104803Y016667D01*X104224Y01522D02*
X105092Y015393D01*X04682Y018644D02*X04529Y018689D01*X122256Y015385D02*
X120804Y017695D01*X120209Y01989D01*X120804Y020713D01*X121764Y022222D01*
X120804Y020713D02*X121594Y019968D01*X12309Y020073D02*X123738Y018319D01*
X123391Y016544D01*X125294Y015829D01*X123391Y016544D02*
X123044Y014769D01*D10*X0Y0D02*Y04D01*X16D01*Y0D01*X0D01*D11*
X145735Y01738D02*X143246Y020346D01*X135678Y024114D01*X143246Y020346D02*
X146154Y0227D01*X149498Y021273D01*X146154Y0227D02*X149162Y023246D01*
X150185Y025312D01*X151127Y014993D02*X149093Y016183D01*
X147547Y016535D01*X149093Y016183D02*X150115Y019502D01*
X148217Y018335D02*X146641Y016957D01*X14604Y015663D01*X144096Y015967D01*
X143286Y017593D01*X150983Y021065D02*X151035Y019111D01*
X150733Y016702D01*X099117Y01361D02*X099942Y015104D01*X102181Y014668D01*
X099942Y015104D02*X099991Y017873D01*X103182Y017187D02*
X102604Y016493D01*X101215Y016377D01*X102604Y016493D02*
X103472Y013021D01*X103426Y019173D02*X10312Y021041D01*X100234Y019858D02*
X099942Y021296D01*X11066Y018073D02*X112847Y02066D01*X114943Y020158D01*
X112847Y02066D02*X112769Y023088D01*X117155Y022866D02*X116319Y021991D01*
X114062Y021354D01*X116319Y021991D02*X115447Y017874D01*X117592Y01875D02*
X118286Y019155D01*X118113Y016898D01*X118286Y019155D02*
X117898Y022197D01*X136442Y016893D02*X136007Y015089D01*
X111112Y014601D02*X110416Y016088D01*X1149Y014135D02*X115203Y015889D01*
X097511Y018171D02*X097627Y015046D01*X098237Y016012D01*
X097627Y015046D02*X098235Y01408D01*X066921Y022618D02*X067465Y023277D01*
X067186Y023651D01*X067465Y023277D02*X068577Y023279D01*
X065928Y022496D02*X065942Y02449D01*X069598Y024822D01*X065301Y019397D02*
X065194Y017077D01*X067752Y017129D01*X066294Y019519D02*
X066033Y018321D01*X067763Y018612D01*X069861Y026481D02*
X071488Y024005D01*X070832Y026723D02*X072509Y025548D01*X07388Y025639D01*
X075248Y027323D01*X068152Y01485D02*X070674Y017886D01*X069085Y014491D02*
X070663Y016403D01*X071927Y017788D01*X073015Y018198D01*
X065107Y026108D02*X068891Y026239D01*X062196Y025382D02*
X058275Y027504D01*Y026504D01*Y027504D02*X055741Y027313D01*
X062254Y01581D02*X059191Y014165D01*Y015165D01*Y014165D02*
X056018Y013641D01*D10*X065165Y015085D02*X067218Y015208D01*D11*
X052214Y02437D02*X052778Y025868D01*X055741Y026313D01*X052778Y025868D02*
X049776Y025821D01*X052475Y014594D02*X053935Y015046D01*
X056018Y014641D01*X053935Y015046D02*X053076Y016267D01*
X051438Y017414D02*X051273Y018981D01*X052199Y018808D01*
X051273Y018981D02*X050977Y019854D01*X049798Y019009D01*
X050977Y019854D02*X051282Y02164D01*X051928Y021497D01*X051282Y02164D02*
X050448Y023431D01*X052257Y01684D02*X053509Y019795D01*X052928Y021045D01*
X051852Y020139D01*X052928Y021045D02*X053266Y022408D01*
X055497Y021701D01*X057812Y021065D01*X060223Y022544D01*
X053266Y022408D02*X051331Y0239D01*X048941Y020865D02*X04809Y021238D01*
X048379Y018692D01*X051504Y014352D01*X052677Y010444D01*X04809Y021238D02*
X048842Y025463D01*X045876Y014388D02*X050534Y01411D01*X041872Y025529D02*
X042965Y015114D01*D10*X043706Y020185D02*X044354Y011111D01*D11*
X044432Y023096D02*X047909Y025104D01*X043362Y010989D02*
X041551Y013657D01*X037731Y019039D01*X037905Y017187D02*
X035772Y014022D01*X039626Y019645D02*X040567Y022338D01*X04088Y025407D01*
X03482Y019765D02*X034728Y023864D01*X108506Y020312D02*X107465Y020023D01*
X10731Y018255D01*X107465Y020023D02*X106712Y02147D01*X110514Y022542D02*
X112113Y022333D01*X110705Y020833D01*X111261Y020279D01*
X110705Y020833D02*X109027Y018808D01*X106944Y015278D02*
X104405Y013379D01*X104224Y01522D01*X104803Y016667D01*X104224Y01522D02*
X105092Y015393D01*X04682Y018644D02*X04529Y018689D01*X122256Y015385D02*
X120804Y017695D01*X120209Y01989D01*X120804Y020713D01*X121764Y022222D01*
X120804Y020713D02*X121594Y019968D01*X12309Y020073D02*X123738Y018319D01*
X123391Y016544D01*X125294Y015829D01*X123391Y016544D02*
X123044Y014769D01*D10*X0Y0D02*Y04D01*X16D01*Y0D01*X0D01*D11*
X009915Y007896D02*X010952Y010652D01*X009915Y007896D02*
X008153Y008824D01*X011821Y006522D02*X009915Y007896D01*
X014716Y007695D02*X011821Y006522D01*X036625Y007074D02*
X014716Y007695D01*X046698Y00723D02*X036625Y007074D01*X046698Y00723D02*
X045347Y011233D01*X054803Y009838D02*X046698Y00723D01*X056018Y012641D02*
X054803Y009838D01*X059191Y013165D02*X056018Y012641D01*
X063426Y011805D02*X059191Y013165D01*X063426Y011805D02*
X062767Y018328D01*X05978Y018801D01*X05511Y018082D01*X072858Y013542D02*
X063426Y011805D01*X072858Y013542D02*X072653Y014877D01*
X076099Y015451D02*X072858Y013542D01*X076099Y015451D02*
X073032Y020081D01*X067286Y01964D01*X085243Y018113D02*X076099Y015451D01*
X085243Y018113D02*X084276Y019813D01*X090768Y016439D02*
X085243Y018113D01*X090768Y016439D02*X090175Y01842D01*X093346Y014678D02*
X090768Y016439D01*X093346Y014678D02*X092837Y016152D01*
X095267Y013512D02*X093346Y014678D01*X095267Y013512D02*
X094329Y015335D01*X099594Y011227D02*X095267Y013512D01*
X099594Y011227D02*X1Y013141D01*X102025Y011632D02*X099594Y011227D01*
X102025Y011632D02*X102538Y012662D01*X110746Y011623D02*
X102025Y011632D01*X110746Y011623D02*X108662Y01583D01*X114535Y011157D02*
X110746Y011623D01*X114535Y011157D02*X117747Y01392D01*X12469Y012437D02*
X114535Y011157D01*X12469Y012437D02*X123832Y014153D01*X128806Y013672D02*
X12469Y012437D01*X128806Y013672D02*X130158Y014519D01*X130517Y016814D01*
X129708Y020085D01*X130517Y016814D02*X132188Y019645D01*
X130158Y014519D02*X136373Y012111D01*X140938Y012565D01*X14245Y012066D01*
X149811Y012297D01*X14245Y012066D02*X143169Y013114D01*X128561Y014578D02*
X128806Y013672D01*X082311Y024388D02*X084143Y023264D01*
X083477Y027284D02*X082311Y024388D01*X083477Y027284D02*
X078361Y027656D01*X070291Y028755D01*X072248Y027323D01*
X070291Y028755D02*X06507Y027589D01*X058275Y028504D01*X055741Y028313D01*
X041485Y031166D01*X033875Y030812D01*X021808Y025782D01*
X020708Y028931D01*X014713Y0299D01*X011537Y030507D01*Y028557D01*
X011147Y025956D01*X012716Y024226D01*X011537Y030507D02*
X010038Y032265D01*X021808Y025782D02*X021969Y02307D01*X018337Y016759D01*
X016515Y015646D01*X014729Y014324D01*X015403Y018493D01*
X014729Y014324D02*X014298Y01324D01*X013641Y010496D01*X014298Y01324D02*
X012788Y012086D01*X011473Y008491D01*X012788Y012086D02*
X011174Y012459D01*X010633Y014697D01*X011174Y012459D02*X00982Y012101D01*
X041485Y031166D02*X042865Y025651D01*X06507Y027589D02*X063225Y024098D01*
X063943Y022253D01*X063225Y024098D02*X060532Y023495D01*
X057762Y023669D01*X053935Y023727D01*X084606Y027141D02*
X083477Y027284D01*X100307Y024274D02*X084606Y027141D01*
X100307Y024274D02*X103486Y024019D01*X113136Y024826D01*
X113425Y023842D01*X113136Y024826D02*X115601Y0252D01*X118929Y025011D01*
X119586Y022825D01*X118929Y025011D02*X121015Y025824D01*
X126301Y027056D01*X121015Y025824D02*X123178Y02546D01*X123479Y022613D01*
X131813Y020572D01*X136442Y019893D01*X139004Y018229D01*
X140375Y018318D01*X139004Y018229D02*X141664Y015476D01*
X146513Y013805D01*X148737Y014348D01*X152843Y014077D01*
X153011Y015269D01*X151956Y018721D01*X153011Y015269D02*
X153961Y021387D01*X152107Y022674D01*X151652Y025D01*X115601Y0252D02*
X116412Y023536D01*X103486Y024019D02*X105168Y019644D01*
X097877Y021149D02*X100307Y024274D01*X031456Y034482D02*
X022266Y028385D01*X051985Y033428D02*X031456Y034482D01*
X124741Y028745D02*X051985Y033428D01*X127173Y028463D02*
X124741Y028745D01*X12842Y024663D02*X127173Y028463D01*X129136Y02303D02*
X12842Y024663D01*X132707Y023696D02*X129136Y02303D01*D12*
X073883Y023117D02*X074866Y021038D01*X064789Y02085D02*X073883Y023117D01*
X064789Y02085D02*X064936Y022374D01*X064309Y019275D02*X064789Y02085D01*
D11*X087762Y011198D02*X087502Y016667D01*X087762Y011198D02*
X099305Y010127D01*X118923Y009433D01*X126323Y011176D01*
X054398Y007986D02*X087762Y011198D01*
M02*