%FSTAX24Y24*%
%MOIN*%
%IN deerhorn_balt.topsoldermask.ger *%
%ADD10C,0.0800*%
%ADD11C,0.0890*%
%ADD12C,0.1000*%
%ADD13C,0.1200*%
D10*X151956Y018721D03*X151035Y019111D03*X150115Y019502D03*
X145735Y01738D03*X146641Y016957D03*X147547Y016535D03*X149811Y012297D03*
X151127Y014993D03*X150733Y016702D03*X148217Y018335D03*D12*
X149064Y023265D02*G01X14926Y023227D01*X152009Y022693D02*
X152205Y022655D01*D10*X151652Y025D03*X150185Y025312D03*
X150983Y021065D03*X149498Y021273D03*X143169Y013114D03*
X144096Y015967D03*X14604Y015663D03*X148737Y014348D03*X140938Y012565D03*
X141664Y015476D03*X014713Y0299D03*X014923Y026908D03*X018657Y01317D03*
X016649Y010941D03*X016178Y017107D03*X016515Y015646D03*
X019617Y026977D03*X022266Y028385D03*X127445Y024438D03*X12842Y024663D03*
X129394Y024888D03*X126301Y027056D03*X129279Y02669D03*X126428Y014175D03*
X126323Y011176D03*X011821Y006522D03*X011473Y008491D03*
X011647Y007507D03*D12*X126819Y023239D02*X126822Y023039D01*
X126871Y020239D02*X126875Y020039D01*D13*X010038Y032265D03*
X011537Y028557D03*X008933Y029662D03*D10*X129708Y020085D03*
X129136Y02303D03*D12*X017379Y019707D02*X017441Y019517D01*
X018306Y016854D02*X018368Y016664D01*X017417Y022196D02*
X017355Y022386D01*X016489Y025049D02*X016428Y025239D01*D10*
X015403Y018493D03*X014873Y019341D03*X014343Y020189D03*
X008736Y018532D03*X009514Y017903D03*X010291Y017274D03*
X010952Y010652D03*X011929Y013488D03*X01339Y017813D03*X011344Y020007D03*
D12*X010486Y022073D02*X01063Y022211D01*X012644Y024156D02*
X012788Y024295D01*D10*X014304Y02372D03*X013623Y022384D03*
X011147Y025956D03*X009698Y025568D03*X01639Y020832D03*X015293Y021855D03*
X008153Y008824D03*X007326Y011708D03*X007304Y013735D03*X00982Y012101D03*
X123178Y02546D03*X124645Y025148D03*X019029Y019996D03*X020104Y017195D03*
X014716Y007695D03*X013641Y010496D03*X022963Y017416D03*
X020995Y015152D03*D11*X022836Y020162D03*D10*X079861Y025058D03*
X078361Y027656D03*X082002Y023437D03*X082311Y024388D03*
X073883Y023117D03*X076794Y023843D03*X077777Y020312D03*
X074866Y021038D03*X089931Y020405D03*X090053Y019412D03*X090175Y01842D03*
X088039Y018067D03*X087502Y016667D03*X08669Y024983D03*X084606Y027141D03*
X084658Y022407D03*X084143Y023264D03*X132188Y019645D03*
X131813Y020572D03*X008004Y02189D03*X036625Y007074D03*X035772Y014022D03*
X135678Y024114D03*X132707Y023696D03*X098235Y01408D03*X099117Y01361D03*
X1Y013141D03*X104405Y013379D03*X103472Y013021D03*X102538Y012662D03*
X103182Y017187D03*X103304Y01818D03*X103426Y019173D03*X099991Y017873D03*
X100113Y018865D03*X100234Y019858D03*X11066Y018073D03*X110538Y01708D03*
X110416Y016088D03*X115447Y017874D03*X115325Y016882D03*
X115203Y015889D03*X117898Y022197D03*X117155Y022866D03*
X116412Y023536D03*X112113Y022333D03*X112769Y023088D03*
X113425Y023842D03*X111261Y020279D03*X114062Y021354D03*
X114943Y020158D03*X117592Y01875D03*X102181Y014668D03*X105092Y015393D03*
X098237Y016012D03*X101215Y016377D03*D12*X136442Y019893D03*Y016893D03*
D10*X136007Y015089D03*X136373Y012111D03*X110746Y011623D03*
X111112Y014601D03*X108662Y01583D03*X109027Y018808D03*X117747Y01392D03*
X118113Y016898D03*X114535Y011157D03*X1149Y014135D03*X105168Y019644D03*
X104803Y016667D03*X103486Y024019D03*X10312Y021041D03*X100307Y024274D03*
X099942Y021296D03*X097877Y021149D03*X097511Y018171D03*
X034728Y023864D03*X033875Y030812D03*X081944Y021701D03*
X084276Y019813D03*X066921Y022618D03*X065928Y022496D03*
X064936Y022374D03*X063943Y022253D03*X064309Y019275D03*
X065301Y019397D03*X066294Y019519D03*X067286Y01964D03*X068891Y026239D03*
X069861Y026481D03*X070832Y026723D03*X067218Y015208D03*X068152Y01485D03*
X069085Y014491D03*X067763Y018612D03*X070674Y017886D03*
X075926Y018924D03*X073015Y018198D03*X071927Y017788D03*
X072653Y014877D03*X076791Y026365D03*X07388Y025639D03*X071488Y024005D03*
X068577Y023279D03*X072248Y027323D03*X075248D03*X072509Y025548D03*
X069598Y024822D03*X067186Y023651D03*X065942Y02449D03*X067752Y017129D03*
X070663Y016403D03*X066033Y018321D03*X065194Y017077D03*
X065107Y026108D03*X062196Y025382D03*X062254Y01581D03*X065165Y015085D03*
X055741Y026313D03*Y027313D03*Y028313D03*X056018Y014641D03*Y013641D03*
Y012641D03*X058275Y026504D03*Y027504D03*Y028504D03*X050448Y023431D03*
X051331Y0239D03*X052214Y02437D03*X047909Y025104D03*X048842Y025463D03*
X049776Y025821D03*X059191Y015165D03*Y014165D03*Y013165D03*
X050534Y01411D03*X051504Y014352D03*X052475Y014594D03*X051438Y017414D03*
X052257Y01684D03*X053076Y016267D03*X05978Y018801D03*X057812Y021065D03*
X060223Y022544D03*X060532Y023495D03*X057762Y023669D03*
X055497Y021701D03*X051852Y020139D03*X048941Y020865D03*
X052677Y010444D03*X054398Y007986D03*X042965Y015114D03*
X045876Y014388D03*X04088Y025407D03*X041872Y025529D03*X042865Y025651D03*
X043706Y020185D03*X044432Y023096D03*X043362Y010989D03*
X044354Y011111D03*X045347Y011233D03*X037905Y017187D03*
X039626Y019645D03*X037731Y019039D03*X03482Y019765D03*X106712Y02147D03*
X108506Y020312D03*X110514Y022542D03*X10731Y018255D03*X106944Y015278D03*
X04529Y018689D03*X049798Y019009D03*X04682Y018644D03*X05511Y018082D03*
X052199Y018808D03*X053935Y023727D03*X051928Y021497D03*
X010633Y014697D03*X008035Y016197D03*X143286Y017593D03*
X140375Y018318D03*X092523Y019136D03*X092837Y016152D03*
X093964Y018313D03*X094329Y015335D03*X122256Y015385D03*
X123044Y014769D03*X123832Y014153D03*X123738Y018319D03*
X120804Y017695D03*X119586Y022825D03*X120209Y01989D03*X121594Y019968D03*
X12309Y020073D03*X126794Y018427D03*X125294Y015829D03*X127937Y017512D03*
X128561Y014578D03*X121764Y022222D03*X151956Y018721D03*
X151035Y019111D03*X150115Y019502D03*X145735Y01738D03*X146641Y016957D03*
X147547Y016535D03*X149811Y012297D03*X151127Y014993D03*
X150733Y016702D03*X148217Y018335D03*D12*X149064Y023265D02*
X14926Y023227D01*X152009Y022693D02*X152205Y022655D01*D10*
X151652Y025D03*X150185Y025312D03*X150983Y021065D03*X149498Y021273D03*
X143169Y013114D03*X144096Y015967D03*X14604Y015663D03*X148737Y014348D03*
X140938Y012565D03*X141664Y015476D03*X014713Y0299D03*X014923Y026908D03*
X018657Y01317D03*X016649Y010941D03*X016178Y017107D03*X016515Y015646D03*
X019617Y026977D03*X022266Y028385D03*X127445Y024438D03*X12842Y024663D03*
X129394Y024888D03*X126301Y027056D03*X129279Y02669D03*X126428Y014175D03*
X126323Y011176D03*X011821Y006522D03*X011473Y008491D03*
X011647Y007507D03*D12*X126819Y023239D02*X126822Y023039D01*
X126871Y020239D02*X126875Y020039D01*D13*X010038Y032265D03*
X011537Y028557D03*X008933Y029662D03*D10*X129708Y020085D03*
X129136Y02303D03*D12*X017379Y019707D02*X017441Y019517D01*
X018306Y016854D02*X018368Y016664D01*X017417Y022196D02*
X017355Y022386D01*X016489Y025049D02*X016428Y025239D01*D10*
X015403Y018493D03*X014873Y019341D03*X014343Y020189D03*
X008736Y018532D03*X009514Y017903D03*X010291Y017274D03*
X010952Y010652D03*X011929Y013488D03*X01339Y017813D03*X011344Y020007D03*
D12*X010486Y022073D02*X01063Y022211D01*X012644Y024156D02*
X012788Y024295D01*D10*X014304Y02372D03*X013623Y022384D03*
X011147Y025956D03*X009698Y025568D03*X01639Y020832D03*X015293Y021855D03*
X008153Y008824D03*X007326Y011708D03*X007304Y013735D03*X00982Y012101D03*
X123178Y02546D03*X124645Y025148D03*X019029Y019996D03*X020104Y017195D03*
X014716Y007695D03*X013641Y010496D03*X022963Y017416D03*
X020995Y015152D03*D11*X022836Y020162D03*D10*X079861Y025058D03*
X078361Y027656D03*X082002Y023437D03*X082311Y024388D03*
X073883Y023117D03*X076794Y023843D03*X077777Y020312D03*
X074866Y021038D03*X089931Y020405D03*X090053Y019412D03*X090175Y01842D03*
X088039Y018067D03*X087502Y016667D03*X08669Y024983D03*X084606Y027141D03*
X084658Y022407D03*X084143Y023264D03*X132188Y019645D03*
X131813Y020572D03*X008004Y02189D03*X036625Y007074D03*X035772Y014022D03*
X135678Y024114D03*X132707Y023696D03*X098235Y01408D03*X099117Y01361D03*
X1Y013141D03*X104405Y013379D03*X103472Y013021D03*X102538Y012662D03*
X103182Y017187D03*X103304Y01818D03*X103426Y019173D03*X099991Y017873D03*
X100113Y018865D03*X100234Y019858D03*X11066Y018073D03*X110538Y01708D03*
X110416Y016088D03*X115447Y017874D03*X115325Y016882D03*
X115203Y015889D03*X117898Y022197D03*X117155Y022866D03*
X116412Y023536D03*X112113Y022333D03*X112769Y023088D03*
X113425Y023842D03*X111261Y020279D03*X114062Y021354D03*
X114943Y020158D03*X117592Y01875D03*X102181Y014668D03*X105092Y015393D03*
X098237Y016012D03*X101215Y016377D03*D12*X136442Y019893D03*Y016893D03*
D10*X136007Y015089D03*X136373Y012111D03*X110746Y011623D03*
X111112Y014601D03*X108662Y01583D03*X109027Y018808D03*X117747Y01392D03*
X118113Y016898D03*X114535Y011157D03*X1149Y014135D03*X105168Y019644D03*
X104803Y016667D03*X103486Y024019D03*X10312Y021041D03*X100307Y024274D03*
X099942Y021296D03*X097877Y021149D03*X097511Y018171D03*
X034728Y023864D03*X033875Y030812D03*X081944Y021701D03*
X084276Y019813D03*X066921Y022618D03*X065928Y022496D03*
X064936Y022374D03*X063943Y022253D03*X064309Y019275D03*
X065301Y019397D03*X066294Y019519D03*X067286Y01964D03*X068891Y026239D03*
X069861Y026481D03*X070832Y026723D03*X067218Y015208D03*X068152Y01485D03*
X069085Y014491D03*X067763Y018612D03*X070674Y017886D03*
X075926Y018924D03*X073015Y018198D03*X071927Y017788D03*
X072653Y014877D03*X076791Y026365D03*X07388Y025639D03*X071488Y024005D03*
X068577Y023279D03*X072248Y027323D03*X075248D03*X072509Y025548D03*
X069598Y024822D03*X067186Y023651D03*X065942Y02449D03*X067752Y017129D03*
X070663Y016403D03*X066033Y018321D03*X065194Y017077D03*
X065107Y026108D03*X062196Y025382D03*X062254Y01581D03*X065165Y015085D03*
X055741Y026313D03*Y027313D03*Y028313D03*X056018Y014641D03*Y013641D03*
Y012641D03*X058275Y026504D03*Y027504D03*Y028504D03*X050448Y023431D03*
X051331Y0239D03*X052214Y02437D03*X047909Y025104D03*X048842Y025463D03*
X049776Y025821D03*X059191Y015165D03*Y014165D03*Y013165D03*
X050534Y01411D03*X051504Y014352D03*X052475Y014594D03*X051438Y017414D03*
X052257Y01684D03*X053076Y016267D03*X05978Y018801D03*X057812Y021065D03*
X060223Y022544D03*X060532Y023495D03*X057762Y023669D03*
X055497Y021701D03*X051852Y020139D03*X048941Y020865D03*
X052677Y010444D03*X054398Y007986D03*X042965Y015114D03*
X045876Y014388D03*X04088Y025407D03*X041872Y025529D03*X042865Y025651D03*
X043706Y020185D03*X044432Y023096D03*X043362Y010989D03*
X044354Y011111D03*X045347Y011233D03*X037905Y017187D03*
X039626Y019645D03*X037731Y019039D03*X03482Y019765D03*X106712Y02147D03*
X108506Y020312D03*X110514Y022542D03*X10731Y018255D03*X106944Y015278D03*
X04529Y018689D03*X049798Y019009D03*X04682Y018644D03*X05511Y018082D03*
X052199Y018808D03*X053935Y023727D03*X051928Y021497D03*
X010633Y014697D03*X008035Y016197D03*X143286Y017593D03*
X140375Y018318D03*X092523Y019136D03*X092837Y016152D03*
X093964Y018313D03*X094329Y015335D03*X122256Y015385D03*
X123044Y014769D03*X123832Y014153D03*X123738Y018319D03*
X120804Y017695D03*X119586Y022825D03*X120209Y01989D03*X121594Y019968D03*
X12309Y020073D03*X126794Y018427D03*X125294Y015829D03*X127937Y017512D03*
X128561Y014578D03*X121764Y022222D03*
M02*