317**Signal 34**    U1    -13   D 280PA00X  25390Y  15979X 600Y 600             
317**Signal 34**    U2    -5    D 280PA00X  28484Y  20710X 600Y 600             
317**Signal 34**    U21_1 -2    D 280PA00X  26355Y  17016X 600Y 600             
317**Signal 38**    U1    -7    D 280PA00X  27098Y  10404X 600Y 600             
317**Signal 38**    U3_2_2-2    D 280PA00X  33541Y  24586X 600Y 600             
317**Signal 38**    U4    -2    D 280PA00X  33988Y  22386X 600Y 600             
317**Signal 38**    U4_2_1-2    D 280PA00X  27982Y   8175X 600Y 600             
317**Signal 39**    U4_2_1-1    D 280PA00X  30701Y   6132X 600Y 600             
317**Signal 39**    U8_1  -2    D 280PA00X  32141Y   6255X 600Y 600             
317**Signal 43**    U10_1_-wipe D 400PA00X   8616Y  21891X 800Y 800             
317**Signal 43**    U3_2_2-1    D 280PA00X   8601Y  23416X 600Y 600             
317**Signal 47**    U1    -14   D 280PA00X  24646Y  16648X 600Y 600             
317**Signal 47**    U21_1 -1    D 280PA00X  25206Y  17980X 600Y 600             
317**Signal 47**    U4_2_1-2    D 280PA00X  23734Y  17933X 600Y 600             
317**Signal 50**    U10_1_-wipe D 400PA00X   9547Y  18419X 800Y 800             
317**Signal 50**    U3_2_2-2    D 280PA00X  10535Y  17038X 600Y 600             
317**Signal 52**    U13   -D    D 280PA00X  11068Y  13214X 600Y 600             
317**Signal 52**    U3_2_2-2    D 280PA00X  10184Y  11536X 600Y 600             
317**Signal 53**    U15   -S    D 280PA00X   8293Y  11765X 600Y 600             
317**Signal 53**    U16   -G    D 280PA00X   6419Y  10766X 600Y 600             
317**Signal 55**    U13   -S    D 280PA00X   9921Y  14853X 600Y 600             
317**Signal 55**    U15   -D    D 280PA00X   7675Y  13668X 600Y 600             
317**Signal 55**    U17   -1    D 280PA00X   4486Y  15474X 600Y 600             
317**Signal 55**    U18   -1    D 280PA00X  14623Y  16635X 600Y 600             
317**Signal 55**    U3_2_2-2    D 280PA00X   5489Y  14164X 600Y 600             
317**Signal 62**    U18_1 -2    D 280PA00X  15263Y  10884X 600Y 600             
317**Signal 62**    U3_2_2-2    D 280PA00X  16346Y   9857X 600Y 600             
317**Signal 63**    U15_1 -D    D 280PA00X  12819Y  10180X 600Y 600             
317**Signal 63**    U17_1 -1    D 280PA00X   7593Y   8642X 600Y 600             
317**Signal 63**    U18_1 -1    D 280PA00X  13767Y  10989X 600Y 600             
317**Signal 63**    U3_2_2-2    D 280PA00X  10275Y   9497X 600Y 600             
317**Signal 64**    U15_1 -S    D 280PA00X  13601Y   8339X 600Y 600             
317**Signal 64**    U16_1 -G    D 280PA00X  11314Y   7832X 600Y 600             
317**Signal 65**    U15_1 -G    D 280PA00X  13210Y   9259X 600Y 600             
317**Signal 65**    U16_1 -D    D 280PA00X  10923Y   8752X 600Y 600             
317**Signal 65**    U3_2_2-2    D 280PA00X   9379Y   7756X 600Y 600             
317**Signal 65**    U3_2_2-1    D 280PA00X   8494Y   6711X 600Y 600             
317**Signal 68**    U15   -G    D 280PA00X   7984Y  12716X 600Y 600             
317**Signal 68**    U16   -D    D 280PA00X   6110Y  11717X 600Y 600             
317**Signal 68**    U3_2_2-1    D 280PA00X   4938Y  12222X 600Y 600             
317**Signal 68**    U3_2_2-2    D 280PA00X   9231Y  13304X 600Y 600             
317NNAME00001       U1    -5    D 280PA00X  25612Y  11742X 600Y 600             
317NNAME00001       U4_2_2-1    D 280PA00X  28722Y   9350X 600Y 600             
317NNAME00002       U1    -6    D 280PA00X  26355Y  11073X 600Y 600             
317NNAME00002       U4_2_1-1    D 280PA00X  25718Y  10143X 600Y 600             
317NNAME00002       U4_2_1-1    D 280PA00X  23970Y  10055X 600Y 600             
317NNAME00002       U4_2_1-2    D 280PA00X  24486Y  11441X 600Y 600             
317NNAME00003       U1    -9    D 280PA00X  28362Y  13303X 600Y 600             
317NNAME00003       U2    -12   D 280PA00X  30452Y  22975X 600Y 600             
317NNAME00003       U21   -2    D 280PA00X  30569Y  12909X 600Y 600             
317[1]gnd           U5    -S    D 280PA00X  13498Y  25392X 600Y 600             
317[1]gnd           U5_1  -D    D 280PA00X  16889Y  23515X 600Y 600             
317[1]gnd           U5_1_1-D    D 280PA00X  19422Y  22130X 600Y 600             
317**Signal 7**     U13   -G    D 280PA00X  10494Y  14033X 600Y 600             
317**Signal 7**     U17_2 -1    D 280PA00X  14034Y  13173X 600Y 600             
317**Signal 7**     U3_2_2-1    D 280PA00X  12503Y  14773X 600Y 600             
317**Signal 7**     U3_2_2-1    D 280PA00X  13642Y  15247X 600Y 600             
317**Signal 9**     U1    -2    D 280PA00X  23382Y  13750X 600Y 600             
317**Signal 9**     U18   -2    D 280PA00X  16049Y  17099X 600Y 600             
317**Signal 9**     U3_2_2-1    D 280PA00X  16830Y  13195X 600Y 600             
317**Signal 2**     U2    -3    D 280PA00X  26974Y  22023X 600Y 600             
317**Signal 2**     U4_1  -1    D 280PA00X  26430Y  21079X 600Y 600             
317**Signal 2**     U4_1_2-2    D 280PA00X  22813Y  21100X 600Y 600             
317**Signal 3**     U2    -14   D 280PA00X  28942Y  24287X 600Y 600             
317**Signal 3**     U4    -1    D 280PA00X  31269Y  23654X 600Y 600             
317**Signal 3**     U4_1_4-1    D 280PA00X  27275Y  27571X 600Y 600             
317**Signal 4**     U2    -4    D 280PA00X  27729Y  21366X 600Y 600             
317**Signal 4**     U4_1_1-1    D 280PA00X  26051Y  19494X 600Y 600             
317**Signal 4**     U4_1_2-1    D 280PA00X  25736Y  20425X 600Y 600             
317**Signal 5**     U2    -13   D 280PA00X  29697Y  23631X 600Y 600             
317**Signal 5**     U4_1_3-1    D 280PA00X  32233Y  18465X 600Y 600             
317**Signal 5**     U4_1_4-2    D 280PA00X  25307Y  25307X 600Y 600             
317**Signal 1**     U1    -3    D 280PA00X  24125Y  13081X 600Y 600             
317**Signal 1**     U3_2_2-1    D 280PA00X  22305Y  11153X 600Y 600             
317**Signal 1**     U3_2_2-1    D 280PA00X  20947Y  10947X 600Y 600             
317**Signal 1**     U3_2_2-1    D 280PA00X  19200Y  10785X 600Y 600             
317**Signal 6**     U4_2  -2    D 280PA00X  33742Y   9927X 600Y 600             
317**Signal 6**     U4_2_1-1    D 280PA00X  31194Y   4733X 600Y 600             
317**Signal 6**     U6    -G    D 280PA00X  33211Y   4897X 600Y 600             
317**Signal 8**     U4_2_1-2    D 280PA00X  27790Y   5406X 600Y 600             
317**Signal 8**     U4_2_1-2    D 280PA00X  28297Y   3956X 600Y 600             
317**Signal 8**     U6_2  -G    D 280PA00X  23595Y   8645X 600Y 600             
317**Signal 10**    U6    -D    D 280PA00X  32468Y   4228X 600Y 600             
317**Signal 10**    U6_2  -D    D 280PA00X  22840Y   9301X 600Y 600             
317**Signal 10**    U6_2_1-S    D 280PA00X  21029Y   5926X 600Y 600             
317**Signal 11**    U17_2 -2    D 280PA00X  15523Y  12990X 600Y 600             
317**Signal 11**    U4_2_1-1    D 280PA00X  20371Y   9959X 600Y 600             
317**Signal 19**    U4_2_1-1    D 280PA00X  18108Y   6008X 600Y 600             
317**Signal 19**    U4_2_1-1    D 280PA00X  19260Y   5515X 600Y 600             
317**Signal 19**    U6_2_1-G    D 280PA00X  20560Y   6809X 600Y 600             
317**Signal 20**    111111-1    D 280PA00X  15524Y   2578X 600Y 600             
317**Signal 20**    U6_2_1-G    D 280PA00X  16605Y   5000X 600Y 600             
317**Signal 20**    U6_2_1-G    D 280PA00X  12758Y   3827X 600Y 600             
317**Signal 20**    U6_2_1-S    D 280PA00X  13116Y   2894X 600Y 600             
317**Signal 22**    U4_2_1-2    D 280PA00X  21747Y   3837X 600Y 600             
317**Signal 22**    U4_2_1-1    D 280PA00X  20617Y   3086X 600Y 600             
317**Signal 22**    U6_2_1-S    D 280PA00X  17274Y   4257X 600Y 600             
317**Signal 22**    U8_1_1-1    D 280PA00X  18642Y   3395X 600Y 600             
317**Signal 23**    111111-2    D 280PA00X  14116Y   5226X 600Y 600             
317**Signal 23**    U10_1_-wipe D 400PA00X  13481Y   6495X 800Y 800             
317**Signal 24**    U16_2 -S    D 280PA00X  11111Y    926X 600Y 600             
317**Signal 24**    U4_2_1-2    D 280PA00X  18649Y    822X 600Y 600             
317**Signal 25**    U10_1 -2    D 280PA00X   5500Y   3000X 600Y 600             
317**Signal 25**    U16_2 -G    D 280PA00X  10802Y   1877X 600Y 600             
317**Signal 25**    U8    -K    D 280PA00X   7334Y   3277X 600Y 600             
317**Signal 26**    U1    -10   D 280PA00X  27619Y  13972X 600Y 600             
317**Signal 26**    U1    -12   D 280PA00X  26133Y  15310X 600Y 600             
317**Signal 26**    U10_1_-1    D 400PA00X  32541Y  13030X 800Y 800             
317**Signal 26**    U3_2_2-2    D 280PA00X  15309Y  18704X 600Y 600             
317**Signal 26**    U3_2_2-2    D 280PA00X  16914Y  19074X 600Y 600             
317**Signal 26**    U3_2_2-1    D 280PA00X  17923Y  15675X 600Y 600             
317**Signal 26**    U3_2_2-2    D 280PA00X  19257Y  14958X 600Y 600             
317**Signal 26**    U3_2_2-2    D 280PA00X  19184Y  13374X 600Y 600             
317**Signal 26**    U4_1_1-2    D 280PA00X  28315Y  17526X 600Y 600             
317**Signal 26**    U4_1_3-2    D 280PA00X  30265Y  16201X 600Y 600             
317**Signal 26**    U4_2  -1    D 280PA00X  31478Y  11895X 600Y 600             
317**Signal 26**    U6_1_1-1    D 280PA00X  28481Y  15503X 600Y 600             
317**Signal 27**    U2    -11   D 280PA00X  31207Y  22318X 600Y 600             
317**Signal 27**    U3_2_2-2    D 280PA00X   6486Y  28325X 600Y 600             
317**Signal 27**    U3_2_2-1    D 280PA00X   6806Y  19023X 600Y 600             
317**Signal 27**    U5    -D    D 280PA00X  13948Y  27340X 600Y 600             
317**Signal 27**    U7    -S    D 280PA00X   9624Y  27638X 600Y 600             
317**Signal 27**    U8_2  -K    D 280PA00X   3827Y  28704X 600Y 600             
317**Signal 28**    U10   -1    D 280PA00X  27071Y   6861X 600Y 600             
317**Signal 28**    U4_2_1-2    D 280PA00X  26235Y   8086X 600Y 600             
317**Signal 29**    U4_2_1-1    D 280PA00X  22222Y  13409X 600Y 600             
317**Signal 29**    U4_2_1-2    D 280PA00X  21569Y  14583X 600Y 600             
317**Signal 30**    U23   -1    D 400PA00X  18873Y  18505X 800Y 800             
317**Signal 30**    U4_2_1-1    D 280PA00X  19305Y  16552X 600Y 600             
317**Signal 30**    U4_2_1-1    D 280PA00X  20756Y  17568X 600Y 600             
317**Signal 16**    U10_1_-wipe D 400PA00X  33447Y  12607X 800Y 800             
317**Signal 16**    U4_2_2-2    D 280PA00X  31441Y  10618X 600Y 600             
317**Signal 18**    U10_1_-2    D 400PA00X  34353Y  12185X 800Y 800             
317**Signal 18**    U4_3  -2    D 280PA00X  33828Y  14511X 600Y 600             
317**Signal 31**    U4_1_4-1    D 280PA00X  22055Y  28572X 600Y 600             
317**Signal 31**    U5_1  -S    D 280PA00X  18174Y  25047X 600Y 600             
317**Signal 32**    U2    -1    D 280PA00X  25465Y  23335X 600Y 600             
317**Signal 32**    U4_1_4-2    D 280PA00X  24610Y  22717X 600Y 600             
317**Signal 33**    U4_1_4-2    D 280PA00X  15103Y  26297X 600Y 600             
317**Signal 33**    U4_1_4-1    D 280PA00X  16256Y  25021X 600Y 600             
317**Signal 33**    U5_1  -G    D 280PA00X  17531Y  24281X 600Y 600             
317**Signal 35**    U3_2_2-1    D 280PA00X  15693Y  21815X 600Y 600             
317**Signal 35**    U4_1_4-1    D 280PA00X  14582Y  23343X 600Y 600             
317**Signal 35**    U4_1_4-2    D 280PA00X  17097Y  21478X 600Y 600             
317**Signal 36**    U4_1_4-1    D 280PA00X  20042Y  20906X 600Y 600             
317**Signal 36**    U4_1_4-1    D 280PA00X  19466Y  24198X 600Y 600             
317**Signal 36**    U5_1_1-G    D 280PA00X  20165Y  22799X 600Y 600             
317**Signal 37**    U14   -2    D 400PA00X  19054Y  27614X 800Y 800             
317**Signal 37**    U4_1_4-2    D 280PA00X  20492Y  27017X 600Y 600             
317**Signal 44**    U14   -1    D 400PA00X  18054Y  27614X 800Y 800             
317**Signal 44**    U4_1_4-2    D 280PA00X  16777Y  27976X 600Y 600             
317**Signal 14**    U10_1 -1    D 280PA00X   4138Y   5673X 600Y 600             
317**Signal 14**    U19   -1    D 400PA00X   3241Y   7871X 800Y 800             
317**Signal 46**    U4_1_4-1    D 280PA00X  21791Y  23743X 600Y 600             
317**Signal 46**    U4_1_4-1    D 280PA00X  22069Y  24779X 600Y 600             
317**Signal 46**    U5_1_1-S    D 280PA00X  20908Y  23468X 600Y 600             
317**Signal 48**    U3_2_2-2    D 280PA00X  11893Y  26585X 600Y 600             
317**Signal 48**    U5    -G    D 280PA00X  13723Y  26366X 600Y 600             
317**Signal 48**    U7    -D    D 280PA00X   9589Y  25639X 600Y 600             
317**Signal 56**    U3_2_2-2    D 280PA00X   8288Y  26400X 600Y 600             
317**Signal 56**    U3_2_2-1    D 280PA00X   6903Y  25354X 600Y 600             
317**Signal 56**    U7    -G    D 280PA00X   9606Y  26639X 600Y 600             
317**Signal 59**    U22   -2    D 400PA00X   3987Y  20579X 800Y 800             
317**Signal 59**    U8_2  -A    D 280PA00X   4193Y  25726X 600Y 600             
317**Signal 15**    U11   -growtD 400PA00X  36500Y  16000X 800Y 800             
317**Signal 15**    U8_1_2-2    D 280PA00X  35649Y  17908X 600Y 600             
317**Signal 17**    U2    -16   D 280PA00X  27433Y  25599X 600Y 600             
317**Signal 17**    U4_1_4-2    D 280PA00X  25000Y  28000X 600Y 600             
317**Signal 17**    U4_1_4-2    D 280PA00X  24299Y  26787X 600Y 600             
317**Signal 21**    U20   -1    D 400PA00X  36190Y   7327X 800Y 800             
317**Signal 21**    U4_2_1-2    D 280PA00X  34528Y   3416X 600Y 600             
317**Signal 21**    U6    -S    D 280PA00X  33954Y   5566X 600Y 600             
317**Signal 40**    U10   -2    D 280PA00X  25351Y   4403X 600Y 600             
317**Signal 40**    U4_2_1-2    D 280PA00X  22005Y   7443X 600Y 600             
317**Signal 40**    U4_2_1-2    D 280PA00X  23951Y   4033X 600Y 600             
317**Signal 40**    U6_2  -S    D 280PA00X  24350Y   7989X 600Y 600             
317**Signal 45**    U1    -1    D 280PA00X  22639Y  14419X 600Y 600             
317**Signal 45**    U3_2_2-2    D 280PA00X  20628Y  13640X 600Y 600             
317**Signal 45**    U8_1  -1    D 280PA00X  30733Y   8904X 600Y 600             
317**Signal 51**    U1    -8    D 280PA00X  29105Y  12634X 600Y 600             
317**Signal 51**    U21   -1    D 280PA00X  29687Y  14123X 600Y 600             
317**Signal 51**    U4_1  -2    D 280PA00X  28694Y  19111X 600Y 600             
317**Signal 51**    U4_3  -1    D 280PA00X  30865Y  14980X 600Y 600             
317**Signal 51**    U8_1_2-1    D 280PA00X  33000Y  16500X 600Y 600             
317**Signal 54**    U3_2_2-1    D 280PA00X  31312Y  26594X 600Y 600             
317**Signal 54**    U9    -1    D 400PA00X  30270Y  28493X 800Y 800             
317gnd              U1    -11   D 280PA00X  26876Y  14641X 600Y 600             
317gnd              U10_1_-2    D 400PA00X   8656Y  17965X 800Y 800             
317gnd              U10_1_-1    D 400PA00X   7725Y  21437X 800Y 800             
317gnd              U10_1_-2    D 400PA00X  12590Y   6041X 800Y 800             
317gnd              U16   -S    D 280PA00X   6728Y   9815X 600Y 600             
317gnd              U16_1 -S    D 280PA00X  11705Y   6911X 600Y 600             
317gnd              U16_2 -D    D 280PA00X  10493Y   2828X 600Y 600             
317gnd              U17   -2    D 280PA00X   3482Y  16588X 600Y 600             
317gnd              U17_1 -2    D 280PA00X   6478Y   7638X 600Y 600             
317gnd              U2    -6    D 280PA00X  29238Y  20054X 600Y 600             
317gnd              U22   -1    D 400PA00X   5062Y  17778X 800Y 800             
317gnd              U3_2_2-1    D 280PA00X  11270Y  23651X 600Y 600             
317gnd              U3_2_2-1    D 280PA00X  14088Y  21444X 600Y 600             
317gnd              U3_2_2-2    D 280PA00X   9321Y   3827X 600Y 600             
317gnd              U3_2_2-2    D 280PA00X   3050Y  14554X 600Y 600             
317gnd              U4_2_1-1    D 280PA00X  22274Y   1546X 600Y 600             
317gnd              U4_2_1-1    D 280PA00X  32101Y   1652X 600Y 600             
317gnd              U6_1  -2    D 280PA00X  15472Y   8484X 600Y 600             
317gnd              U6_1_1-2    D 280PA00X  27493Y  15660X 600Y 600             
317gnd              U8    -A    D 280PA00X   5926Y   5926X 600Y 600             
317gnd              U8_1_1-2    D 280PA00X  16246Y   1590X 600Y 600             
317pos9             U1    -4    D 280PA00X  24868Y  12412X 600Y 600             
317pos9             U10_1_-1    D 400PA00X  10438Y  18873X 800Y 800             
317pos9             U10_1_-2    D 400PA00X   9507Y  22345X 800Y 800             
317pos9             U10_1_-1    D 400PA00X  14372Y   6949X 800Y 800             
317pos9             U3_2_2-2    D 280PA00X   9503Y  20338X 600Y 600             
317pos9             U3_2_2-1    D 280PA00X  12700Y  13170X 600Y 600             
317pos9             U3_2_2-2    D 280PA00X  15000Y  15000X 600Y 600             
317pos9             U3_2_2-1    D 280PA00X  12469Y  11543X 600Y 600             
317pos9             U3_2_2-1    D 280PA00X   7078Y  16708X 600Y 600             
317pos9             U3_2_2-1    D 280PA00X   8704Y  10679X 600Y 600             
317pos9             U3_2_2-1    D 280PA00X   8011Y  16045X 600Y 600             
317pos9             U4_2_1-2    D 280PA00X  17032Y   8809X 600Y 600             
317pos9             U6_1  -1    D 280PA00X  15926Y   7593X 600Y 600             
317pos9             U6_2_1-D    D 280PA00X  20091Y   7692X 600Y 600             
317pos9             U6_2_1-D    D 280PA00X  15936Y   5743X 600Y 600             
317pos9             U6_2_1-D    D 280PA00X  12399Y   4761X 600Y 600             
317**Signal 12**    U12   -1    D 400PA00X  12439Y  20289X 800Y 800             
317**Signal 12**    U3_2_2-2    D 280PA00X  12616Y  18066X 600Y 600             
317N/C              U2    -2    D 280PA00X  26220Y  22679X 600Y 600             
317N/C              U2    -7    D 280PA00X  29993Y  19398X 600Y 600             
317N/C              U2    -8    D 280PA00X  30748Y  18742X 600Y 600             
317N/C              U2    -9    D 280PA00X  32716Y  21006X 600Y 600             
317N/C              U2    -10   D 280PA00X  31961Y  21662X 600Y 600             
317N/C              U2    -15   D 280PA00X  28188Y  24943X 600Y 600             
999                                                                             
