%FSTAX24Y24*%
%MOIN*%
%IN spikering.bottomlayer.ger *%
%ADD10C,0.0100*%
%ADD11C,0.0200*%
%ADD12C,0.0600*%
%ADD13C,0.0800*%
%ADD14R,0.0800X0.0800*%
D12*X023382Y01375D03*X01683Y013195D03*X016049Y017099D03*
X024125Y013081D03*X022305Y011153D03*X020947Y010947D03*X0192Y010785D03*
X025612Y011742D03*X028722Y00935D03*X029105Y012634D03*X029687Y014123D03*
X030865Y01498D03*X033Y0165D03*X028694Y019111D03*X028362Y013303D03*
X030569Y012909D03*X030452Y022975D03*X026133Y01531D03*X028315Y017526D03*
X030265Y016201D03*X028481Y015503D03*X027619Y013972D03*
X031478Y011895D03*D13*X032541Y01303D03*D12*X019257Y014958D03*
X017923Y015675D03*X016914Y019074D03*X015309Y018704D03*
X019184Y013374D03*X024646Y016648D03*X025206Y01798D03*X023734Y017933D03*
X027071Y006861D03*X026235Y008086D03*X0055Y003D03*X007334Y003277D03*
X010802Y001877D03*D13*X009547Y018419D03*D12*X010535Y017038D03*D13*
X033447Y012607D03*D12*X031441Y010618D03*D13*X014372Y006949D03*D12*
X015926Y007593D03*X015936Y005743D03*X012399Y004761D03*
X017032Y008809D03*X020091Y007692D03*X024868Y012412D03*
X012469Y011543D03*X008704Y010679D03*X0127Y01317D03*X015Y015D03*
X008011Y016045D03*X007078Y016708D03*D13*X010438Y018873D03*D12*
X009503Y020338D03*D13*X009507Y022345D03*X01259Y006041D03*D12*
X011705Y006911D03*X015472Y008484D03*X010493Y002828D03*X016246Y00159D03*
X022274Y001546D03*X032101Y001652D03*X009321Y003827D03*
X006478Y007638D03*X006728Y009815D03*X00305Y014554D03*X003482Y016588D03*
D13*X005062Y017778D03*X008656Y017965D03*X007725Y021437D03*D12*
X01127Y023651D03*X014088Y021444D03*X029238Y020054D03*X026876Y014641D03*
X027493Y01566D03*X005926Y005926D03*D13*X013481Y006495D03*D12*
X014116Y005226D03*D13*X0365Y016D03*D12*X035649Y017908D03*D13*
X012439Y020289D03*D12*X012616Y018066D03*X010494Y014033D03*
X012503Y014773D03*X013642Y015247D03*X014034Y013173D03*
X008293Y011765D03*X006419Y010766D03*X013601Y008339D03*
X011314Y007832D03*X004486Y015474D03*X005489Y014164D03*
X007675Y013668D03*X009921Y014853D03*X014623Y016635D03*
X007593Y008642D03*X010275Y009497D03*X012819Y01018D03*X013767Y010989D03*
X015523Y01299D03*X020371Y009959D03*D13*X003241Y007871D03*D12*
X004138Y005673D03*X02622Y022679D03*X026974Y022023D03*X022813Y0211D03*
X02643Y021079D03*X029993Y019398D03*X030748Y018742D03*X032716Y021006D03*
X031961Y021662D03*X029697Y023631D03*X025307Y025307D03*
X032233Y018465D03*X028188Y024943D03*D13*X03619Y007327D03*D12*
X033954Y005566D03*X034528Y003416D03*X026355Y017016D03*X02539Y015979D03*
X028484Y02071D03*D13*X003987Y020579D03*D12*X004193Y025726D03*D13*
X018873Y018505D03*D12*X019305Y016552D03*X020756Y017568D03*
X008601Y023416D03*D13*X008616Y021891D03*D12*X006903Y025354D03*
X008288Y0264D03*X009606Y026639D03*X010184Y011536D03*X011068Y013214D03*
X020628Y01364D03*X022639Y014419D03*X030733Y008904D03*X031312Y026594D03*
D13*X03027Y028493D03*D12*X033541Y024586D03*X033988Y022386D03*
X027982Y008175D03*X027098Y010404D03*X016346Y009857D03*
X015263Y010884D03*X008494Y006711D03*X009379Y007756D03*
X010923Y008752D03*X01321Y009259D03*X004938Y012222D03*X007984Y012716D03*
X009231Y013304D03*X00611Y011717D03*X026051Y019494D03*X025736Y020425D03*
X027729Y021366D03*X027275Y027571D03*X028942Y024287D03*
X031269Y023654D03*X022055Y028572D03*X018174Y025047D03*X02461Y022717D03*
X025465Y023335D03*X024299Y026787D03*X025Y028D03*X027433Y025599D03*
X017097Y021478D03*X015693Y021815D03*X014582Y023343D03*
X019466Y024198D03*X020165Y022799D03*X020042Y020906D03*
X020492Y027017D03*D13*X019054Y027614D03*D12*X016777Y027976D03*D14*
X018054Y027614D03*D12*X022005Y007443D03*X02435Y007989D03*
X025351Y004403D03*X023951Y004033D03*X018108Y006008D03*X01926Y005515D03*
X02056Y006809D03*X021747Y003837D03*X018642Y003395D03*X017274Y004257D03*
X020617Y003086D03*X018649Y000822D03*X011111Y000926D03*
X031194Y004733D03*X033211Y004897D03*X033742Y009927D03*
X028297Y003956D03*X02779Y005406D03*X023595Y008645D03*X02397Y010055D03*
X025718Y010143D03*X024486Y011441D03*X026355Y011073D03*
X021569Y014583D03*X022222Y013409D03*X033828Y014511D03*D13*
X034353Y012185D03*D12*X013498Y025392D03*X016889Y023515D03*
X019422Y02213D03*X013723Y026366D03*X011893Y026585D03*X009589Y025639D03*
X017531Y024281D03*X016256Y025021D03*X015103Y026297D03*
X020908Y023468D03*X021791Y023743D03*X022069Y024779D03*
X032468Y004228D03*X021029Y005926D03*X02284Y009301D03*X013116Y002894D03*
X015524Y002578D03*X016605Y005D03*X012758Y003827D03*X009624Y027638D03*
X013948Y02734D03*X031207Y022318D03*X006486Y028325D03*X003827Y028704D03*
X006806Y019023D03*X032141Y006255D03*X030701Y006132D03*D11*
X023382Y01375D02*G01X022552Y012593D01*X018056Y012541D01*
X01683Y013195D01*X018056Y012541D02*X016049Y017099D01*X024125Y013081D02*
X023375Y012799D01*X022305Y011153D01*X020947Y010947D01*X0192Y010785D01*
X025612Y011742D02*X026005Y012117D01*X027942Y01058D01*X028722Y00935D01*
X029105Y012634D02*X029687Y014123D01*X030865Y01498D01*X03175Y016184D01*
X033Y0165D01*X03175Y016184D02*X028694Y019111D01*X028362Y013303D02*
X027897Y012721D01*X029335Y011621D01*X030569Y012909D01*
X031618Y013399D01*X032314Y015137D01*X034246Y015674D01*
X034621Y018383D01*X030025Y022304D01*X030452Y022975D01*X026133Y01531D02*
X027408Y016873D01*X028315Y017526D01*X030265Y016201D01*
X028315Y017526D02*X028481Y015503D01*X027619Y013972D01*
X026994Y013387D01*Y012619D01*X029535Y010825D01*X031478Y011895D01*
X032541Y01303D01*X026994Y013387D02*X025817Y013521D01*X021586Y01689D01*
X019877Y015638D01*X019257Y014958D01*X017923Y015675D01*
X016914Y019074D01*X015309Y018704D01*X019257Y014958D02*
X019184Y013374D01*X024646Y016648D02*X025206Y01798D01*X023734Y017933D01*
X027071Y006861D02*X026235Y008086D01*X0055Y003D02*X007334Y003277D01*
X009259Y001914D01*X010802Y001877D01*X009547Y018419D02*
X010535Y017038D01*X033447Y012607D02*X031441Y010618D01*
X014372Y006949D02*X015926Y007593D01*X016852Y007222D01*
X015936Y005743D01*X01428Y004568D01*X012399Y004761D01*X016852Y007222D02*
X017032Y008809D01*X017614Y009218D01*X018025Y008354D01*
X021153Y009342D01*X020091Y007692D01*X021153Y009342D02*
X022964Y010576D01*X02391Y012017D01*X024868Y012412D01*X017614Y009218D02*
X017525Y009682D01*X016953Y01107D01*X014665Y012214D01*X013378Y012092D01*
X012469Y011543D01*X010247Y010659D01*X008704Y010679D01*
X013378Y012092D02*X0127Y01317D01*X014665Y012214D02*X014733Y013704D01*
X015638Y015062D01*X015Y015D01*X015638Y015062D02*X015145Y017737D01*
X012017Y016832D01*X010247Y015515D01*X008011Y016045D01*
X007078Y016708D01*X012017Y016832D02*X010438Y018873D01*
X010535Y020947D01*X009503Y020338D01*X010535Y020947D02*
X009507Y022345D01*X01259Y006041D02*X011481Y005864D01*X011705Y006911D01*
X013765Y007469D01*X015472Y008484D01*X011481Y005864D02*
X010802Y004074D01*X010493Y002828D01*X01321Y002037D01*X016246Y00159D01*
X022274Y001546D01*X032101Y001652D01*X010802Y004074D02*
X009321Y003827D01*X007222Y00642D01*X006478Y007638D01*X004938Y00963D01*
X006728Y009815D01*X004938Y00963D02*X004506Y009938D01*X00305Y014554D01*
X003482Y016588D01*X005062Y017778D01*X008656Y017965D01*
X007725Y021437D01*X007613Y024486D01*X008766Y024816D01*X01127Y023651D01*
X014088Y021444D01*X014898Y020577D01*X020179Y020016D01*
X020629Y019935D01*X024347Y024878D01*X029228Y021018D01*
X029238Y020054D01*X020629Y019935D02*X021487Y018015D01*
X022986Y016787D01*X024395Y015418D01*X026086Y014009D01*
X026876Y014641D01*X027493Y01566D01*X004506Y009938D02*X005926Y005926D01*
X013481Y006495D02*X014116Y005226D01*X0365Y016D02*X035649Y017908D01*
X012439Y020289D02*X012616Y018066D01*X010494Y014033D02*
X012503Y014773D01*X013642Y015247D01*X012503Y014773D02*
X014034Y013173D01*X008293Y011765D02*X006419Y010766D01*
X013601Y008339D02*X011314Y007832D01*X004486Y015474D02*
X005489Y014164D01*X007675Y013668D01*X009921Y014853D01*
X014623Y016635D01*X007593Y008642D02*X010275Y009497D01*X012819Y01018D01*
X013767Y010989D01*X015523Y01299D02*X017852Y011397D01*X018313Y009795D01*
X020371Y009959D01*X003241Y007871D02*X004138Y005673D01*
X026974Y022023D02*X026421Y021523D01*X022813Y0211D01*X026421Y021523D02*
X02643Y021079D01*X029697Y023631D02*X029137Y022964D01*X027943Y023046D01*
X025307Y025307D01*X029137Y022964D02*X029384Y021853D01*
X032233Y018465D01*X03619Y007327D02*X033954Y005566D01*X034528Y003416D01*
X026355Y017016D02*X026194Y017928D01*X02539Y015979D01*X026194Y017928D02*
X028484Y02071D01*X003987Y020579D02*X004193Y025726D01*X018873Y018505D02*
X019526Y017484D01*X019305Y016552D01*X019526Y017484D02*
X020756Y017568D01*X008601Y023416D02*X008616Y021891D01*
X006903Y025354D02*X008288Y0264D01*X009606Y026639D01*X010184Y011536D02*
X011068Y013214D01*X020628Y01364D02*X020384Y015033D01*X0215Y016D01*
X023126Y015033D01*X022639Y014419D01*X023126Y015033D02*X02929Y010131D01*
X030733Y008904D01*X031312Y026594D02*X03027Y028493D01*X033541Y024586D02*
X033988Y022386D01*X037827Y015932D01*X035499Y011561D01*X032925Y01107D01*
X031005Y008088D01*X027982Y008175D01*X02683Y009711D01*X027098Y010404D01*
X016346Y009857D02*X015263Y010884D01*X008494Y006711D02*
X009379Y007756D01*X010923Y008752D01*X01321Y009259D01*X004938Y012222D02*
X005617Y012654D01*X006358Y012407D01*X007984Y012716D01*
X009231Y013304D01*X006358Y012407D02*X00611Y011717D01*X026051Y019494D02*
X026839Y020139D01*X025736Y020425D01*X026839Y020139D02*
X027729Y021366D01*X027275Y027571D02*X029453Y025D01*X028942Y024287D01*
X029453Y025D02*X031269Y023654D01*X022055Y028572D02*X0215Y026D01*
X018174Y025047D01*X02461Y022717D02*X025465Y023335D01*X024299Y026787D02*
X025Y028D01*X027433Y025599D01*X017097Y021478D02*X015693Y021815D01*
X014582Y023343D01*X019466Y024198D02*X020165Y022799D01*
X020042Y020906D01*X020492Y027017D02*X019054Y027614D01*
X016777Y027976D02*X018054Y027614D01*X022005Y007443D02*
X024528Y006749D01*X02435Y007989D01*X024528Y006749D02*Y005432D01*
X025351Y004403D01*X024528Y005432D02*X023951Y004033D01*
X018108Y006008D02*X019178Y006626D01*X01926Y005515D01*X019178Y006626D02*
X02056Y006809D01*X021747Y003837D02*X020412Y003868D01*X019013Y004033D01*
X018642Y003395D01*X019013Y004033D02*X017274Y004257D01*
X020412Y003868D02*X020617Y003086D01*X018649Y000822D02*
X015864Y000556D01*X011111Y000926D01*X031194Y004733D02*
X032676Y005515D01*X033211Y004897D01*X032676Y005515D02*X03411Y007639D01*
X033742Y009927D01*X028297Y003956D02*X026421Y00535D01*X02779Y005406D01*
X026421Y00535D02*X025598Y006296D01*X024898Y008971D01*X023595Y008645D01*
X02397Y010055D02*X025718Y010143D01*X025897Y010644D01*X024486Y011441D01*
X025897Y010644D02*X026355Y011073D01*X021569Y014583D02*
X022222Y013409D01*X033828Y014511D02*X034353Y012185D01*
X013498Y025392D02*X014527Y025063D01*X016889Y023515D01*X019422Y02213D01*
X013723Y026366D02*X011893Y026585D01*X009589Y025639D01*
X017531Y024281D02*X016256Y025021D01*X015103Y026297D01*
X020908Y023468D02*X021791Y023743D01*X022069Y024779D01*
X032468Y004228D02*X028931Y002634D01*X024857Y002346D01*
X021029Y005926D01*X021523Y006379D01*X021194Y007778D01*X02284Y009301D01*
X013116Y002894D02*X014239Y002881D01*X015524Y002578D01*
X014239Y002881D02*X014445Y003951D01*X016605Y005D01*X014445Y003951D02*
X012758Y003827D01*X009624Y027638D02*X011111Y029096D01*
X013828Y029013D01*X013948Y02734D01*X013828Y029013D02*X027593Y029444D01*
X032231Y023652D01*X031207Y022318D01*X011111Y029096D02*
X006379Y028766D01*X006486Y028325D01*X006379Y028766D02*
X005123Y029506D01*X003827Y028704D01*X005123Y029506D02*
X006806Y019023D01*X032141Y006255D02*X030701Y006132D01*D10*X0Y0D02*
Y03D01*X04D01*Y0D01*X0D01*
M02*