%FSTAX24Y24*%
%MOIN*%
%IN spikering.toplayer.ger *%
%ADD10C,0.0600*%
%ADD11C,0.0800*%
%ADD12R,0.0800X0.0800*%
D10*X015524Y002578D03*X014116Y005226D03*X022639Y014419D03*
X023382Y01375D03*X024125Y013081D03*X024868Y012412D03*X025612Y011742D03*
X026355Y011073D03*X027098Y010404D03*X029105Y012634D03*
X028362Y013303D03*X027619Y013972D03*X026876Y014641D03*X026133Y01531D03*
X02539Y015979D03*X024646Y016648D03*X027071Y006861D03*X025351Y004403D03*
X004138Y005673D03*X0055Y003D03*D11*X010438Y018873D03*X008656Y017965D03*
X009547Y018419D03*X007725Y021437D03*X009507Y022345D03*
X008616Y021891D03*X032541Y01303D03*X034353Y012185D03*X033447Y012607D03*
X014372Y006949D03*X01259Y006041D03*X013481Y006495D03*X0365Y016D03*
X012439Y020289D03*D10*X009921Y014853D03*X010494Y014033D03*
X011068Y013214D03*D12*X018054Y027614D03*D11*X019054D03*D10*
X008293Y011765D03*X007984Y012716D03*X007675Y013668D03*
X013601Y008339D03*X01321Y009259D03*X012819Y01018D03*X006728Y009815D03*
X006419Y010766D03*X00611Y011717D03*X011705Y006911D03*X011314Y007832D03*
X010923Y008752D03*X011111Y000926D03*X010802Y001877D03*
X010493Y002828D03*X004486Y015474D03*X003482Y016588D03*
X007593Y008642D03*X006478Y007638D03*X014034Y013173D03*X015523Y01299D03*
X014623Y016635D03*X016049Y017099D03*X013767Y010989D03*
X015263Y010884D03*D11*X003241Y007871D03*D10*X025465Y023335D03*
X02622Y022679D03*X026974Y022023D03*X027729Y021366D03*X028484Y02071D03*
X029238Y020054D03*X029993Y019398D03*X030748Y018742D03*
X032716Y021006D03*X031961Y021662D03*X031207Y022318D03*
X030452Y022975D03*X029697Y023631D03*X028942Y024287D03*
X028188Y024943D03*X027433Y025599D03*D11*X03619Y007327D03*D10*
X029687Y014123D03*X030569Y012909D03*X025206Y01798D03*X026355Y017016D03*
D11*X005062Y017778D03*X003987Y020579D03*D10*X01127Y023651D03*
X011893Y026585D03*X008601Y023416D03*X008288Y0264D03*X006903Y025354D03*
X006486Y028325D03*X006806Y019023D03*X009503Y020338D03*
X012503Y014773D03*X010535Y017038D03*X0127Y01317D03*X010184Y011536D03*
X022305Y011153D03*X020628Y01364D03*X014088Y021444D03*X015309Y018704D03*
X031312Y026594D03*X033541Y024586D03*X015693Y021815D03*
X016914Y019074D03*X017923Y015675D03*X015Y015D03*X01683Y013195D03*
X019257Y014958D03*X020947Y010947D03*X019184Y013374D03*X0192Y010785D03*
X016346Y009857D03*X012469Y011543D03*X010275Y009497D03*
X007078Y016708D03*X005489Y014164D03*X008704Y010679D03*
X009379Y007756D03*X008494Y006711D03*X009321Y003827D03*
X004938Y012222D03*X00305Y014554D03*X008011Y016045D03*X009231Y013304D03*
X013642Y015247D03*X012616Y018066D03*X031269Y023654D03*
X033988Y022386D03*X02643Y021079D03*X028694Y019111D03*X026051Y019494D03*
X028315Y017526D03*X025736Y020425D03*X022813Y0211D03*X032233Y018465D03*
X030265Y016201D03*X027275Y027571D03*X025307Y025307D03*
X022055Y028572D03*X025Y028D03*X021791Y023743D03*X02461Y022717D03*
X022069Y024779D03*X024299Y026787D03*X014582Y023343D03*
X015103Y026297D03*X020042Y020906D03*X017097Y021478D03*
X019466Y024198D03*X020492Y027017D03*X016256Y025021D03*
X016777Y027976D03*X031478Y011895D03*X033742Y009927D03*
X030701Y006132D03*X02779Y005406D03*X020371Y009959D03*X022005Y007443D03*
X022274Y001546D03*X023951Y004033D03*X018108Y006008D03*
X017032Y008809D03*X01926Y005515D03*X021747Y003837D03*X020617Y003086D03*
X018649Y000822D03*X032101Y001652D03*X034528Y003416D03*
X031194Y004733D03*X028297Y003956D03*X025718Y010143D03*
X027982Y008175D03*X02397Y010055D03*X026235Y008086D03*X022222Y013409D03*
X024486Y011441D03*X019305Y016552D03*X021569Y014583D03*
X020756Y017568D03*X023734Y017933D03*X028722Y00935D03*X031441Y010618D03*
X030865Y01498D03*X033828Y014511D03*X013498Y025392D03*X013723Y026366D03*
X013948Y02734D03*X018174Y025047D03*X017531Y024281D03*X016889Y023515D03*
X020908Y023468D03*X020165Y022799D03*X019422Y02213D03*X033954Y005566D03*
X033211Y004897D03*X032468Y004228D03*X015926Y007593D03*
X015472Y008484D03*X028481Y015503D03*X027493Y01566D03*X02435Y007989D03*
X023595Y008645D03*X02284Y009301D03*X021029Y005926D03*X02056Y006809D03*
X020091Y007692D03*X017274Y004257D03*X016605Y005D03*X015936Y005743D03*
X013116Y002894D03*X012758Y003827D03*X012399Y004761D03*
X009624Y027638D03*X009606Y026639D03*X009589Y025639D03*
X005926Y005926D03*X007334Y003277D03*X030733Y008904D03*
X032141Y006255D03*X018642Y003395D03*X016246Y00159D03*X033Y0165D03*
X035649Y017908D03*X004193Y025726D03*X003827Y028704D03*D11*
X03027Y028493D03*X018873Y018505D03*
M02*